wave.vcd
$version Generated by VerilatedVcd $end
$date Sat Apr  9 16:24:01 2022 $end
$timescale 1ps $end

 $scope module TOP $end
  $var wire  1 g clk $end
  $var wire  1 h rst $end
  $scope module top $end
   $var wire  1 g clk $end
   $var wire 32 $ inst [31:0] $end
   $var wire 32 # inst_addr [31:0] $end
   $var wire  1 % rom_ce $end
   $var wire  1 h rst $end
   $scope module inst_rom0 $end
    $var wire 32 # addr [31:0] $end
    $var wire  1 % ce $end
    $var wire 32 $ inst [31:0] $end
   $upscope $end
   $scope module openmips0 $end
    $var wire  1 g clk $end
    $var wire  8 ( ex_aluop_i [7:0] $end
    $var wire  3 ) ex_alusel_i [2:0] $end
    $var wire 32 * ex_reg1_i [31:0] $end
    $var wire 32 + ex_reg2_i [31:0] $end
    $var wire  5 - ex_wd_i [4:0] $end
    $var wire  5 - ex_wd_o [4:0] $end
    $var wire 32 k ex_wdata_o [31:0] $end
    $var wire  1 , ex_wreg_i $end
    $var wire  1 , ex_wreg_o $end
    $var wire  8 X id_aluop_o [7:0] $end
    $var wire  3 Y id_alusel_o [2:0] $end
    $var wire 32 ' id_inst_i [31:0] $end
    $var wire 32 & id_pc_i [31:0] $end
    $var wire 32 i id_reg1_o [31:0] $end
    $var wire 32 j id_reg2_o [31:0] $end
    $var wire  5 [ id_wd_o [4:0] $end
    $var wire  1 Z id_wreg_o $end
    $var wire  5 / mem_wd_i [4:0] $end
    $var wire  5 ] mem_wd_o [4:0] $end
    $var wire 32 0 mem_wdata_i [31:0] $end
    $var wire 32 ^ mem_wdata_o [31:0] $end
    $var wire  1 . mem_wreg_i $end
    $var wire  1 \ mem_wreg_o $end
    $var wire 32 # pc [31:0] $end
    $var wire  5 a reg1_addr [4:0] $end
    $var wire 32 l reg1_data [31:0] $end
    $var wire  1 _ reg1_read $end
    $var wire  5 b reg2_addr [4:0] $end
    $var wire 32 m reg2_data [31:0] $end
    $var wire  1 ` reg2_read $end
    $var wire 32 # rom_addr_o [31:0] $end
    $var wire  1 % rom_ce_o $end
    $var wire 32 $ rom_data_i [31:0] $end
    $var wire  1 h rst $end
    $var wire  5 2 wb_wd_i [4:0] $end
    $var wire 32 3 wb_wdata_i [31:0] $end
    $var wire  1 1 wb_wreg_i $end
    $scope module ex0 $end
     $var wire  8 ( aluop_i [7:0] $end
     $var wire  3 ) alusel_i [2:0] $end
     $var wire 32 e logicout [31:0] $end
     $var wire 32 * reg1_i [31:0] $end
     $var wire 32 + reg2_i [31:0] $end
     $var wire  1 h rst $end
     $var wire 32 f shiftres [31:0] $end
     $var wire  5 - wd_i [4:0] $end
     $var wire  5 - wd_o [4:0] $end
     $var wire 32 k wdata_o [31:0] $end
     $var wire  1 , wreg_i $end
     $var wire  1 , wreg_o $end
    $upscope $end
    $scope module ex_mem0 $end
     $var wire  1 g clk $end
     $var wire  5 - ex_wd [4:0] $end
     $var wire 32 k ex_wdata [31:0] $end
     $var wire  1 , ex_wreg $end
     $var wire  5 / mem_wd [4:0] $end
     $var wire 32 0 mem_wdata [31:0] $end
     $var wire  1 . mem_wreg $end
     $var wire  1 h rst $end
    $upscope $end
    $scope module id0 $end
     $var wire  8 X aluop_o [7:0] $end
     $var wire  3 Y alusel_o [2:0] $end
     $var wire  5 o ex_wd_i [4:0] $end
     $var wire 32 p ex_wdata_i [31:0] $end
     $var wire  1 n ex_wreg_i $end
     $var wire 32 c imm [31:0] $end
     $var wire 32 ' inst_i [31:0] $end
     $var wire  1 d instvalid $end
     $var wire  5 r mem_wd_i [4:0] $end
     $var wire 32 s mem_wdata_i [31:0] $end
     $var wire  1 q mem_wreg_i $end
     $var wire  6 4 op [5:0] $end
     $var wire  5 5 op2 [4:0] $end
     $var wire  6 6 op3 [5:0] $end
     $var wire  5 7 op4 [4:0] $end
     $var wire 32 & pc_i [31:0] $end
     $var wire  5 a reg1_addr_o [4:0] $end
     $var wire 32 l reg1_data_i [31:0] $end
     $var wire 32 i reg1_o [31:0] $end
     $var wire  1 _ reg1_read_o $end
     $var wire  5 b reg2_addr_o [4:0] $end
     $var wire 32 m reg2_data_i [31:0] $end
     $var wire 32 j reg2_o [31:0] $end
     $var wire  1 ` reg2_read_o $end
     $var wire  1 h rst $end
     $var wire  5 [ wd_o [4:0] $end
     $var wire  1 Z wreg_o $end
    $upscope $end
    $scope module id_ex0 $end
     $var wire  1 g clk $end
     $var wire  8 ( ex_aluop [7:0] $end
     $var wire  3 ) ex_alusel [2:0] $end
     $var wire 32 * ex_reg1 [31:0] $end
     $var wire 32 + ex_reg2 [31:0] $end
     $var wire  5 - ex_wd [4:0] $end
     $var wire  1 , ex_wreg $end
     $var wire  8 X id_aluop [7:0] $end
     $var wire  3 Y id_alusel [2:0] $end
     $var wire 32 i id_reg1 [31:0] $end
     $var wire 32 j id_reg2 [31:0] $end
     $var wire  5 [ id_wd [4:0] $end
     $var wire  1 Z id_wreg $end
     $var wire  1 h rst $end
    $upscope $end
    $scope module if_id0 $end
     $var wire  1 g clk $end
     $var wire 32 ' id_inst [31:0] $end
     $var wire 32 & id_pc [31:0] $end
     $var wire 32 $ if_inst [31:0] $end
     $var wire 32 # if_pc [31:0] $end
     $var wire  1 h rst $end
    $upscope $end
    $scope module mem0 $end
     $var wire  1 h rst $end
     $var wire  5 / wd_i [4:0] $end
     $var wire  5 ] wd_o [4:0] $end
     $var wire 32 0 wdata_i [31:0] $end
     $var wire 32 ^ wdata_o [31:0] $end
     $var wire  1 . wreg_i $end
     $var wire  1 \ wreg_o $end
    $upscope $end
    $scope module mem_wb0 $end
     $var wire  1 g clk $end
     $var wire  5 ] mem_wd [4:0] $end
     $var wire 32 ^ mem_wdata [31:0] $end
     $var wire  1 \ mem_wreg $end
     $var wire  1 h rst $end
     $var wire  5 2 wb_wd [4:0] $end
     $var wire 32 3 wb_wdata [31:0] $end
     $var wire  1 1 wb_wreg $end
    $upscope $end
    $scope module pc_reg0 $end
     $var wire  1 % ce $end
     $var wire  1 g clk $end
     $var wire 32 # pc [31:0] $end
     $var wire  1 h rst $end
    $upscope $end
    $scope module regfile1 $end
     $var wire  1 g clk $end
     $var wire  5 a raddr1 [4:0] $end
     $var wire  5 b raddr2 [4:0] $end
     $var wire 32 l rdata1 [31:0] $end
     $var wire 32 m rdata2 [31:0] $end
     $var wire  1 _ re1 $end
     $var wire  1 ` re2 $end
     $var wire 32 8 regs(0) [31:0] $end
     $var wire 32 9 regs(1) [31:0] $end
     $var wire 32 B regs(10) [31:0] $end
     $var wire 32 C regs(11) [31:0] $end
     $var wire 32 D regs(12) [31:0] $end
     $var wire 32 E regs(13) [31:0] $end
     $var wire 32 F regs(14) [31:0] $end
     $var wire 32 G regs(15) [31:0] $end
     $var wire 32 H regs(16) [31:0] $end
     $var wire 32 I regs(17) [31:0] $end
     $var wire 32 J regs(18) [31:0] $end
     $var wire 32 K regs(19) [31:0] $end
     $var wire 32 : regs(2) [31:0] $end
     $var wire 32 L regs(20) [31:0] $end
     $var wire 32 M regs(21) [31:0] $end
     $var wire 32 N regs(22) [31:0] $end
     $var wire 32 O regs(23) [31:0] $end
     $var wire 32 P regs(24) [31:0] $end
     $var wire 32 Q regs(25) [31:0] $end
     $var wire 32 R regs(26) [31:0] $end
     $var wire 32 S regs(27) [31:0] $end
     $var wire 32 T regs(28) [31:0] $end
     $var wire 32 U regs(29) [31:0] $end
     $var wire 32 ; regs(3) [31:0] $end
     $var wire 32 V regs(30) [31:0] $end
     $var wire 32 W regs(31) [31:0] $end
     $var wire 32 < regs(4) [31:0] $end
     $var wire 32 = regs(5) [31:0] $end
     $var wire 32 > regs(6) [31:0] $end
     $var wire 32 ? regs(7) [31:0] $end
     $var wire 32 @ regs(8) [31:0] $end
     $var wire 32 A regs(9) [31:0] $end
     $var wire  1 h rst $end
     $var wire  5 2 waddr [4:0] $end
     $var wire 32 3 wdata [31:0] $end
     $var wire  1 1 we $end
    $upscope $end
   $upscope $end
  $upscope $end
 $upscope $end
$enddefinitions $end


#1
b00000000000000000000000000000000 #
b00000000000000000000000000000000 $
0%
b00000000000000000000000000000000 &
b00000000000000000000000000000000 '
b00000000 (
b000 )
b00000000000000000000000000000000 *
b00000000000000000000000000000000 +
0,
b00000 -
0.
b00000 /
b00000000000000000000000000000000 0
01
b00000 2
b00000000000000000000000000000000 3
b000000 4
b00000 5
b000000 6
b00000 7
b00000000000000000000000000000000 8
b00000000000000000000000000000000 9
b00000000000000000000000000000000 :
b00000000000000000000000000000000 ;
b00000000000000000000000000000000 <
b00000000000000000000000000000000 =
b00000000000000000000000000000000 >
b00000000000000000000000000000000 ?
b00000000000000000000000000000000 @
b00000000000000000000000000000000 A
b00000000000000000000000000000000 B
b00000000000000000000000000000000 C
b00000000000000000000000000000000 D
b00000000000000000000000000000000 E
b00000000000000000000000000000000 F
b00000000000000000000000000000000 G
b00000000000000000000000000000000 H
b00000000000000000000000000000000 I
b00000000000000000000000000000000 J
b00000000000000000000000000000000 K
b00000000000000000000000000000000 L
b00000000000000000000000000000000 M
b00000000000000000000000000000000 N
b00000000000000000000000000000000 O
b00000000000000000000000000000000 P
b00000000000000000000000000000000 Q
b00000000000000000000000000000000 R
b00000000000000000000000000000000 S
b00000000000000000000000000000000 T
b00000000000000000000000000000000 U
b00000000000000000000000000000000 V
b00000000000000000000000000000000 W
b00000000 X
b000 Y
0Z
b00000 [
0\
b00000 ]
b00000000000000000000000000000000 ^
0_
0`
b00000 a
b00000 b
b00000000000000000000000000000000 c
0d
b00000000000000000000000000000000 e
b00000000000000000000000000000000 f
1g
1h
b00000000000000000000000000000000 i
b00000000000000000000000000000000 j
b00000000000000000000000000000000 k
b00000000000000000000000000000000 l
b00000000000000000000000000000000 m
0n
b00000 o
b00000000000000000000000000000000 p
0q
b00000 r
b00000000000000000000000000000000 s
#2
#3
#4
#5
#6
0g
#7
#8
#9
#10
#11
1g
#12
#13
#14
#15
#16
0g
#17
#18
#19
#20
#21
1g
#22
#23
#24
#25
#26
0g
#27
#28
#29
#30
#31
1g
#32
#33
#34
#35
#36
0g
#37
#38
#39
#40
#41
1g
#42
#43
#44
#45
#46
0g
#47
#48
#49
#50
#51
1g
#52
#53
#54
#55
#56
0g
#57
#58
#59
#60
#61
1g
#62
#63
#64
#65
#66
0g
#67
#68
#69
#70
#71
1g
#72
#73
#74
#75
#76
0g
#77
#78
#79
#80
#81
1g
#82
#83
#84
#85
#86
0g
#87
#88
#89
#90
#91
1g
#92
#93
#94
#95
#96
0g
#97
#98
#99
#100
#101
1g
#102
#103
#104
#105
#106
0g
#107
#108
#109
#110
#111
1g
#112
#113
#114
#115
#116
0g
#117
#118
#119
#120
#121
1g
#122
#123
#124
#125
#126
0g
#127
#128
#129
#130
#131
1g
#132
#133
#134
#135
#136
0g
#137
#138
#139
#140
#141
1g
#142
#143
#144
#145
#146
0g
#147
#148
#149
#150
#151
1g
#152
#153
#154
#155
#156
0g
#157
#158
#159
#160
#161
1g
#162
#163
#164
#165
#166
0g
#167
#168
#169
#170
#171
1g
#172
#173
#174
#175
#176
0g
#177
#178
#179
#180
#181
1g
#182
#183
#184
#185
#186
0g
#187
#188
#189
#190
#191
1g
#192
#193
#194
#195
#196
b01111100 X
b010 Y
1Z
1`
0g
0h
#197
#198
#199
#200
#201
b00110100000000010001000100000000 $
1%
b01111100 (
b010 )
1,
1g
#202
#203
#204
#205
#206
0g
#207
#208
#209
#210
#211
b00000000000000000000000000000100 #
b00110100001000010000000000100000 $
b00110100000000010001000100000000 '
1.
b001101 4
b00100 5
b00001 7
b00100101 X
b001 Y
b00001 [
1\
1_
0`
b00001 b
b00000000000000000001000100000000 c
1g
b00000000000000000001000100000000 j
#212
#213
#214
#215
#216
0g
#217
#218
#219
#220
#221
b00000000000000000000000000001000 #
b00110100001000010100010000000000 $
b00000000000000000000000000000100 &
b00110100001000010000000000100000 '
b00100101 (
b001 )
b00000000000000000001000100000000 +
b00001 -
11
b00000 5
b100000 6
b00001 a
b00000000000000000000000000100000 c
b00000000000000000001000100000000 e
1g
b00000000000000000000000000100000 j
b00000000000000000001000100000000 k
#222
#223
#224
#225
#226
0g
#227
#228
#229
#230
#231
b00000000000000000000000000001100 #
b00110100001000010000000001000100 $
b00000000000000000000000000001000 &
b00110100001000010100010000000000 '
b00000000000000000000000000100000 +
b00001 /
b00000000000000000001000100000000 0
b10000 5
b000000 6
b00001 ]
b00000000000000000001000100000000 ^
b00000000000000000100010000000000 c
b00000000000000000000000000100000 e
1g
b00000000000000000100010000000000 j
b00000000000000000000000000100000 k
#232
#233
#234
#235
#236
0g
#237
#238
#239
#240
#241
b00000000000000000000000000010000 #
b00000000000000000000000000000010 $
b00000000000000000000000000001100 &
b00110100001000010000000001000100 '
b00000000000000000100010000000000 +
b00000000000000000000000000100000 0
b00001 2
b00000000000000000001000100000000 3
b00001 5
b000100 6
b00000000000000000000000000100000 ^
b00000000000000000000000001000100 c
b00000000000000000100010000000000 e
1g
b00000000000000000001000100000000 i
b00000000000000000000000001000100 j
b00000000000000000100010000000000 k
b00000000000000000001000100000000 l
#242
#243
#244
#245
#246
0g
#247
#248
#249
#250
#251
b00000000000000000000000000010100 #
b00000000000000000000000000000000 $
b00000000000000000000000000010000 &
b00000000000000000000000000000010 '
b00000000000000000001000100000000 *
b00000000000000000000000001000100 +
b00000000000000000100010000000000 0
b00000000000000000000000000100000 3
b000000 4
b00000 5
b000010 6
b00000 7
b00000000000000000001000100000000 9
b00000010 X
b010 Y
b00000 [
b00000000000000000100010000000000 ^
0_
1`
b00000 a
b00000 b
b00000000000000000000000000000000 c
b00000000000000000001000101000100 e
1g
b00000000000000000000000000000000 i
b00000000000000000000000000000000 j
b00000000000000000001000101000100 k
b00000000000000000000000000000000 l
#252
#253
#254
#255
#256
0g
#257
#258
#259
#260
#261
b00000000000000000000000000011000 #
b00000000000000000000000000010100 &
b00000000000000000000000000000000 '
b00000010 (
b010 )
b00000000000000000000000000000000 *
b00000000000000000000000000000000 +
b00000 -
b00000000000000000001000101000100 0
b00000000000000000100010000000000 3
b000000 6
b00000000000000000000000000100000 9
b01111100 X
b00000000000000000001000101000100 ^
1g
b00000000000000000000000000000000 k
#262
#263
#264
#265
#266
0g
#267
#268
#269
#270
#271
b00000000000000000000000000011100 #
b00000000000000000000000000011000 &
b01111100 (
b00000 /
b00000000000000000000000000000000 0
b00000000000000000001000101000100 3
b00000000000000000100010000000000 9
b00000 ]
b00000000000000000000000000000000 ^
1g
#272
#273
#274
#275
#276
0g
#277
#278
#279
#280
#281
b00000000000000000000000000100000 #
b00000000000000000000000000011100 &
b00000 2
b00000000000000000000000000000000 3
b00000000000000000001000101000100 9
1g
#282
#283
#284
#285
#286
0g
#287
#288
#289
#290
#291
b00000000000000000000000000100100 #
b00000000000000000000000000100000 &
1g
#292
#293
#294
#295
#296
0g
#297
#298
#299
#300
#301
b00000000000000000000000000101000 #
b00000000000000000010000000000001 $
b00000000000000000000000000100100 &
1g
#302
#303
#304
#305
#306
0g
#307
#308
#309
#310
#311
b00000000000000000000000000101100 #
b00000001000000010000000000000001 $
b00000000000000000000000000101000 &
b00000000000000000010000000000001 '
b000001 6
b00000000 X
b000 Y
0Z
b00100 [
0`
1d
1g
#312
#313
#314
#315
#316
0g
#317
#318
#319
#320
#321
b00000000000000000000000000110000 #
b00000000000000000000000000000000 $
b00000000000000000000000000101100 &
b00000001000000010000000000000001 '
b00000000 (
b000 )
0,
b00100 -
b00001 7
b00000 [
b01000 a
b00001 b
b00000000000000000000000000000000 e
1g
#322
#323
#324
#325
#326
0g
#327
#328
#329
#330
#331
b00000000000000000000000000110100 #
b00000000000000000000000000110000 &
b00000000000000000000000000000000 '
b00000 -
0.
b00100 /
b000000 6
b00000 7
b01111100 X
b010 Y
1Z
0\
b00100 ]
1`
b00000 a
b00000 b
0d
1g
#332
#333
#334
#335
#336
0g
#337
#338
#339
#340
#341
b00000000000000000000000000111000 #
b00000000000000000000000000000001 $
b00000000000000000000000000110100 &
b01111100 (
b010 )
1,
b00000 /
01
b00100 2
b00000 ]
1g
#342
#343
#344
#345
#346
0g
#347
#348
#349
#350
#351
b00000000000000000000000000111100 #
b00000000000000000000000000000000 $
b00000000000000000000000000111000 &
b00000000000000000000000000000001 '
1.
b00000 2
b000001 6
b00000000 X
b000 Y
0Z
1\
0`
1d
1g
#352
#353
#354
#355
#356
0g
#357
#358
#359
#360
#361
b00000000000000000000000001000000 #
b00000000000000000000000000111100 &
b00000000000000000000000000000000 '
b00000000 (
b000 )
0,
11
b000000 6
b01111100 X
b010 Y
1Z
1`
0d
1g
#362
#363
#364
#365
#366
0g
#367
#368
#369
#370
#371
b00000000000000000000000001000100 #
b00000000000000000000000001000000 &
b01111100 (
b010 )
1,
0.
0\
1g
#372
#373
#374
#375
#376
0g
#377
#378
#379
#380
#381
b00000000000000000000000001001000 #
b00000000000000000000000001000100 &
1.
01
1\
1g
#382
#383
#384
#385
#386
0g
#387
#388
#389
#390
#391
b00000000000000000000000001001100 #
b00000000000000000000000001001000 &
11
1g
#392
#393
#394
#395
#396
0g
#397
#398
#399
#400
#401
b00000000000000000000000001010000 #
b00000000000000000000000001001100 &
1g
#402
#403
#404
#405
#406
0g
#407
#408
#409
#410
#411
b00000000000000000000000001010100 #
b00000000000000000000000001010000 &
1g
#412
#413
#414
#415
#416
0g
#417
#418
#419
#420
#421
b00000000000000000000000001011000 #
b00000000000000000000000001010100 &
1g
#422
#423
#424
#425
#426
0g
#427
#428
#429
#430
#431
b00000000000000000000000001011100 #
b00000000000000000000000001011000 &
1g
#432
#433
#434
#435
#436
0g
#437
#438
#439
#440
#441
b00000000000000000000000001100000 #
b00000000000000000000000001011100 &
1g
#442
#443
#444
#445
#446
0g
#447
#448
#449
#450
#451
b00000000000000000000000001100100 #
b00000000000000000000000001100000 &
1g
#452
#453
#454
#455
#456
0g
#457
#458
#459
#460
#461
b00000000000000000000000001101000 #
b00000000000000000000000001100100 &
1g
#462
#463
#464
#465
#466
0g
#467
#468
#469
#470
#471
b00000000000000000000000001101100 #
b00000000000000000000000001101000 &
1g
#472
#473
#474
#475
#476
0g
#477
#478
#479
#480
#481
b00000000000000000000000001110000 #
b00000000000000000000000001101100 &
1g
#482
#483
#484
#485
#486
0g
#487
#488
#489
#490
#491
b00000000000000000000000001110100 #
b00000000000000000000000001110000 &
1g
#492
#493
#494
#495
#496
0g
#497
#498
#499
#500
#501
b00000000000000000000000001111000 #
b00000000000000000000000001110100 &
1g
#502
#503
#504
#505
#506
0g
#507
#508
#509
#510
#511
b00000000000000000000000001111100 #
b00000000000000000000000001111000 &
1g
#512
#513
#514
#515
#516
0g
#517
#518
#519
#520
#521
b00000000000000000000000010000000 #
b00000000000000000000000001111100 &
1g
#522
#523
#524
#525
#526
0g
#527
#528
#529
#530
#531
b00000000000000000000000010000100 #
b00000000000000000000000010000000 &
1g
#532
#533
#534
#535
#536
0g
#537
#538
#539
#540
#541
b00000000000000000000000010001000 #
b00000000000000000000000010000100 &
1g
#542
#543
#544
#545
#546
0g
#547
#548
#549
#550
#551
b00000000000000000000000010001100 #
b00000000000000000000000010001000 &
1g
#552
#553
#554
#555
#556
0g
#557
#558
#559
#560
#561
b00000000000000000000000010010000 #
b00000000000000000000000010001100 &
1g
#562
#563
#564
#565
#566
0g
#567
#568
#569
#570
#571
b00000000000000000000000010010100 #
b00000000000000000000000010010000 &
1g
#572
#573
#574
#575
#576
0g
#577
#578
#579
#580
#581
b00000000000000000000000010011000 #
b00000000000000000000000010010100 &
1g
#582
#583
#584
#585
#586
0g
#587
#588
#589
#590
#591
b00000000000000000000000010011100 #
b00000000000000000000000010011000 &
1g
#592
#593
#594
#595
#596
0g
#597
#598
#599
#600
#601
b00000000000000000000000010100000 #
b00000000000000000000000010011100 &
1g
#602
#603
#604
#605
#606
0g
#607
#608
#609
#610
#611
b00000000000000000000000010100100 #
b00000000000000000000000010100000 &
1g
#612
#613
#614
#615
#616
0g
#617
#618
#619
#620
#621
b00000000000000000000000010101000 #
b00000000000000000000000010100100 &
1g
#622
#623
#624
#625
#626
0g
#627
#628
#629
#630
#631
b00000000000000000000000010101100 #
b00000000000000000000000010101000 &
1g
#632
#633
#634
#635
#636
0g
#637
#638
#639
#640
#641
b00000000000000000000000010110000 #
b00000000000000000000000010101100 &
1g
#642
#643
#644
#645
#646
0g
#647
#648
#649
#650
#651
b00000000000000000000000010110100 #
b00000000000000000000000010110000 &
1g
#652
#653
#654
#655
#656
0g
#657
#658
#659
#660
#661
b00000000000000000000000010111000 #
b00000000000000000000000010110100 &
1g
#662
#663
#664
#665
#666
0g
#667
#668
#669
#670
#671
b00000000000000000000000010111100 #
b00000000000000000000000010111000 &
1g
#672
#673
#674
#675
#676
0g
#677
#678
#679
#680
#681
b00000000000000000000000011000000 #
b00000000000000000000000010111100 &
1g
#682
#683
#684
#685
#686
0g
#687
#688
#689
#690
#691
b00000000000000000000000011000100 #
b00000000000000000000000011000000 &
1g
#692
#693
#694
#695
#696
0g
#697
#698
#699
#700
#701
b00000000000000000000000011001000 #
b00000000000000000000000011000100 &
1g
#702
#703
#704
#705
#706
0g
#707
#708
#709
#710
#711
b00000000000000000000000011001100 #
b00000000000000000000000011001000 &
1g
#712
#713
#714
#715
#716
0g
#717
#718
#719
#720
#721
b00000000000000000000000011010000 #
b00000000000000000000000011001100 &
1g
#722
#723
#724
#725
#726
0g
#727
#728
#729
#730
#731
b00000000000000000000000011010100 #
b00000000000000000000000011010000 &
1g
#732
#733
#734
#735
#736
0g
#737
#738
#739
#740
#741
b00000000000000000000000011011000 #
b00000000000000000000000011010100 &
1g
#742
#743
#744
#745
#746
0g
#747
#748
#749
#750
#751
b00000000000000000000000011011100 #
b00000000000000000000000011011000 &
1g
#752
#753
#754
#755
#756
0g
#757
#758
#759
#760
#761
b00000000000000000000000011100000 #
b00000000000000000000000011011100 &
1g
#762
#763
#764
#765
#766
0g
#767
#768
#769
#770
#771
b00000000000000000000000011100100 #
b00000000000000000000000011100000 &
1g
#772
#773
#774
#775
#776
0g
#777
#778
#779
#780
#781
b00000000000000000000000011101000 #
b00000000000000000000000011100100 &
1g
#782
#783
#784
#785
#786
0g
#787
#788
#789
#790
#791
b00000000000000000000000011101100 #
b00000000000000000000000011101000 &
1g
#792
#793
#794
#795
#796
0g
#797
#798
#799
#800
#801
b00000000000000000000000011110000 #
b00000000000000000000000011101100 &
1g
#802
#803
#804
#805
#806
0g
#807
#808
#809
#810
#811
b00000000000000000000000011110100 #
b00000000000000000000000011110000 &
1g
#812
#813
#814
#815
#816
0g
#817
#818
#819
#820
#821
b00000000000000000000000011111000 #
b00000000000000000000000011110100 &
1g
#822
#823
#824
#825
#826
0g
#827
#828
#829
#830
#831
b00000000000000000000000011111100 #
b00000000000000000000000011111000 &
1g
#832
#833
#834
#835
#836
0g
#837
#838
#839
#840
#841
b00000000000000000000000100000000 #
b00000000000000000000000011111100 &
1g
#842
#843
#844
#845
#846
0g
#847
#848
#849
#850
#851
b00000000000000000000000100000100 #
b00000000000000000000000100000000 &
1g
#852
#853
#854
#855
#856
0g
#857
#858
#859
#860
#861
b00000000000000000000000100001000 #
b00000000000000000000000100000100 &
1g
#862
#863
#864
#865
#866
0g
#867
#868
#869
#870
#871
b00000000000000000000000100001100 #
b00000000000000000000000100001000 &
1g
#872
#873
#874
#875
#876
0g
#877
#878
#879
#880
#881
b00000000000000000000000100010000 #
b00000000000000000000000100001100 &
1g
#882
#883
#884
#885
#886
0g
#887
#888
#889
#890
#891
b00000000000000000000000100010100 #
b00000000000000000000000100010000 &
1g
#892
#893
#894
#895
#896
0g
#897
#898
#899
#900
#901
b00000000000000000000000100011000 #
b00000000000000000000000100010100 &
1g
#902
#903
#904
#905
#906
0g
#907
#908
#909
#910
#911
b00000000000000000000000100011100 #
b00000000000000000000000100011000 &
1g
#912
#913
#914
#915
#916
0g
#917
#918
#919
#920
#921
b00000000000000000000000100100000 #
b00000000000000000000000100011100 &
1g
#922
#923
#924
#925
#926
0g
#927
#928
#929
#930
#931
b00000000000000000000000100100100 #
b00000000000000000000000100100000 &
1g
#932
#933
#934
#935
#936
0g
#937
#938
#939
#940
#941
b00000000000000000000000100101000 #
b00000000000000000000000100100100 &
1g
#942
#943
#944
#945
#946
0g
#947
#948
#949
#950
#951
b00000000000000000000000100101100 #
b00000000000000000000000100101000 &
1g
#952
#953
#954
#955
#956
0g
#957
#958
#959
#960
#961
b00000000000000000000000100110000 #
b00000000000000000000000100101100 &
1g
#962
#963
#964
#965
#966
0g
#967
#968
#969
#970
#971
b00000000000000000000000100110100 #
b00000000000000000000000100110000 &
1g
#972
#973
#974
#975
#976
0g
#977
#978
#979
#980
#981
b00000000000000000000000100111000 #
b00000000000000000000000100110100 &
1g
#982
#983
#984
#985
#986
0g
#987
#988
#989
#990
#991
b00000000000000000000000100111100 #
b00000000000000000000000100111000 &
1g
