wave.vcd
$version Generated by VerilatedVcd $end
$date Sat May 14 20:13:39 2022 $end
$timescale 1ps $end

 $scope module TOP $end
  $var wire  1 J! clk $end
  $var wire  1 K! rst $end
  $scope module top $end
   $var wire  1 J! clk $end
   $var wire 32 $ inst [31:0] $end
   $var wire 32 # inst_addr [31:0] $end
   $var wire 32 x ram_addr_i [31:0] $end
   $var wire  1 { ram_ce_i $end
   $var wire 32 } ram_data_i [31:0] $end
   $var wire 32 y ram_data_o [31:0] $end
   $var wire  4 z ram_sel_i [3:0] $end
   $var wire  1 | ram_we_i $end
   $var wire  1 % rom_ce $end
   $var wire  1 K! rst $end
   $scope module data_ram0 $end
    $var wire 32 x addr [31:0] $end
    $var wire  1 { ce $end
    $var wire  1 J! clk $end
    $var wire 32 } data_i [31:0] $end
    $var wire 32 y data_o [31:0] $end
    $var wire  4 z sel [3:0] $end
    $var wire  1 | we $end
   $upscope $end
   $scope module inst_rom0 $end
    $var wire 32 # addr [31:0] $end
    $var wire  1 % ce $end
    $var wire 32 $ inst [31:0] $end
   $upscope $end
   $scope module openmips0 $end
    $var wire 32 ;! branch_target_address [31:0] $end
    $var wire  1 J! clk $end
    $var wire  2 D cnt_i [1:0] $end
    $var wire  2 8! cnt_o [1:0] $end
    $var wire  8 ( ex_aluop_i [7:0] $end
    $var wire  8 ( ex_aluop_o [7:0] $end
    $var wire  3 ) ex_alusel_i [2:0] $end
    $var wire 32 *! ex_hi_o [31:0] $end
    $var wire 32 . ex_inst_i [31:0] $end
    $var wire  1 1 ex_is_in_delayslot_i $end
    $var wire 32 2 ex_link_address_i [31:0] $end
    $var wire 32 +! ex_lo_o [31:0] $end
    $var wire 32 0 ex_mem_addr_o [31:0] $end
    $var wire 32 * ex_reg1_i [31:0] $end
    $var wire 32 + ex_reg2_i [31:0] $end
    $var wire 32 + ex_reg2_o [31:0] $end
    $var wire  5 - ex_wd_i [4:0] $end
    $var wire  5 - ex_wd_o [4:0] $end
    $var wire 32 (! ex_wdata_o [31:0] $end
    $var wire  1 )! ex_whilo_o $end
    $var wire  1 , ex_wreg_i $end
    $var wire  1 / ex_wreg_o $end
    $var wire 32 B hi [31:0] $end
    $var wire 64 E hilo_temp_i [63:0] $end
    $var wire 64 9! hilo_temp_o [63:0] $end
    $var wire  8 ~ id_aluop_o [7:0] $end
    $var wire  3 !! id_alusel_o [2:0] $end
    $var wire  1 <! id_branch_flag_o $end
    $var wire 32 ' id_inst_i [31:0] $end
    $var wire 32 ' id_inst_o [31:0] $end
    $var wire  1 L! id_is_in_delayslot_o $end
    $var wire 32 &! id_link_addr_o [31:0] $end
    $var wire  1 '! id_next_inst_in_delayslot_o $end
    $var wire 32 & id_pc_i [31:0] $end
    $var wire 32 "! id_reg1_o [31:0] $end
    $var wire 32 #! id_reg2_o [31:0] $end
    $var wire  5 %! id_wd_o [4:0] $end
    $var wire  1 $! id_wreg_o $end
    $var wire  1 G is_in_delayslot_i $end
    $var wire  1 P! is_in_delayslot_o $end
    $var wire 32 C lo [31:0] $end
    $var wire  8 9 mem_aluop_i [7:0] $end
    $var wire 32 7 mem_hi_i [31:0] $end
    $var wire 32 0! mem_hi_o [31:0] $end
    $var wire 32 8 mem_lo_i [31:0] $end
    $var wire 32 1! mem_lo_o [31:0] $end
    $var wire 32 : mem_mem_addr_i [31:0] $end
    $var wire 32 ; mem_reg2_i [31:0] $end
    $var wire  5 4 mem_wd_i [4:0] $end
    $var wire  5 -! mem_wd_o [4:0] $end
    $var wire 32 5 mem_wdata_i [31:0] $end
    $var wire 32 .! mem_wdata_o [31:0] $end
    $var wire  1 6 mem_whilo_i $end
    $var wire  1 /! mem_whilo_o $end
    $var wire  1 3 mem_wreg_i $end
    $var wire  1 ,! mem_wreg_o $end
    $var wire 32 # pc [31:0] $end
    $var wire 32 x ram_addr_o [31:0] $end
    $var wire  1 { ram_ce_o $end
    $var wire 32 y ram_data_i [31:0] $end
    $var wire 32 } ram_data_o [31:0] $end
    $var wire  4 z ram_sel_o [3:0] $end
    $var wire  1 | ram_we_o $end
    $var wire  5 4! reg1_addr [4:0] $end
    $var wire 32 M! reg1_data [31:0] $end
    $var wire  1 2! reg1_read $end
    $var wire  5 5! reg2_addr [4:0] $end
    $var wire 32 N! reg2_data [31:0] $end
    $var wire  1 3! reg2_read $end
    $var wire 32 # rom_addr_o [31:0] $end
    $var wire  1 % rom_ce_o $end
    $var wire 32 $ rom_data_i [31:0] $end
    $var wire  1 K! rst $end
    $var wire  6 6! stall [5:0] $end
    $var wire  1 7! stallreq_from_ex $end
    $var wire  1 O! stallreq_from_id $end
    $var wire 32 @ wb_hi_i [31:0] $end
    $var wire 32 A wb_lo_i [31:0] $end
    $var wire  5 = wb_wd_i [4:0] $end
    $var wire 32 > wb_wdata_i [31:0] $end
    $var wire  1 ? wb_whilo_i $end
    $var wire  1 < wb_wreg_i $end
    $scope module ctrl0 $end
     $var wire  1 K! rst $end
     $var wire  6 6! stall [5:0] $end
     $var wire  1 7! stallreq_from_ex $end
     $var wire  1 O! stallreq_from_id $end
    $upscope $end
    $scope module ex0 $end
     $var wire 32 C! HI [31:0] $end
     $var wire 32 D! LO [31:0] $end
     $var wire  8 ( aluop_i [7:0] $end
     $var wire  8 ( aluop_o [7:0] $end
     $var wire  3 ) alusel_i [2:0] $end
     $var wire 32 E! arithmeticres [31:0] $end
     $var wire  2 D cnt_i [1:0] $end
     $var wire  2 8! cnt_o [1:0] $end
     $var wire 32 B hi_i [31:0] $end
     $var wire 32 *! hi_o [31:0] $end
     $var wire 64 v hilo_temp [63:0] $end
     $var wire 64 F! hilo_temp1 [63:0] $end
     $var wire 64 E hilo_temp_i [63:0] $end
     $var wire 64 9! hilo_temp_o [63:0] $end
     $var wire 32 . inst_i [31:0] $end
     $var wire  1 1 is_in_delayslot_i $end
     $var wire 32 2 link_address_i [31:0] $end
     $var wire 32 C lo_i [31:0] $end
     $var wire 32 +! lo_o [31:0] $end
     $var wire 32 @! logicout [31:0] $end
     $var wire 32 0 mem_addr_o [31:0] $end
     $var wire 32 0! mem_hi_i [31:0] $end
     $var wire 32 1! mem_lo_i [31:0] $end
     $var wire  1 6 mem_whilo_i $end
     $var wire 32 B! movres [31:0] $end
     $var wire 64 H! mulres [63:0] $end
     $var wire 32 t opdata1_mult [31:0] $end
     $var wire 32 u opdata2_mult [31:0] $end
     $var wire  1 o ov_sum $end
     $var wire  1 R! reg1_eq_reg2 $end
     $var wire 32 * reg1_i [31:0] $end
     $var wire 32 r reg1_i_not [31:0] $end
     $var wire  1 p reg1_lt_reg2 $end
     $var wire 32 + reg2_i [31:0] $end
     $var wire 32 q reg2_i_mux [31:0] $end
     $var wire 32 + reg2_o [31:0] $end
     $var wire 32 s result_sum [31:0] $end
     $var wire  1 K! rst $end
     $var wire 32 A! shiftres [31:0] $end
     $var wire  1 7! stallreq $end
     $var wire  1 7! stallreq_for_madd_msub $end
     $var wire 32 @ wb_hi_i [31:0] $end
     $var wire 32 A wb_lo_i [31:0] $end
     $var wire  1 ? wb_whilo_i $end
     $var wire  5 - wd_i [4:0] $end
     $var wire  5 - wd_o [4:0] $end
     $var wire 32 (! wdata_o [31:0] $end
     $var wire  1 )! whilo_o $end
     $var wire  1 , wreg_i $end
     $var wire  1 / wreg_o $end
    $upscope $end
    $scope module ex_mem0 $end
     $var wire  1 J! clk $end
     $var wire  2 8! cnt_i [1:0] $end
     $var wire  2 D cnt_o [1:0] $end
     $var wire  8 ( ex_aluop [7:0] $end
     $var wire 32 *! ex_hi [31:0] $end
     $var wire 32 +! ex_lo [31:0] $end
     $var wire 32 0 ex_mem_addr [31:0] $end
     $var wire 32 + ex_reg2 [31:0] $end
     $var wire  5 - ex_wd [4:0] $end
     $var wire 32 (! ex_wdata [31:0] $end
     $var wire  1 )! ex_whilo $end
     $var wire  1 / ex_wreg $end
     $var wire 64 9! hilo_i [63:0] $end
     $var wire 64 E hilo_o [63:0] $end
     $var wire  8 9 mem_aluop [7:0] $end
     $var wire 32 7 mem_hi [31:0] $end
     $var wire 32 8 mem_lo [31:0] $end
     $var wire 32 : mem_mem_addr [31:0] $end
     $var wire 32 ; mem_reg2 [31:0] $end
     $var wire  5 4 mem_wd [4:0] $end
     $var wire 32 5 mem_wdata [31:0] $end
     $var wire  1 6 mem_whilo $end
     $var wire  1 3 mem_wreg $end
     $var wire  1 K! rst $end
     $var wire  6 6! stall [5:0] $end
    $upscope $end
    $scope module hilo_reg0 $end
     $var wire  1 J! clk $end
     $var wire 32 @ hi_i [31:0] $end
     $var wire 32 B hi_o [31:0] $end
     $var wire 32 A lo_i [31:0] $end
     $var wire 32 C lo_o [31:0] $end
     $var wire  1 K! rst $end
     $var wire  1 ? we $end
    $upscope $end
    $scope module id0 $end
     $var wire  8 ~ aluop_o [7:0] $end
     $var wire  3 !! alusel_o [2:0] $end
     $var wire  1 <! branch_flag_o $end
     $var wire 32 ;! branch_target_address_o [31:0] $end
     $var wire  5 - ex_wd_i [4:0] $end
     $var wire 32 (! ex_wdata_i [31:0] $end
     $var wire  1 / ex_wreg_i $end
     $var wire 32 =! imm [31:0] $end
     $var wire 32 N imm_sll2_signedext [31:0] $end
     $var wire 32 ' inst_i [31:0] $end
     $var wire 32 ' inst_o [31:0] $end
     $var wire  1 >! instvalid $end
     $var wire  1 P! is_in_delayslot_i $end
     $var wire  1 L! is_in_delayslot_o $end
     $var wire 32 &! link_addr_o [31:0] $end
     $var wire  5 -! mem_wd_i [4:0] $end
     $var wire 32 .! mem_wdata_i [31:0] $end
     $var wire  1 ,! mem_wreg_i $end
     $var wire  1 '! next_inst_in_delayslot_o $end
     $var wire  6 H op [5:0] $end
     $var wire  5 I op2 [4:0] $end
     $var wire  6 J op3 [5:0] $end
     $var wire  5 K op4 [4:0] $end
     $var wire 32 & pc_i [31:0] $end
     $var wire 32 L pc_plus_4 [31:0] $end
     $var wire 32 M pc_plus_8 [31:0] $end
     $var wire  1 Q! pre_inst_is_load $end
     $var wire  5 4! reg1_addr_o [4:0] $end
     $var wire 32 M! reg1_data_i [31:0] $end
     $var wire 32 "! reg1_o [31:0] $end
     $var wire  1 2! reg1_read_o $end
     $var wire  5 5! reg2_addr_o [4:0] $end
     $var wire 32 N! reg2_data_i [31:0] $end
     $var wire 32 #! reg2_o [31:0] $end
     $var wire  1 3! reg2_read_o $end
     $var wire  1 K! rst $end
     $var wire  1 O! stallreq $end
     $var wire  1 ?! text $end
     $var wire  5 %! wd_o [4:0] $end
     $var wire  1 $! wreg_o $end
    $upscope $end
    $scope module id_ex0 $end
     $var wire  1 J! clk $end
     $var wire  8 ( ex_aluop [7:0] $end
     $var wire  3 ) ex_alusel [2:0] $end
     $var wire 32 . ex_inst [31:0] $end
     $var wire  1 1 ex_is_in_delayslot $end
     $var wire 32 2 ex_link_address [31:0] $end
     $var wire 32 * ex_reg1 [31:0] $end
     $var wire 32 + ex_reg2 [31:0] $end
     $var wire  5 - ex_wd [4:0] $end
     $var wire  1 , ex_wreg $end
     $var wire  8 ~ id_aluop [7:0] $end
     $var wire  3 !! id_alusel [2:0] $end
     $var wire 32 ' id_inst [31:0] $end
     $var wire  1 L! id_is_in_delayslot $end
     $var wire 32 &! id_link_address [31:0] $end
     $var wire 32 "! id_reg1 [31:0] $end
     $var wire 32 #! id_reg2 [31:0] $end
     $var wire  5 %! id_wd [4:0] $end
     $var wire  1 $! id_wreg $end
     $var wire  1 G is_in_delayslot_o $end
     $var wire  1 '! next_inst_in_delayslot_i $end
     $var wire  1 K! rst $end
     $var wire  6 6! stall [5:0] $end
    $upscope $end
    $scope module if_id0 $end
     $var wire  1 J! clk $end
     $var wire 32 ' id_inst [31:0] $end
     $var wire 32 & id_pc [31:0] $end
     $var wire 32 $ if_inst [31:0] $end
     $var wire 32 # if_pc [31:0] $end
     $var wire  1 K! rst $end
     $var wire  6 6! stall [5:0] $end
    $upscope $end
    $scope module mem0 $end
     $var wire  8 9 aluop_i [7:0] $end
     $var wire 32 7 hi_i [31:0] $end
     $var wire 32 0! hi_o [31:0] $end
     $var wire 32 8 lo_i [31:0] $end
     $var wire 32 1! lo_o [31:0] $end
     $var wire 32 : mem_addr_i [31:0] $end
     $var wire 32 x mem_addr_o [31:0] $end
     $var wire  1 { mem_ce_o $end
     $var wire 32 y mem_data_i [31:0] $end
     $var wire 32 } mem_data_o [31:0] $end
     $var wire  4 z mem_sel_o [3:0] $end
     $var wire  1 | mem_we_o $end
     $var wire 32 ; reg2_i [31:0] $end
     $var wire  1 K! rst $end
     $var wire  5 4 wd_i [4:0] $end
     $var wire  5 -! wd_o [4:0] $end
     $var wire 32 5 wdata_i [31:0] $end
     $var wire 32 .! wdata_o [31:0] $end
     $var wire  1 6 whilo_i $end
     $var wire  1 /! whilo_o $end
     $var wire  1 3 wreg_i $end
     $var wire  1 ,! wreg_o $end
    $upscope $end
    $scope module mem_wb0 $end
     $var wire  1 J! clk $end
     $var wire 32 0! mem_hi [31:0] $end
     $var wire 32 1! mem_lo [31:0] $end
     $var wire  5 -! mem_wd [4:0] $end
     $var wire 32 .! mem_wdata [31:0] $end
     $var wire  1 /! mem_whilo $end
     $var wire  1 ,! mem_wreg $end
     $var wire  1 K! rst $end
     $var wire  6 6! stall [5:0] $end
     $var wire 32 @ wb_hi [31:0] $end
     $var wire 32 A wb_lo [31:0] $end
     $var wire  5 = wb_wd [4:0] $end
     $var wire 32 > wb_wdata [31:0] $end
     $var wire  1 ? wb_whilo $end
     $var wire  1 < wb_wreg $end
    $upscope $end
    $scope module pc_reg0 $end
     $var wire  1 <! branch_flag_i $end
     $var wire 32 ;! branch_target_address_i [31:0] $end
     $var wire  1 % ce $end
     $var wire  1 J! clk $end
     $var wire 32 # pc [31:0] $end
     $var wire  1 K! rst $end
     $var wire  6 6! stall [5:0] $end
    $upscope $end
    $scope module regfile1 $end
     $var wire  1 J! clk $end
     $var wire  5 4! raddr1 [4:0] $end
     $var wire  5 5! raddr2 [4:0] $end
     $var wire 32 M! rdata1 [31:0] $end
     $var wire 32 N! rdata2 [31:0] $end
     $var wire  1 2! re1 $end
     $var wire  1 3! re2 $end
     $var wire 32 O regs(0) [31:0] $end
     $var wire 32 P regs(1) [31:0] $end
     $var wire 32 Y regs(10) [31:0] $end
     $var wire 32 Z regs(11) [31:0] $end
     $var wire 32 [ regs(12) [31:0] $end
     $var wire 32 \ regs(13) [31:0] $end
     $var wire 32 ] regs(14) [31:0] $end
     $var wire 32 ^ regs(15) [31:0] $end
     $var wire 32 _ regs(16) [31:0] $end
     $var wire 32 ` regs(17) [31:0] $end
     $var wire 32 a regs(18) [31:0] $end
     $var wire 32 b regs(19) [31:0] $end
     $var wire 32 Q regs(2) [31:0] $end
     $var wire 32 c regs(20) [31:0] $end
     $var wire 32 d regs(21) [31:0] $end
     $var wire 32 e regs(22) [31:0] $end
     $var wire 32 f regs(23) [31:0] $end
     $var wire 32 g regs(24) [31:0] $end
     $var wire 32 h regs(25) [31:0] $end
     $var wire 32 i regs(26) [31:0] $end
     $var wire 32 j regs(27) [31:0] $end
     $var wire 32 k regs(28) [31:0] $end
     $var wire 32 l regs(29) [31:0] $end
     $var wire 32 R regs(3) [31:0] $end
     $var wire 32 m regs(30) [31:0] $end
     $var wire 32 n regs(31) [31:0] $end
     $var wire 32 S regs(4) [31:0] $end
     $var wire 32 T regs(5) [31:0] $end
     $var wire 32 U regs(6) [31:0] $end
     $var wire 32 V regs(7) [31:0] $end
     $var wire 32 W regs(8) [31:0] $end
     $var wire 32 X regs(9) [31:0] $end
     $var wire  1 K! rst $end
     $var wire  5 = waddr [4:0] $end
     $var wire 32 > wdata [31:0] $end
     $var wire  1 < we $end
    $upscope $end
   $upscope $end
  $upscope $end
 $upscope $end
$enddefinitions $end


#1
b00000000000000000000000000000000 #
b00000000000000000000000000000000 $
0%
b00000000000000000000000000000000 &
b00000000000000000000000000000000 '
b00000000 (
b000 )
b00000000000000000000000000000000 *
b00000000000000000000000000000000 +
0,
b00000 -
b00000000000000000000000000000000 .
0/
b00000000000000000000000000000000 0
01
b00000000000000000000000000000000 2
03
b00000 4
b00000000000000000000000000000000 5
06
b00000000000000000000000000000000 7
b00000000000000000000000000000000 8
b00000000 9
b00000000000000000000000000000000 :
b00000000000000000000000000000000 ;
0<
b00000 =
b00000000000000000000000000000000 >
0?
b00000000000000000000000000000000 @
b00000000000000000000000000000000 A
b00000000000000000000000000000000 B
b00000000000000000000000000000000 C
b00 D
b0000000000000000000000000000000000000000000000000000000000000000 E
0G
b000000 H
b00000 I
b000000 J
b00000 K
b00000000000000000000000000000100 L
b00000000000000000000000000001000 M
b00000000000000000000000000000000 N
b00000000000000000000000000000000 O
b00000000000000000000000000000000 P
b00000000000000000000000000000000 Q
b00000000000000000000000000000000 R
b00000000000000000000000000000000 S
b00000000000000000000000000000000 T
b00000000000000000000000000000000 U
b00000000000000000000000000000000 V
b00000000000000000000000000000000 W
b00000000000000000000000000000000 X
b00000000000000000000000000000000 Y
b00000000000000000000000000000000 Z
b00000000000000000000000000000000 [
b00000000000000000000000000000000 \
b00000000000000000000000000000000 ]
b00000000000000000000000000000000 ^
b00000000000000000000000000000000 _
b00000000000000000000000000000000 `
b00000000000000000000000000000000 a
b00000000000000000000000000000000 b
b00000000000000000000000000000000 c
b00000000000000000000000000000000 d
b00000000000000000000000000000000 e
b00000000000000000000000000000000 f
b00000000000000000000000000000000 g
b00000000000000000000000000000000 h
b00000000000000000000000000000000 i
b00000000000000000000000000000000 j
b00000000000000000000000000000000 k
b00000000000000000000000000000000 l
b00000000000000000000000000000000 m
b00000000000000000000000000000000 n
0o
0p
b00000000000000000000000000000000 q
b11111111111111111111111111111111 r
b00000000000000000000000000000000 s
b00000000000000000000000000000000 t
b00000000000000000000000000000000 u
b0000000000000000000000000000000000000000000000000000000000000000 v
b00000000000000000000000000000000 x
b00000000000000000000000000000000 y
b0000 z
0{
0|
b00000000000000000000000000000000 }
b00000000 ~
b000 !!
b00000000000000000000000000000000 "!
b00000000000000000000000000000000 #!
0$!
b00000 %!
b00000000000000000000000000000000 &!
0'!
b00000000000000000000000000000000 (!
0)!
b00000000000000000000000000000000 *!
b00000000000000000000000000000000 +!
0,!
b00000 -!
b00000000000000000000000000000000 .!
0/!
b00000000000000000000000000000000 0!
b00000000000000000000000000000000 1!
02!
03!
b00000 4!
b00000 5!
b000000 6!
07!
b00 8!
b0000000000000000000000000000000000000000000000000000000000000000 9!
b00000000000000000000000000000000 ;!
0<!
b00000000000000000000000000000000 =!
0>!
0?!
b00000000000000000000000000000000 @!
b00000000000000000000000000000000 A!
b00000000000000000000000000000000 B!
b00000000000000000000000000000000 C!
b00000000000000000000000000000000 D!
b00000000000000000000000000000000 E!
b0000000000000000000000000000000000000000000000000000000000000000 F!
b0000000000000000000000000000000000000000000000000000000000000000 H!
0J!
1K!
0L!
b00000000000000000000000000000000 M!
b00000000000000000000000000000000 N!
0O!
0P!
0Q!
0R!
#2
#3
#4
#5
#6
#7
#8
#9
#10
1J!
#11
#12
#13
#14
#15
0J!
#16
#17
#18
#19
#20
1J!
#21
#22
#23
#24
#25
0J!
#26
#27
#28
#29
#30
1J!
#31
#32
#33
#34
#35
0J!
#36
#37
#38
#39
#40
1J!
#41
#42
#43
#44
#45
0J!
#46
#47
#48
#49
#50
1J!
#51
#52
#53
#54
#55
0J!
#56
#57
#58
#59
#60
1J!
#61
#62
#63
#64
#65
0J!
#66
#67
#68
#69
#70
1J!
#71
#72
#73
#74
#75
0J!
#76
#77
#78
#79
#80
1J!
#81
#82
#83
#84
#85
0J!
#86
#87
#88
#89
#90
1J!
#91
#92
#93
#94
#95
0J!
#96
#97
#98
#99
#100
1J!
#101
#102
#103
#104
#105
0J!
#106
#107
#108
#109
#110
1J!
#111
#112
#113
#114
#115
0J!
#116
#117
#118
#119
#120
1J!
#121
#122
#123
#124
#125
0J!
#126
#127
#128
#129
#130
1J!
#131
#132
#133
#134
#135
0J!
#136
#137
#138
#139
#140
1J!
#141
#142
#143
#144
#145
0J!
#146
#147
#148
#149
#150
1J!
#151
#152
#153
#154
#155
0J!
#156
#157
#158
#159
#160
1J!
#161
#162
#163
#164
#165
0J!
#166
#167
#168
#169
#170
1J!
#171
#172
#173
#174
#175
0J!
#176
#177
#178
#179
#180
1J!
#181
#182
#183
#184
#185
0J!
#186
#187
#188
#189
#190
1J!
#191
#192
#193
#194
#195
0J!
#196
b01111100 ~
b010 !!
1$!
13!
1?!
0K!
#197
#198
#199
#200
b00110100000000111110111011111111 $
1%
b01111100 (
b010 )
1,
1/
1J!
#201
#202
#203
#204
#205
0J!
#206
#207
#208
#209
#210
b00000000000000000000000000000100 #
b10100000000000110000000000000011 $
b00110100000000111110111011111111 '
13
b01111100 9
b001101 H
b11011 I
b111111 J
b00011 K
b11111111111111111011101111111100 N
b00100101 ~
b001 !!
b00000000000000001110111011111111 #!
b00011 %!
1,!
12!
03!
b00011 5!
b00000000000000001110111011111111 =!
0?!
1J!
#211
#212
#213
#214
#215
0J!
#216
#217
#218
#219
#220
b00000000000000000000000000001000 #
b00000000000000110001101000000010 $
b00000000000000000000000000000100 &
b10100000000000110000000000000011 '
b00100101 (
b001 )
b00000000000000001110111011111111 +
b00011 -
b00110100000000111110111011111111 .
b11111111111111111110111011111111 0
1<
b101000 H
b00000 I
b000011 J
b00000000000000000000000000001000 L
b00000000000000000000000000001100 M
b00000000000000000000000000001100 N
1p
b00000000000000001110111011111111 q
b00000000000000001110111011111111 s
b00000000000000001110111011111111 u
b11101000 ~
b111 !!
0$!
b00000 %!
b00000000000000001110111011111111 (!
13!
b00000000000000000000000000000000 =!
1?!
b00000000000000001110111011111111 @!
1J!
#221
#222
#223
#224
#225
0J!
#226
#227
#228
#229
#230
b00000000000000000000000000001100 #
b10100000000000110000000000000010 $
b00000000000000000000000000001000 &
b00000000000000110001101000000010 '
b11101000 (
b111 )
0,
b00000 -
b10100000000000110000000000000011 .
0/
b00000000000000000000000000000011 0
b00011 4
b00000000000000001110111011111111 5
b00100101 9
b11111111111111111110111011111111 :
b00000000000000001110111011111111 ;
b000000 H
b01000 I
b000010 J
b00000000000000000000000000001100 L
b00000000000000000000000000010000 M
b00000000000000000110100000001000 N
b00000010 ~
b010 !!
b00000000000000000000000000001000 "!
1$!
b00011 %!
b00000000000000000000000000000000 (!
b00011 -!
b00000000000000001110111011111111 .!
02!
b00000000000000000000000000001000 =!
0?!
b00000000000000000000000000000000 @!
1J!
#231
#232
#233
#234
#235
0J!
#236
#237
#238
#239
#240
b00000000000000000000000000010000 #
b00110100000000111100110011011101 $
b00000000000000000000000000001100 &
b10100000000000110000000000000010 '
b00000010 (
b010 )
b00000000000000000000000000001000 *
1,
b00011 -
b00000000000000110001101000000010 .
1/
b00000000000000000001101000001010 0
03
b00000 4
b00000000000000000000000000000000 5
b11101000 9
b00000000000000000000000000000011 :
b00011 =
b00000000000000001110111011111111 >
b101000 H
b00000 I
b00000000000000000000000000010000 L
b00000000000000000000000000010100 M
b00000000000000000000000000001000 N
b11111111111111111111111111110111 r
b00000000000000001110111100000111 s
b00000000000000000000000000001000 t
b0000000000000000000000000000000000000000000001110111011111111000 v
b00000000000000000000000000000011 x
b0001 z
1{
1|
b00000000000000000000000011111111 }
b11101000 ~
b111 !!
b00000000000000000000000000000000 "!
b00000000000000000000000011101110 #!
0$!
b00000 %!
b00000000000000000000000011101110 (!
0,!
b00000 -!
b00000000000000000000000000000000 .!
12!
b00000000000000000000000000000000 =!
1?!
b00000000000000000000000011101110 A!
b0000000000000000000000000000000000000000000001110111011111111000 H!
1J!
b00000000000000001110111011111111 N!
#241
#242
#243
#244
#245
0J!
#246
#247
#248
#249
#250
b00000000000000000000000000010100 #
b10100000000000110000000000000001 $
b00000000000000000000000000010000 &
b00110100000000111100110011011101 '
b11101000 (
b111 )
b00000000000000000000000000000000 *
b00000000000000000000000011101110 +
0,
b00000 -
b10100000000000110000000000000010 .
0/
b00000000000000000000000000000010 0
13
b00011 4
b00000000000000000000000011101110 5
b00000010 9
b00000000000000000001101000001010 :
0<
b00000 =
b00000000000000000000000000000000 >
b001101 H
b10011 I
b011101 J
b00000000000000000000000000010100 L
b00000000000000000000000000011000 M
b11111111111111110011001101110100 N
b00000000000000001110111011111111 R
b00000000000000000000000011101110 q
b11111111111111111111111111111111 r
b00000000000000000000000011101110 s
b00000000000000000000000000000000 t
b00000000000000000000000011101110 u
b0000000000000000000000000000000000000000000000000000000000000000 v
b00000000000000000000000000000000 x
b0000 z
0{
0|
b00000000000000000000000000000000 }
b00100101 ~
b001 !!
b00000000000000001100110011011101 #!
1$!
b00011 %!
b00000000000000000000000000000000 (!
1,!
b00011 -!
b00000000000000000000000011101110 .!
03!
b00000000000000001100110011011101 =!
0?!
b0000000000000000000000000000000000000000000000000000000000000000 H!
1J!
b00000000000000000000000000000000 N!
#251
#252
#253
#254
#255
0J!
#256
#257
#258
#259
#260
b00000000000000000000000000011000 #
b00000000000000110001101000000010 $
b00000000000000000000000000010100 &
b10100000000000110000000000000001 '
b00100101 (
b001 )
b00000000000000001100110011011101 +
1,
b00011 -
b00110100000000111100110011011101 .
1/
b11111111111111111100110011011101 0
03
b00000 4
b00000000000000000000000000000000 5
b11101000 9
b00000000000000000000000000000010 :
b00000000000000000000000011101110 ;
1<
b00011 =
b00000000000000000000000011101110 >
b101000 H
b00000 I
b000001 J
b00000000000000000000000000011000 L
b00000000000000000000000000011100 M
b00000000000000000000000000000100 N
b00000000000000001100110011011101 q
b00000000000000001100110011011101 s
b00000000000000001100110011011101 u
b00000000000000000000000000000010 x
b0010 z
1{
1|
b00000000000000001110111000000000 }
b11101000 ~
b111 !!
0$!
b00000 %!
b00000000000000001100110011011101 (!
0,!
b00000 -!
b00000000000000000000000000000000 .!
13!
b00000000000000000000000000000000 =!
1?!
b00000000000000001100110011011101 @!
1J!
b00000000000000000000000011101110 N!
#261
#262
#263
#264
#265
0J!
#266
#267
#268
#269
#270
b00000000000000000000000000011100 #
b10100000000000110000000000000000 $
b00000000000000000000000000011000 &
b00000000000000110001101000000010 '
b11101000 (
b111 )
0,
b00000 -
b10100000000000110000000000000001 .
0/
b00000000000000000000000000000001 0
13
b00011 4
b00000000000000001100110011011101 5
b00100101 9
b11111111111111111100110011011101 :
b00000000000000001100110011011101 ;
0<
b00000 =
b00000000000000000000000000000000 >
b000000 H
b01000 I
b000010 J
b00000000000000000000000000011100 L
b00000000000000000000000000100000 M
b00000000000000000110100000001000 N
b00000000000000000000000011101110 R
b00000000000000000000000000000000 x
b0000 z
0{
0|
b00000000000000000000000000000000 }
b00000010 ~
b010 !!
b00000000000000000000000000001000 "!
1$!
b00011 %!
b00000000000000000000000000000000 (!
1,!
b00011 -!
b00000000000000001100110011011101 .!
02!
b00000000000000000000000000001000 =!
0?!
b00000000000000000000000000000000 @!
1J!
#271
#272
#273
#274
#275
0J!
#276
#277
#278
#279
#280
b00000000000000000000000000100000 #
b10000000000000010000000000000011 $
b00000000000000000000000000011100 &
b10100000000000110000000000000000 '
b00000010 (
b010 )
b00000000000000000000000000001000 *
1,
b00011 -
b00000000000000110001101000000010 .
1/
b00000000000000000001101000001010 0
03
b00000 4
b00000000000000000000000000000000 5
b11101000 9
b00000000000000000000000000000001 :
1<
b00011 =
b00000000000000001100110011011101 >
b101000 H
b00000 I
b000000 J
b00000000000000000000000000100000 L
b00000000000000000000000000100100 M
b00000000000000000000000000000000 N
b11111111111111111111111111110111 r
b00000000000000001100110011100101 s
b00000000000000000000000000001000 t
b0000000000000000000000000000000000000000000001100110011011101000 v
b00000000000000000000000000000001 x
b0100 z
1{
1|
b00000000110111010000000000000000 }
b11101000 ~
b111 !!
b00000000000000000000000000000000 "!
b00000000000000000000000011001100 #!
0$!
b00000 %!
b00000000000000000000000011001100 (!
0,!
b00000 -!
b00000000000000000000000000000000 .!
12!
b00000000000000000000000000000000 =!
1?!
b00000000000000000000000011001100 A!
b0000000000000000000000000000000000000000000001100110011011101000 H!
1J!
b00000000000000001100110011011101 N!
#281
#282
#283
#284
#285
0J!
#286
#287
#288
#289
#290
b00000000000000000000000000100100 #
b10010000000000010000000000000010 $
b00000000000000000000000000100000 &
b10000000000000010000000000000011 '
b11101000 (
b111 )
b00000000000000000000000000000000 *
b00000000000000000000000011001100 +
0,
b00000 -
b10100000000000110000000000000000 .
0/
b00000000000000000000000000000000 0
13
b00011 4
b00000000000000000000000011001100 5
b00000010 9
b00000000000000000001101000001010 :
0<
b00000 =
b00000000000000000000000000000000 >
b100000 H
b000011 J
b00001 K
b00000000000000000000000000100100 L
b00000000000000000000000000101000 M
b00000000000000000000000000001100 N
b00000000000000001100110011011101 R
b00000000000000000000000011001100 q
b11111111111111111111111111111111 r
b00000000000000000000000011001100 s
b00000000000000000000000000000000 t
b00000000000000000000000011001100 u
b0000000000000000000000000000000000000000000000000000000000000000 v
b00000000000000000000000000000000 x
b0000 z
0{
0|
b00000000000000000000000000000000 }
b11100000 ~
b00000000000000000000000000000000 #!
1$!
b00001 %!
b00000000000000000000000000000000 (!
1,!
b00011 -!
b00000000000000000000000011001100 .!
03!
b00001 5!
0?!
b0000000000000000000000000000000000000000000000000000000000000000 H!
1J!
b00000000000000000000000000000000 N!
#291
#292
#293
#294
#295
0J!
#296
#297
#298
#299
