wave.vcd
$version Generated by VerilatedVcd $end
$date Tue May  3 22:42:36 2022 $end
$timescale 1ps $end

 $scope module TOP $end
  $var wire  1 3! clk $end
  $var wire  1 4! rst $end
  $scope module top $end
   $var wire  1 3! clk $end
   $var wire 32 $ inst [31:0] $end
   $var wire 32 # inst_addr [31:0] $end
   $var wire  1 % rom_ce $end
   $var wire  1 4! rst $end
   $scope module inst_rom0 $end
    $var wire 32 # addr [31:0] $end
    $var wire  1 % ce $end
    $var wire 32 $ inst [31:0] $end
   $upscope $end
   $scope module openmips0 $end
    $var wire  1 3! clk $end
    $var wire  2 = cnt_i [1:0] $end
    $var wire  2 $! cnt_o [1:0] $end
    $var wire  8 ( ex_aluop_i [7:0] $end
    $var wire  3 ) ex_alusel_i [2:0] $end
    $var wire 32 t ex_hi_o [31:0] $end
    $var wire 32 u ex_lo_o [31:0] $end
    $var wire 32 * ex_reg1_i [31:0] $end
    $var wire 32 + ex_reg2_i [31:0] $end
    $var wire  5 - ex_wd_i [4:0] $end
    $var wire  5 - ex_wd_o [4:0] $end
    $var wire 32 r ex_wdata_o [31:0] $end
    $var wire  1 s ex_whilo_o $end
    $var wire  1 , ex_wreg_i $end
    $var wire  1 . ex_wreg_o $end
    $var wire 32 ; hi [31:0] $end
    $var wire 64 > hilo_temp_i [63:0] $end
    $var wire 64 %! hilo_temp_o [63:0] $end
    $var wire  8 m id_aluop_o [7:0] $end
    $var wire  3 n id_alusel_o [2:0] $end
    $var wire 32 ' id_inst_i [31:0] $end
    $var wire 32 & id_pc_i [31:0] $end
    $var wire 32 5! id_reg1_o [31:0] $end
    $var wire 32 o id_reg2_o [31:0] $end
    $var wire  5 q id_wd_o [4:0] $end
    $var wire  1 p id_wreg_o $end
    $var wire 32 < lo [31:0] $end
    $var wire 32 3 mem_hi_i [31:0] $end
    $var wire 32 z mem_hi_o [31:0] $end
    $var wire 32 4 mem_lo_i [31:0] $end
    $var wire 32 { mem_lo_o [31:0] $end
    $var wire  5 0 mem_wd_i [4:0] $end
    $var wire  5 w mem_wd_o [4:0] $end
    $var wire 32 1 mem_wdata_i [31:0] $end
    $var wire 32 x mem_wdata_o [31:0] $end
    $var wire  1 2 mem_whilo_i $end
    $var wire  1 y mem_whilo_o $end
    $var wire  1 / mem_wreg_i $end
    $var wire  1 v mem_wreg_o $end
    $var wire 32 # pc [31:0] $end
    $var wire  5 ~ reg1_addr [4:0] $end
    $var wire 32 6! reg1_data [31:0] $end
    $var wire  1 | reg1_read $end
    $var wire  5 !! reg2_addr [4:0] $end
    $var wire 32 7! reg2_data [31:0] $end
    $var wire  1 } reg2_read $end
    $var wire 32 # rom_addr_o [31:0] $end
    $var wire  1 % rom_ce_o $end
    $var wire 32 $ rom_data_i [31:0] $end
    $var wire  1 4! rst $end
    $var wire  6 "! stall [5:0] $end
    $var wire  1 #! stallreq_from_ex $end
    $var wire  1 8! stallreq_from_id $end
    $var wire 32 9 wb_hi_i [31:0] $end
    $var wire 32 : wb_lo_i [31:0] $end
    $var wire  5 6 wb_wd_i [4:0] $end
    $var wire 32 7 wb_wdata_i [31:0] $end
    $var wire  1 8 wb_whilo_i $end
    $var wire  1 5 wb_wreg_i $end
    $scope module ctrl0 $end
     $var wire  1 4! rst $end
     $var wire  6 "! stall [5:0] $end
     $var wire  1 #! stallreq_from_ex $end
     $var wire  1 8! stallreq_from_id $end
    $upscope $end
    $scope module ex0 $end
     $var wire 32 ,! HI [31:0] $end
     $var wire 32 -! LO [31:0] $end
     $var wire  8 ( aluop_i [7:0] $end
     $var wire  3 ) alusel_i [2:0] $end
     $var wire 32 .! arithmeticres [31:0] $end
     $var wire  2 = cnt_i [1:0] $end
     $var wire  2 $! cnt_o [1:0] $end
     $var wire 32 ; hi_i [31:0] $end
     $var wire 32 t hi_o [31:0] $end
     $var wire 64 k hilo_temp [63:0] $end
     $var wire 64 /! hilo_temp1 [63:0] $end
     $var wire 64 > hilo_temp_i [63:0] $end
     $var wire 64 %! hilo_temp_o [63:0] $end
     $var wire 32 < lo_i [31:0] $end
     $var wire 32 u lo_o [31:0] $end
     $var wire 32 )! logicout [31:0] $end
     $var wire 32 z mem_hi_i [31:0] $end
     $var wire 32 { mem_lo_i [31:0] $end
     $var wire  1 2 mem_whilo_i $end
     $var wire 32 +! movres [31:0] $end
     $var wire 64 1! mulres [63:0] $end
     $var wire 32 i opdata1_mult [31:0] $end
     $var wire 32 j opdata2_mult [31:0] $end
     $var wire  1 d ov_sum $end
     $var wire  1 9! reg1_eq_reg2 $end
     $var wire 32 * reg1_i [31:0] $end
     $var wire 32 g reg1_i_not [31:0] $end
     $var wire  1 e reg1_lt_reg2 $end
     $var wire 32 + reg2_i [31:0] $end
     $var wire 32 f reg2_i_mux [31:0] $end
     $var wire 32 h result_sum [31:0] $end
     $var wire  1 4! rst $end
     $var wire 32 *! shiftres [31:0] $end
     $var wire  1 #! stallreq $end
     $var wire  1 #! stallreq_for_madd_msub $end
     $var wire 32 9 wb_hi_i [31:0] $end
     $var wire 32 : wb_lo_i [31:0] $end
     $var wire  1 8 wb_whilo_i $end
     $var wire  5 - wd_i [4:0] $end
     $var wire  5 - wd_o [4:0] $end
     $var wire 32 r wdata_o [31:0] $end
     $var wire  1 s whilo_o $end
     $var wire  1 , wreg_i $end
     $var wire  1 . wreg_o $end
    $upscope $end
    $scope module ex_mem0 $end
     $var wire  1 3! clk $end
     $var wire  2 $! cnt_i [1:0] $end
     $var wire  2 = cnt_o [1:0] $end
     $var wire 32 t ex_hi [31:0] $end
     $var wire 32 u ex_lo [31:0] $end
     $var wire  5 - ex_wd [4:0] $end
     $var wire 32 r ex_wdata [31:0] $end
     $var wire  1 s ex_whilo $end
     $var wire  1 . ex_wreg $end
     $var wire 64 %! hilo_i [63:0] $end
     $var wire 64 > hilo_o [63:0] $end
     $var wire 32 3 mem_hi [31:0] $end
     $var wire 32 4 mem_lo [31:0] $end
     $var wire  5 0 mem_wd [4:0] $end
     $var wire 32 1 mem_wdata [31:0] $end
     $var wire  1 2 mem_whilo $end
     $var wire  1 / mem_wreg $end
     $var wire  1 4! rst $end
     $var wire  6 "! stall [5:0] $end
    $upscope $end
    $scope module hilo_reg0 $end
     $var wire  1 3! clk $end
     $var wire 32 9 hi_i [31:0] $end
     $var wire 32 ; hi_o [31:0] $end
     $var wire 32 : lo_i [31:0] $end
     $var wire 32 < lo_o [31:0] $end
     $var wire  1 4! rst $end
     $var wire  1 8 we $end
    $upscope $end
    $scope module id0 $end
     $var wire  8 m aluop_o [7:0] $end
     $var wire  3 n alusel_o [2:0] $end
     $var wire  5 - ex_wd_i [4:0] $end
     $var wire 32 r ex_wdata_i [31:0] $end
     $var wire  1 . ex_wreg_i $end
     $var wire 32 '! imm [31:0] $end
     $var wire 32 ' inst_i [31:0] $end
     $var wire  1 (! instvalid $end
     $var wire  5 w mem_wd_i [4:0] $end
     $var wire 32 x mem_wdata_i [31:0] $end
     $var wire  1 v mem_wreg_i $end
     $var wire  6 @ op [5:0] $end
     $var wire  5 A op2 [4:0] $end
     $var wire  6 B op3 [5:0] $end
     $var wire  5 C op4 [4:0] $end
     $var wire 32 & pc_i [31:0] $end
     $var wire  5 ~ reg1_addr_o [4:0] $end
     $var wire 32 6! reg1_data_i [31:0] $end
     $var wire 32 5! reg1_o [31:0] $end
     $var wire  1 | reg1_read_o $end
     $var wire  5 !! reg2_addr_o [4:0] $end
     $var wire 32 7! reg2_data_i [31:0] $end
     $var wire 32 o reg2_o [31:0] $end
     $var wire  1 } reg2_read_o $end
     $var wire  1 4! rst $end
     $var wire  1 8! stallreq $end
     $var wire  5 q wd_o [4:0] $end
     $var wire  1 p wreg_o $end
    $upscope $end
    $scope module id_ex0 $end
     $var wire  1 3! clk $end
     $var wire  8 ( ex_aluop [7:0] $end
     $var wire  3 ) ex_alusel [2:0] $end
     $var wire 32 * ex_reg1 [31:0] $end
     $var wire 32 + ex_reg2 [31:0] $end
     $var wire  5 - ex_wd [4:0] $end
     $var wire  1 , ex_wreg $end
     $var wire  8 m id_aluop [7:0] $end
     $var wire  3 n id_alusel [2:0] $end
     $var wire 32 5! id_reg1 [31:0] $end
     $var wire 32 o id_reg2 [31:0] $end
     $var wire  5 q id_wd [4:0] $end
     $var wire  1 p id_wreg $end
     $var wire  1 4! rst $end
     $var wire  6 "! stall [5:0] $end
    $upscope $end
    $scope module if_id0 $end
     $var wire  1 3! clk $end
     $var wire 32 ' id_inst [31:0] $end
     $var wire 32 & id_pc [31:0] $end
     $var wire 32 $ if_inst [31:0] $end
     $var wire 32 # if_pc [31:0] $end
     $var wire  1 4! rst $end
     $var wire  6 "! stall [5:0] $end
    $upscope $end
    $scope module mem0 $end
     $var wire 32 3 hi_i [31:0] $end
     $var wire 32 z hi_o [31:0] $end
     $var wire 32 4 lo_i [31:0] $end
     $var wire 32 { lo_o [31:0] $end
     $var wire  1 4! rst $end
     $var wire  5 0 wd_i [4:0] $end
     $var wire  5 w wd_o [4:0] $end
     $var wire 32 1 wdata_i [31:0] $end
     $var wire 32 x wdata_o [31:0] $end
     $var wire  1 2 whilo_i $end
     $var wire  1 y whilo_o $end
     $var wire  1 / wreg_i $end
     $var wire  1 v wreg_o $end
    $upscope $end
    $scope module mem_wb0 $end
     $var wire  1 3! clk $end
     $var wire 32 z mem_hi [31:0] $end
     $var wire 32 { mem_lo [31:0] $end
     $var wire  5 w mem_wd [4:0] $end
     $var wire 32 x mem_wdata [31:0] $end
     $var wire  1 y mem_whilo $end
     $var wire  1 v mem_wreg $end
     $var wire  1 4! rst $end
     $var wire  6 "! stall [5:0] $end
     $var wire 32 9 wb_hi [31:0] $end
     $var wire 32 : wb_lo [31:0] $end
     $var wire  5 6 wb_wd [4:0] $end
     $var wire 32 7 wb_wdata [31:0] $end
     $var wire  1 8 wb_whilo $end
     $var wire  1 5 wb_wreg $end
    $upscope $end
    $scope module pc_reg0 $end
     $var wire  1 % ce $end
     $var wire  1 3! clk $end
     $var wire 32 # pc [31:0] $end
     $var wire  1 4! rst $end
     $var wire  6 "! stall [5:0] $end
    $upscope $end
    $scope module regfile1 $end
     $var wire  1 3! clk $end
     $var wire  5 ~ raddr1 [4:0] $end
     $var wire  5 !! raddr2 [4:0] $end
     $var wire 32 6! rdata1 [31:0] $end
     $var wire 32 7! rdata2 [31:0] $end
     $var wire  1 | re1 $end
     $var wire  1 } re2 $end
     $var wire 32 D regs(0) [31:0] $end
     $var wire 32 E regs(1) [31:0] $end
     $var wire 32 N regs(10) [31:0] $end
     $var wire 32 O regs(11) [31:0] $end
     $var wire 32 P regs(12) [31:0] $end
     $var wire 32 Q regs(13) [31:0] $end
     $var wire 32 R regs(14) [31:0] $end
     $var wire 32 S regs(15) [31:0] $end
     $var wire 32 T regs(16) [31:0] $end
     $var wire 32 U regs(17) [31:0] $end
     $var wire 32 V regs(18) [31:0] $end
     $var wire 32 W regs(19) [31:0] $end
     $var wire 32 F regs(2) [31:0] $end
     $var wire 32 X regs(20) [31:0] $end
     $var wire 32 Y regs(21) [31:0] $end
     $var wire 32 Z regs(22) [31:0] $end
     $var wire 32 [ regs(23) [31:0] $end
     $var wire 32 \ regs(24) [31:0] $end
     $var wire 32 ] regs(25) [31:0] $end
     $var wire 32 ^ regs(26) [31:0] $end
     $var wire 32 _ regs(27) [31:0] $end
     $var wire 32 ` regs(28) [31:0] $end
     $var wire 32 a regs(29) [31:0] $end
     $var wire 32 G regs(3) [31:0] $end
     $var wire 32 b regs(30) [31:0] $end
     $var wire 32 c regs(31) [31:0] $end
     $var wire 32 H regs(4) [31:0] $end
     $var wire 32 I regs(5) [31:0] $end
     $var wire 32 J regs(6) [31:0] $end
     $var wire 32 K regs(7) [31:0] $end
     $var wire 32 L regs(8) [31:0] $end
     $var wire 32 M regs(9) [31:0] $end
     $var wire  1 4! rst $end
     $var wire  5 6 waddr [4:0] $end
     $var wire 32 7 wdata [31:0] $end
     $var wire  1 5 we $end
    $upscope $end
   $upscope $end
  $upscope $end
 $upscope $end
$enddefinitions $end


#1
b00000000000000000000000000000000 #
b00000000000000000000000000000000 $
0%
b00000000000000000000000000000000 &
b00000000000000000000000000000000 '
b00000000 (
b000 )
b00000000000000000000000000000000 *
b00000000000000000000000000000000 +
0,
b00000 -
0.
0/
b00000 0
b00000000000000000000000000000000 1
02
b00000000000000000000000000000000 3
b00000000000000000000000000000000 4
05
b00000 6
b00000000000000000000000000000000 7
08
b00000000000000000000000000000000 9
b00000000000000000000000000000000 :
b00000000000000000000000000000000 ;
b00000000000000000000000000000000 <
b00 =
b0000000000000000000000000000000000000000000000000000000000000000 >
b000000 @
b00000 A
b000000 B
b00000 C
b00000000000000000000000000000000 D
b00000000000000000000000000000000 E
b00000000000000000000000000000000 F
b00000000000000000000000000000000 G
b00000000000000000000000000000000 H
b00000000000000000000000000000000 I
b00000000000000000000000000000000 J
b00000000000000000000000000000000 K
b00000000000000000000000000000000 L
b00000000000000000000000000000000 M
b00000000000000000000000000000000 N
b00000000000000000000000000000000 O
b00000000000000000000000000000000 P
b00000000000000000000000000000000 Q
b00000000000000000000000000000000 R
b00000000000000000000000000000000 S
b00000000000000000000000000000000 T
b00000000000000000000000000000000 U
b00000000000000000000000000000000 V
b00000000000000000000000000000000 W
b00000000000000000000000000000000 X
b00000000000000000000000000000000 Y
b00000000000000000000000000000000 Z
b00000000000000000000000000000000 [
b00000000000000000000000000000000 \
b00000000000000000000000000000000 ]
b00000000000000000000000000000000 ^
b00000000000000000000000000000000 _
b00000000000000000000000000000000 `
b00000000000000000000000000000000 a
b00000000000000000000000000000000 b
b00000000000000000000000000000000 c
0d
0e
b00000000000000000000000000000000 f
b11111111111111111111111111111111 g
b00000000000000000000000000000000 h
b00000000000000000000000000000000 i
b00000000000000000000000000000000 j
b0000000000000000000000000000000000000000000000000000000000000000 k
b00000000 m
b000 n
b00000000000000000000000000000000 o
0p
b00000 q
b00000000000000000000000000000000 r
0s
b00000000000000000000000000000000 t
b00000000000000000000000000000000 u
0v
b00000 w
b00000000000000000000000000000000 x
0y
b00000000000000000000000000000000 z
b00000000000000000000000000000000 {
0|
0}
b00000 ~
b00000 !!
b000000 "!
0#!
b00 $!
b0000000000000000000000000000000000000000000000000000000000000000 %!
b00000000000000000000000000000000 '!
0(!
b00000000000000000000000000000000 )!
b00000000000000000000000000000000 *!
b00000000000000000000000000000000 +!
b00000000000000000000000000000000 ,!
b00000000000000000000000000000000 -!
b00000000000000000000000000000000 .!
b0000000000000000000000000000000000000000000000000000000000000000 /!
b0000000000000000000000000000000000000000000000000000000000000000 1!
03!
14!
b00000000000000000000000000000000 5!
b00000000000000000000000000000000 6!
b00000000000000000000000000000000 7!
08!
09!
#2
#3
#4
#5
#6
#7
#8
#9
#10
13!
#11
#12
#13
#14
#15
03!
#16
#17
#18
#19
#20
13!
#21
#22
#23
#24
#25
03!
#26
#27
#28
#29
#30
13!
#31
#32
#33
#34
#35
03!
#36
#37
#38
#39
#40
13!
#41
#42
#43
#44
#45
03!
#46
#47
#48
#49
#50
13!
#51
#52
#53
#54
#55
03!
#56
#57
#58
#59
#60
13!
#61
#62
#63
#64
#65
03!
#66
#67
#68
#69
#70
13!
#71
#72
#73
#74
#75
03!
#76
#77
#78
#79
#80
13!
#81
#82
#83
#84
#85
03!
#86
#87
#88
#89
#90
13!
#91
#92
#93
#94
#95
03!
#96
#97
#98
#99
#100
13!
#101
#102
#103
#104
#105
03!
#106
#107
#108
#109
#110
13!
#111
#112
#113
#114
#115
03!
#116
#117
#118
#119
#120
13!
#121
#122
#123
#124
#125
03!
#126
#127
#128
#129
#130
13!
#131
#132
#133
#134
#135
03!
#136
#137
#138
#139
#140
13!
#141
#142
#143
#144
#145
03!
#146
#147
#148
#149
#150
13!
#151
#152
#153
#154
#155
03!
#156
#157
#158
#159
#160
13!
#161
#162
#163
#164
#165
03!
#166
#167
#168
#169
#170
13!
#171
#172
#173
#174
#175
03!
#176
#177
#178
#179
#180
13!
#181
#182
#183
#184
#185
03!
#186
#187
#188
#189
#190
13!
#191
#192
#193
#194
#195
03!
#196
b01111100 m
b010 n
1p
1}
04!
#197
#198
#199
#200
b00110100000000011111111111111111 $
1%
b01111100 (
b010 )
1,
1.
13!
#201
#202
#203
#204
#205
03!
#206
#207
#208
#209
#210
b00000000000000000000000000000100 #
b00000000000000010000110000000000 $
b00110100000000011111111111111111 '
1/
b001101 @
b11111 A
b111111 B
b00001 C
b00100101 m
b001 n
b00000000000000001111111111111111 o
b00001 q
1v
1|
0}
b00001 !!
b00000000000000001111111111111111 '!
13!
#211
#212
#213
#214
#215
03!
#216
#217
#218
#219
#220
b00000000000000000000000000001000 #
b00110100001000011111111111111011 $
b00000000000000000000000000000100 &
b00000000000000010000110000000000 '
b00100101 (
b001 )
b00000000000000001111111111111111 +
b00001 -
15
b000000 @
b10000 A
b000000 B
1e
b00000000000000001111111111111111 f
b00000000000000001111111111111111 h
b00000000000000001111111111111111 j
b01111100 m
b010 n
b00000000000000001111111111111111 r
0|
1}
b00000000000000000000000000010000 '!
b00000000000000001111111111111111 )!
13!
b00000000000000000000000000010000 5!
#221
#222
#223
#224
#225
03!
#226
#227
#228
#229
#230
b00000000000000000000000000001100 #
b00110100000000100000000000000110 $
b00000000000000000000000000001000 &
b00110100001000011111111111111011 '
b01111100 (
b010 )
b00000000000000000000000000010000 *
b00001 0
b00000000000000001111111111111111 1
b001101 @
b11111 A
b111011 B
b11111111111111111111111111101111 g
b00000000000000010000000000001111 h
b00000000000000000000000000010000 i
b0000000000000000000000000000000000000000000011111111111111110000 k
b00100101 m
b001 n
b00000000000000001111111111111011 o
b11111111111111110000000000000000 r
b00001 w
b00000000000000001111111111111111 x
1|
0}
b00001 ~
b00000000000000001111111111111011 '!
b11111111111111110000000000000000 *!
b0000000000000000000000000000000000000000000011111111111111110000 1!
13!
b11111111111111110000000000000000 5!
#231
#232
#233
#234
#235
03!
#236
#237
#238
#239
#240
b00000000000000000000000000010000 #
b00000000001000100000000000011000 $
b00000000000000000000000000001100 &
b00110100000000100000000000000110 '
b00100101 (
b001 )
b11111111111111110000000000000000 *
b00000000000000001111111111111011 +
b11111111111111110000000000000000 1
b00001 6
b00000000000000001111111111111111 7
b00000 A
b000110 B
b00010 C
0e
b00000000000000001111111111111011 f
b00000000000000001111111111111111 g
b11111111111111111111111111111011 h
b11111111111111110000000000000000 i
b00000000000000001111111111111011 j
b0000000000000000111111111111101000000000000001010000000000000000 k
b00000000000000000000000000000110 o
b00010 q
b11111111111111111111111111111011 r
b11111111111111110000000000000000 x
b00000 ~
b00010 !!
b00000000000000000000000000000110 '!
b11111111111111111111111111111011 )!
b0000000000000000111111111111101000000000000001010000000000000000 1!
13!
b00000000000000000000000000000000 5!
#241
#242
#243
#244
#245
03!
#246
#247
#248
#249
#250
b00000000000000000000000000010100 #
b01110000001000100000000000000000 $
b00000000000000000000000000010000 &
b00000000001000100000000000011000 '
b00000000000000000000000000000000 *
b00000000000000000000000000000110 +
b00010 -
b11111111111111111111111111111011 1
b11111111111111110000000000000000 7
b000000 @
b011000 B
b00000000000000001111111111111111 E
1e
b00000000000000000000000000000110 f
b11111111111111111111111111111111 g
b00000000000000000000000000000110 h
b00000000000000000000000000000000 i
b00000000000000000000000000000110 j
b0000000000000000000000000000000000000000000000000000000000000000 k
b00011000 m
b000 n
0p
b00000 q
b00000000000000000000000000000110 r
b11111111111111111111111111111011 x
1}
b00001 ~
b00000000000000000000000000000000 '!
b00000000000000000000000000000110 )!
b0000000000000000000000000000000000000000000000000000000000000000 1!
13!
b11111111111111111111111111111011 5!
b11111111111111110000000000000000 6!
#251
#252
#253
#254
#255
03!
#256
#257
#258
#259
#260
b00000000000000000000000000011000 #
b01110000001000100000000000000001 $
b00000000000000000000000000010100 &
b01110000001000100000000000000000 '
b00011000 (
b000 )
b11111111111111111111111111111011 *
0,
b00000 -
0.
b00010 0
b00000000000000000000000000000110 1
b11111111111111111111111111111011 7
b011100 @
b000000 B
b11111111111111110000000000000000 E
0e
b00000000000000000000000000000100 g
b00000000000000000000000000000001 h
b00000000000000000000000000000101 i
b0000000000000000000000000000000000000000000000000000000000011110 k
b10100110 m
b101 n
b00000000000000000000000000000000 r
1s
b11111111111111111111111111111111 t
b11111111111111111111111111100010 u
b00010 w
b00000000000000000000000000000110 x
b00000000000000000000000000000000 )!
b1111111111111111111111111111111111111111111111111111111111100010 1!
13!
b11111111111111111111111111111011 6!
#261
#262
#263
#264
#265
03!
#266
#267
#268
#269
#270
b00000000000000000000000000011100 #
b01110000001000100000000000000100 $
b00000000000000000000000000011000 &
b01110000001000100000000000000001 '
b10100110 (
b101 )
0/
b00000 0
b00000000000000000000000000000000 1
12
b11111111111111111111111111111111 3
b11111111111111111111111111100010 4
b00010 6
b00000000000000000000000000000110 7
b000001 B
b11111111111111111111111111111011 E
b10101000 m
b11111111111111111111111111100010 r
b00000000000000000000000000000000 t
b00000000000000000000000000000000 u
0v
b00000 w
b00000000000000000000000000000000 x
1y
b11111111111111111111111111111111 z
b11111111111111111111111111100010 {
b001111 "!
1#!
b01 $!
b1111111111111111111111111111111111111111111111111111111111100010 %!
b11111111111111111111111111111111 ,!
b11111111111111111111111111100010 -!
13!
b00000000000000000000000000000110 7!
#271
#272
#273
#274
#275
03!
#276
#277
#278
#279
#280
02
b00000000000000000000000000000000 3
b00000000000000000000000000000000 4
05
b00000 6
b00000000000000000000000000000000 7
18
b11111111111111111111111111111111 9
b11111111111111111111111111100010 :
b01 =
b1111111111111111111111111111111111111111111111111111111111100010 >
b00000000000000000000000000000110 F
b11111111111111111111111111111111 t
b11111111111111111111111111000100 u
0y
b00000000000000000000000000000000 z
b00000000000000000000000000000000 {
b000000 "!
0#!
b10 $!
b0000000000000000000000000000000000000000000000000000000000000000 %!
b1111111111111111111111111111111111111111111111111111111111000100 /!
13!
#281
#282
#283
#284
#285
03!
#286
#287
#288
#289
#290
b00000000000000000000000000100000 #
b01110000001000100000000000000101 $
b00000000000000000000000000011100 &
b01110000001000100000000000000100 '
b10101000 (
b11111111111111111111111111100010 1
12
b11111111111111111111111111111111 3
b11111111111111111111111111000100 4
08
b00000000000000000000000000000000 9
b00000000000000000000000000000000 :
b11111111111111111111111111111111 ;
b11111111111111111111111111100010 <
b00 =
b0000000000000000000000000000000000000000000000000000000000000000 >
b000100 B
b11111111111111111111111111111011 i
b0000000000000000000000000000010111111111111111111111111111100010 k
b10101010 m
b00000000000000000000000000000000 t
b00000000000000000000000000000000 u
b11111111111111111111111111100010 x
1y
b11111111111111111111111111111111 z
b11111111111111111111111111000100 {
b001111 "!
1#!
b01 $!
b0000000000000000000000000000010111111111111111111111111111100010 %!
b11111111111111111111111111000100 -!
b0000000000000000000000000000000000000000000000000000000000000000 /!
b0000000000000000000000000000010111111111111111111111111111100010 1!
13!
#291
#292
#293
#294
#295
03!
#296
#297
#298
#299
#300
b00000000000000000000000000000000 1
02
b00000000000000000000000000000000 3
b00000000000000000000000000000000 4
b11111111111111111111111111100010 7
18
b11111111111111111111111111111111 9
b11111111111111111111111111000100 :
b01 =
b0000000000000000000000000000010111111111111111111111111111100010 >
b00000000000000000000000000000101 t
b11111111111111111111111110100110 u
b00000000000000000000000000000000 x
0y
b00000000000000000000000000000000 z
b00000000000000000000000000000000 {
b000000 "!
0#!
b10 $!
b0000000000000000000000000000000000000000000000000000000000000000 %!
b0000000000000000000000000000010111111111111111111111111110100110 /!
13!
#301
#302
#303
#304
#305
03!
#306
#307
#308
#309
#310
b00000000000000000000000000100100 #
b00000000000000000000000000000000 $
b00000000000000000000000000100000 &
b01110000001000100000000000000101 '
b10101010 (
b11111111111111111111111111100010 1
12
b00000000000000000000000000000101 3
b11111111111111111111111110100110 4
b00000000000000000000000000000000 7
08
b00000000000000000000000000000000 9
b00000000000000000000000000000000 :
b11111111111111111111111111000100 <
b00 =
b0000000000000000000000000000000000000000000000000000000000000000 >
b000101 B
b00000000000000000000000000000101 i
b0000000000000000000000000000000000000000000000000000000000011110 k
b10101011 m
b00000000000000000000000000000000 t
b00000000000000000000000000000000 u
b11111111111111111111111111100010 x
1y
b00000000000000000000000000000101 z
b11111111111111111111111110100110 {
b001111 "!
1#!
b01 $!
b0000000000000000000000000000000000000000000000000000000000011110 %!
b00000000000000000000000000000101 ,!
b11111111111111111111111110100110 -!
b0000000000000000000000000000000000000000000000000000000000000000 /!
b1111111111111111111111111111111111111111111111111111111111100010 1!
13!
#311
#312
#313
#314
#315
03!
#316
#317
#318
#319
#320
b00000000000000000000000000000000 1
02
b00000000000000000000000000000000 3
b00000000000000000000000000000000 4
b11111111111111111111111111100010 7
18
b00000000000000000000000000000101 9
b11111111111111111111111110100110 :
b01 =
b0000000000000000000000000000000000000000000000000000000000011110 >
b00000000000000000000000000000101 t
b11111111111111111111111111000100 u
b00000000000000000000000000000000 x
0y
b00000000000000000000000000000000 z
b00000000000000000000000000000000 {
b000000 "!
0#!
b10 $!
b0000000000000000000000000000000000000000000000000000000000000000 %!
b0000000000000000000000000000010111111111111111111111111111000100 /!
13!
#321
#322
#323
#324
#325
03!
#326
#327
#328
#329
#330
b00000000000000000000000000101000 #
b00000000000000000000000000100100 &
b00000000000000000000000000000000 '
b10101011 (
b11111111111111111111111111100010 1
12
b00000000000000000000000000000101 3
b11111111111111111111111111000100 4
b00000000000000000000000000000000 7
08
b00000000000000000000000000000000 9
b00000000000000000000000000000000 :
b00000000000000000000000000000101 ;
b11111111111111111111111110100110 <
b00 =
b0000000000000000000000000000000000000000000000000000000000000000 >
b000000 @
b000000 B
b00000 C
b11111111111111111111111111111011 i
b0000000000000000000000000000010111111111111111111111111111100010 k
b01111100 m
b010 n
b00000000000000000000000000000000 o
1p
b00000000000000000000000000000000 t
b00000000000000000000000000000000 u
b11111111111111111111111111100010 x
1y
b00000000000000000000000000000101 z
b11111111111111111111111111000100 {
0|
b00000 ~
b00000 !!
b001111 "!
1#!
b01 $!
b1111111111111111111111111111101000000000000000000000000000011110 %!
b11111111111111111111111111000100 -!
b0000000000000000000000000000000000000000000000000000000000000000 /!
b0000000000000000000000000000010111111111111111111111111111100010 1!
13!
b00000000000000000000000000000000 5!
b00000000000000000000000000000000 6!
b00000000000000000000000000000000 7!
#331
#332
#333
#334
#335
03!
#336
#337
#338
#339
#340
b00000000000000000000000000000000 1
02
b00000000000000000000000000000000 3
b00000000000000000000000000000000 4
b11111111111111111111111111100010 7
18
b00000000000000000000000000000101 9
b11111111111111111111111111000100 :
b01 =
b1111111111111111111111111111101000000000000000000000000000011110 >
b11111111111111111111111111111111 t
b11111111111111111111111111100010 u
b00000000000000000000000000000000 x
0y
b00000000000000000000000000000000 z
b00000000000000000000000000000000 {
b000000 "!
0#!
b10 $!
b0000000000000000000000000000000000000000000000000000000000000000 %!
b1111111111111111111111111111111111111111111111111111111111100010 /!
13!
#341
#342
#343
#344
#345
03!
#346
#347
#348
#349
#350
b00000000000000000000000000101100 #
b00000000000000000000000000101000 &
b01111100 (
b010 )
b00000000000000000000000000000000 *
b00000000000000000000000000000000 +
1,
1.
b11111111111111111111111111100010 1
12
b11111111111111111111111111111111 3
b11111111111111111111111111100010 4
b00000000000000000000000000000000 7
08
b00000000000000000000000000000000 9
b00000000000000000000000000000000 :
b11111111111111111111111111000100 <
b00 =
b0000000000000000000000000000000000000000000000000000000000000000 >
b00000000000000000000000000000000 f
b11111111111111111111111111111111 g
b00000000000000000000000000000000 h
b00000000000000000000000000000000 i
b00000000000000000000000000000000 j
b0000000000000000000000000000000000000000000000000000000000000000 k
b00000000000000000000000000000000 r
0s
b00000000000000000000000000000000 t
b00000000000000000000000000000000 u
b11111111111111111111111111100010 x
1y
b11111111111111111111111111111111 z
b11111111111111111111111111100010 {
b00 $!
b00000000000000000000000000000000 *!
b11111111111111111111111111111111 ,!
b11111111111111111111111111100010 -!
b0000000000000000000000000000000000000000000000000000000000000000 1!
13!
#351
#352
#353
#354
#355
03!
#356
#357
#358
#359
#360
b00000000000000000000000000110000 #
b00000000000000000000000000101100 &
1/
b00000000000000000000000000000000 1
02
b00000000000000000000000000000000 3
b00000000000000000000000000000000 4
b11111111111111111111111111100010 7
18
b11111111111111111111111111111111 9
b11111111111111111111111111100010 :
1v
b00000000000000000000000000000000 x
0y
b00000000000000000000000000000000 z
b00000000000000000000000000000000 {
13!
#361
#362
#363
#364
#365
03!
#366
#367
#368
#369
#370
b00000000000000000000000000110100 #
b00000000000000000000000000110000 &
15
b00000000000000000000000000000000 7
08
b00000000000000000000000000000000 9
b00000000000000000000000000000000 :
b11111111111111111111111111111111 ;
b11111111111111111111111111100010 <
13!
#371
#372
#373
#374
#375
03!
#376
#377
#378
#379
#380
b00000000000000000000000000111000 #
b00000000000000000000000000110100 &
13!
#381
#382
#383
#384
#385
03!
#386
#387
#388
#389
#390
b00000000000000000000000000111100 #
b00000000000000000000000000111000 &
13!
#391
#392
#393
#394
#395
03!
#396
#397
#398
#399
#400
b00000000000000000000000001000000 #
b00000000000000000000000000111100 &
13!
#401
#402
#403
#404
#405
03!
#406
#407
#408
#409
#410
b00000000000000000000000001000100 #
b00000000000000000000000001000000 &
13!
#411
#412
#413
#414
#415
03!
#416
#417
#418
#419
#420
b00000000000000000000000001001000 #
b00000000000000000000000001000100 &
13!
#421
#422
#423
#424
#425
03!
#426
#427
#428
#429
#430
b00000000000000000000000001001100 #
b00000000000000000000000001001000 &
13!
#431
#432
#433
#434
#435
03!
#436
#437
#438
#439
#440
b00000000000000000000000001010000 #
b00000000000000000000000001001100 &
13!
#441
#442
#443
#444
#445
03!
#446
#447
#448
#449
#450
b00000000000000000000000001010100 #
b00000000000000000000000001010000 &
13!
#451
#452
#453
#454
#455
03!
#456
#457
#458
#459
