wave.vcd
$version Generated by VerilatedVcd $end
$date Mon Apr 18 19:51:51 2022 $end
$timescale 1ps $end

 $scope module TOP $end
  $var wire  1 { clk $end
  $var wire  1 | rst $end
  $scope module top $end
   $var wire  1 { clk $end
   $var wire 32 $ inst [31:0] $end
   $var wire 32 # inst_addr [31:0] $end
   $var wire  1 % rom_ce $end
   $var wire  1 | rst $end
   $scope module inst_rom0 $end
    $var wire 32 # addr [31:0] $end
    $var wire  1 % ce $end
    $var wire 32 $ inst [31:0] $end
   $upscope $end
   $scope module openmips0 $end
    $var wire  1 { clk $end
    $var wire  8 ( ex_aluop_i [7:0] $end
    $var wire  3 ) ex_alusel_i [2:0] $end
    $var wire 32 h ex_hi_o [31:0] $end
    $var wire 32 i ex_lo_o [31:0] $end
    $var wire 32 * ex_reg1_i [31:0] $end
    $var wire 32 + ex_reg2_i [31:0] $end
    $var wire  5 - ex_wd_i [4:0] $end
    $var wire  5 - ex_wd_o [4:0] $end
    $var wire 32 f ex_wdata_o [31:0] $end
    $var wire  1 g ex_whilo_o $end
    $var wire  1 , ex_wreg_i $end
    $var wire  1 , ex_wreg_o $end
    $var wire 32 : hi [31:0] $end
    $var wire  8 ` id_aluop_o [7:0] $end
    $var wire  3 a id_alusel_o [2:0] $end
    $var wire 32 ' id_inst_i [31:0] $end
    $var wire 32 & id_pc_i [31:0] $end
    $var wire 32 b id_reg1_o [31:0] $end
    $var wire 32 c id_reg2_o [31:0] $end
    $var wire  5 e id_wd_o [4:0] $end
    $var wire  1 d id_wreg_o $end
    $var wire 32 ; lo [31:0] $end
    $var wire 32 2 mem_hi_i [31:0] $end
    $var wire 32 n mem_hi_o [31:0] $end
    $var wire 32 3 mem_lo_i [31:0] $end
    $var wire 32 o mem_lo_o [31:0] $end
    $var wire  5 / mem_wd_i [4:0] $end
    $var wire  5 k mem_wd_o [4:0] $end
    $var wire 32 0 mem_wdata_i [31:0] $end
    $var wire 32 l mem_wdata_o [31:0] $end
    $var wire  1 1 mem_whilo_i $end
    $var wire  1 m mem_whilo_o $end
    $var wire  1 . mem_wreg_i $end
    $var wire  1 j mem_wreg_o $end
    $var wire 32 # pc [31:0] $end
    $var wire  5 r reg1_addr [4:0] $end
    $var wire 32 } reg1_data [31:0] $end
    $var wire  1 p reg1_read $end
    $var wire  5 s reg2_addr [4:0] $end
    $var wire 32 ~ reg2_data [31:0] $end
    $var wire  1 q reg2_read $end
    $var wire 32 # rom_addr_o [31:0] $end
    $var wire  1 % rom_ce_o $end
    $var wire 32 $ rom_data_i [31:0] $end
    $var wire  1 | rst $end
    $var wire 32 8 wb_hi_i [31:0] $end
    $var wire 32 9 wb_lo_i [31:0] $end
    $var wire  5 5 wb_wd_i [4:0] $end
    $var wire 32 6 wb_wdata_i [31:0] $end
    $var wire  1 7 wb_whilo_i $end
    $var wire  1 4 wb_wreg_i $end
    $scope module ex0 $end
     $var wire 32 y HI [31:0] $end
     $var wire 32 z LO [31:0] $end
     $var wire  8 ( aluop_i [7:0] $end
     $var wire  3 ) alusel_i [2:0] $end
     $var wire 32 : hi_i [31:0] $end
     $var wire 32 h hi_o [31:0] $end
     $var wire 32 ; lo_i [31:0] $end
     $var wire 32 i lo_o [31:0] $end
     $var wire 32 v logicout [31:0] $end
     $var wire 32 n mem_hi_i [31:0] $end
     $var wire 32 o mem_lo_i [31:0] $end
     $var wire  1 1 mem_whilo_i $end
     $var wire 32 x movres [31:0] $end
     $var wire 32 * reg1_i [31:0] $end
     $var wire 32 + reg2_i [31:0] $end
     $var wire  1 | rst $end
     $var wire 32 w shiftres [31:0] $end
     $var wire 32 8 wb_hi_i [31:0] $end
     $var wire 32 9 wb_lo_i [31:0] $end
     $var wire  1 7 wb_whilo_i $end
     $var wire  5 - wd_i [4:0] $end
     $var wire  5 - wd_o [4:0] $end
     $var wire 32 f wdata_o [31:0] $end
     $var wire  1 g whilo_o $end
     $var wire  1 , wreg_i $end
     $var wire  1 , wreg_o $end
    $upscope $end
    $scope module ex_mem0 $end
     $var wire  1 { clk $end
     $var wire 32 h ex_hi [31:0] $end
     $var wire 32 i ex_lo [31:0] $end
     $var wire  5 - ex_wd [4:0] $end
     $var wire 32 f ex_wdata [31:0] $end
     $var wire  1 g ex_whilo $end
     $var wire  1 , ex_wreg $end
     $var wire 32 2 mem_hi [31:0] $end
     $var wire 32 3 mem_lo [31:0] $end
     $var wire  5 / mem_wd [4:0] $end
     $var wire 32 0 mem_wdata [31:0] $end
     $var wire  1 1 mem_whilo $end
     $var wire  1 . mem_wreg $end
     $var wire  1 | rst $end
    $upscope $end
    $scope module hilo_reg0 $end
     $var wire  1 { clk $end
     $var wire 32 8 hi_i [31:0] $end
     $var wire 32 : hi_o [31:0] $end
     $var wire 32 9 lo_i [31:0] $end
     $var wire 32 ; lo_o [31:0] $end
     $var wire  1 | rst $end
     $var wire  1 7 we $end
    $upscope $end
    $scope module id0 $end
     $var wire  8 ` aluop_o [7:0] $end
     $var wire  3 a alusel_o [2:0] $end
     $var wire  5 - ex_wd_i [4:0] $end
     $var wire 32 f ex_wdata_i [31:0] $end
     $var wire  1 , ex_wreg_i $end
     $var wire 32 t imm [31:0] $end
     $var wire 32 ' inst_i [31:0] $end
     $var wire  1 u instvalid $end
     $var wire  5 k mem_wd_i [4:0] $end
     $var wire 32 l mem_wdata_i [31:0] $end
     $var wire  1 j mem_wreg_i $end
     $var wire  6 < op [5:0] $end
     $var wire  5 = op2 [4:0] $end
     $var wire  6 > op3 [5:0] $end
     $var wire  5 ? op4 [4:0] $end
     $var wire 32 & pc_i [31:0] $end
     $var wire  5 r reg1_addr_o [4:0] $end
     $var wire 32 } reg1_data_i [31:0] $end
     $var wire 32 b reg1_o [31:0] $end
     $var wire  1 p reg1_read_o $end
     $var wire  5 s reg2_addr_o [4:0] $end
     $var wire 32 ~ reg2_data_i [31:0] $end
     $var wire 32 c reg2_o [31:0] $end
     $var wire  1 q reg2_read_o $end
     $var wire  1 | rst $end
     $var wire  5 e wd_o [4:0] $end
     $var wire  1 d wreg_o $end
    $upscope $end
    $scope module id_ex0 $end
     $var wire  1 { clk $end
     $var wire  8 ( ex_aluop [7:0] $end
     $var wire  3 ) ex_alusel [2:0] $end
     $var wire 32 * ex_reg1 [31:0] $end
     $var wire 32 + ex_reg2 [31:0] $end
     $var wire  5 - ex_wd [4:0] $end
     $var wire  1 , ex_wreg $end
     $var wire  8 ` id_aluop [7:0] $end
     $var wire  3 a id_alusel [2:0] $end
     $var wire 32 b id_reg1 [31:0] $end
     $var wire 32 c id_reg2 [31:0] $end
     $var wire  5 e id_wd [4:0] $end
     $var wire  1 d id_wreg $end
     $var wire  1 | rst $end
    $upscope $end
    $scope module if_id0 $end
     $var wire  1 { clk $end
     $var wire 32 ' id_inst [31:0] $end
     $var wire 32 & id_pc [31:0] $end
     $var wire 32 $ if_inst [31:0] $end
     $var wire 32 # if_pc [31:0] $end
     $var wire  1 | rst $end
    $upscope $end
    $scope module mem0 $end
     $var wire 32 2 hi_i [31:0] $end
     $var wire 32 n hi_o [31:0] $end
     $var wire 32 3 lo_i [31:0] $end
     $var wire 32 o lo_o [31:0] $end
     $var wire  1 | rst $end
     $var wire  5 / wd_i [4:0] $end
     $var wire  5 k wd_o [4:0] $end
     $var wire 32 0 wdata_i [31:0] $end
     $var wire 32 l wdata_o [31:0] $end
     $var wire  1 1 whilo_i $end
     $var wire  1 m whilo_o $end
     $var wire  1 . wreg_i $end
     $var wire  1 j wreg_o $end
    $upscope $end
    $scope module mem_wb0 $end
     $var wire  1 { clk $end
     $var wire 32 n mem_hi [31:0] $end
     $var wire 32 o mem_lo [31:0] $end
     $var wire  5 k mem_wd [4:0] $end
     $var wire 32 l mem_wdata [31:0] $end
     $var wire  1 m mem_whilo $end
     $var wire  1 j mem_wreg $end
     $var wire  1 | rst $end
     $var wire 32 8 wb_hi [31:0] $end
     $var wire 32 9 wb_lo [31:0] $end
     $var wire  5 5 wb_wd [4:0] $end
     $var wire 32 6 wb_wdata [31:0] $end
     $var wire  1 7 wb_whilo $end
     $var wire  1 4 wb_wreg $end
    $upscope $end
    $scope module pc_reg0 $end
     $var wire  1 % ce $end
     $var wire  1 { clk $end
     $var wire 32 # pc [31:0] $end
     $var wire  1 | rst $end
    $upscope $end
    $scope module regfile1 $end
     $var wire  1 { clk $end
     $var wire  5 r raddr1 [4:0] $end
     $var wire  5 s raddr2 [4:0] $end
     $var wire 32 } rdata1 [31:0] $end
     $var wire 32 ~ rdata2 [31:0] $end
     $var wire  1 p re1 $end
     $var wire  1 q re2 $end
     $var wire 32 @ regs(0) [31:0] $end
     $var wire 32 A regs(1) [31:0] $end
     $var wire 32 J regs(10) [31:0] $end
     $var wire 32 K regs(11) [31:0] $end
     $var wire 32 L regs(12) [31:0] $end
     $var wire 32 M regs(13) [31:0] $end
     $var wire 32 N regs(14) [31:0] $end
     $var wire 32 O regs(15) [31:0] $end
     $var wire 32 P regs(16) [31:0] $end
     $var wire 32 Q regs(17) [31:0] $end
     $var wire 32 R regs(18) [31:0] $end
     $var wire 32 S regs(19) [31:0] $end
     $var wire 32 B regs(2) [31:0] $end
     $var wire 32 T regs(20) [31:0] $end
     $var wire 32 U regs(21) [31:0] $end
     $var wire 32 V regs(22) [31:0] $end
     $var wire 32 W regs(23) [31:0] $end
     $var wire 32 X regs(24) [31:0] $end
     $var wire 32 Y regs(25) [31:0] $end
     $var wire 32 Z regs(26) [31:0] $end
     $var wire 32 [ regs(27) [31:0] $end
     $var wire 32 \ regs(28) [31:0] $end
     $var wire 32 ] regs(29) [31:0] $end
     $var wire 32 C regs(3) [31:0] $end
     $var wire 32 ^ regs(30) [31:0] $end
     $var wire 32 _ regs(31) [31:0] $end
     $var wire 32 D regs(4) [31:0] $end
     $var wire 32 E regs(5) [31:0] $end
     $var wire 32 F regs(6) [31:0] $end
     $var wire 32 G regs(7) [31:0] $end
     $var wire 32 H regs(8) [31:0] $end
     $var wire 32 I regs(9) [31:0] $end
     $var wire  1 | rst $end
     $var wire  5 5 waddr [4:0] $end
     $var wire 32 6 wdata [31:0] $end
     $var wire  1 4 we $end
    $upscope $end
   $upscope $end
  $upscope $end
 $upscope $end
$enddefinitions $end


#1
b00000000000000000000000000000000 #
b00000000000000000000000000000000 $
0%
b00000000000000000000000000000000 &
b00000000000000000000000000000000 '
b00000000 (
b000 )
b00000000000000000000000000000000 *
b00000000000000000000000000000000 +
0,
b00000 -
0.
b00000 /
b00000000000000000000000000000000 0
01
b00000000000000000000000000000000 2
b00000000000000000000000000000000 3
04
b00000 5
b00000000000000000000000000000000 6
07
b00000000000000000000000000000000 8
b00000000000000000000000000000000 9
b00000000000000000000000000000000 :
b00000000000000000000000000000000 ;
b000000 <
b00000 =
b000000 >
b00000 ?
b00000000000000000000000000000000 @
b00000000000000000000000000000000 A
b00000000000000000000000000000000 B
b00000000000000000000000000000000 C
b00000000000000000000000000000000 D
b00000000000000000000000000000000 E
b00000000000000000000000000000000 F
b00000000000000000000000000000000 G
b00000000000000000000000000000000 H
b00000000000000000000000000000000 I
b00000000000000000000000000000000 J
b00000000000000000000000000000000 K
b00000000000000000000000000000000 L
b00000000000000000000000000000000 M
b00000000000000000000000000000000 N
b00000000000000000000000000000000 O
b00000000000000000000000000000000 P
b00000000000000000000000000000000 Q
b00000000000000000000000000000000 R
b00000000000000000000000000000000 S
b00000000000000000000000000000000 T
b00000000000000000000000000000000 U
b00000000000000000000000000000000 V
b00000000000000000000000000000000 W
b00000000000000000000000000000000 X
b00000000000000000000000000000000 Y
b00000000000000000000000000000000 Z
b00000000000000000000000000000000 [
b00000000000000000000000000000000 \
b00000000000000000000000000000000 ]
b00000000000000000000000000000000 ^
b00000000000000000000000000000000 _
b00000000 `
b000 a
b00000000000000000000000000000000 b
b00000000000000000000000000000000 c
0d
b00000 e
b00000000000000000000000000000000 f
0g
b00000000000000000000000000000000 h
b00000000000000000000000000000000 i
0j
b00000 k
b00000000000000000000000000000000 l
0m
b00000000000000000000000000000000 n
b00000000000000000000000000000000 o
0p
0q
b00000 r
b00000 s
b00000000000000000000000000000000 t
0u
b00000000000000000000000000000000 v
b00000000000000000000000000000000 w
b00000000000000000000000000000000 x
b00000000000000000000000000000000 y
b00000000000000000000000000000000 z
0{
1|
b00000000000000000000000000000000 }
b00000000000000000000000000000000 ~
#2
#3
#4
#5
#6
#7
#8
#9
#10
1{
#11
#12
#13
#14
#15
0{
#16
#17
#18
#19
#20
1{
#21
#22
#23
#24
#25
0{
#26
#27
#28
#29
#30
1{
#31
#32
#33
#34
#35
0{
#36
#37
#38
#39
#40
1{
#41
#42
#43
#44
#45
0{
#46
#47
#48
#49
#50
1{
#51
#52
#53
#54
#55
0{
#56
#57
#58
#59
#60
1{
#61
#62
#63
#64
#65
0{
#66
#67
#68
#69
#70
1{
#71
#72
#73
#74
#75
0{
#76
#77
#78
#79
#80
1{
#81
#82
#83
#84
#85
0{
#86
#87
#88
#89
#90
1{
#91
#92
#93
#94
#95
0{
#96
#97
#98
#99
#100
1{
#101
#102
#103
#104
#105
0{
#106
#107
#108
#109
#110
1{
#111
#112
#113
#114
#115
0{
#116
#117
#118
#119
#120
1{
#121
#122
#123
#124
#125
0{
#126
#127
#128
#129
#130
1{
#131
#132
#133
#134
#135
0{
#136
#137
#138
#139
#140
1{
#141
#142
#143
#144
#145
0{
#146
#147
#148
#149
#150
1{
#151
#152
#153
#154
#155
0{
#156
#157
#158
#159
#160
1{
#161
#162
#163
#164
#165
0{
#166
#167
#168
#169
#170
1{
#171
#172
#173
#174
#175
0{
#176
#177
#178
#179
#180
1{
#181
#182
#183
#184
#185
0{
#186
#187
#188
#189
#190
1{
#191
#192
#193
#194
#195
0{
#196
b01111100 `
b010 a
1d
1q
0|
#197
#198
#199
#200
b00111100000000010000000000000000 $
1%
b01111100 (
b010 )
1,
1{
#201
#202
#203
#204
#205
0{
#206
#207
#208
#209
#210
b00000000000000000000000000000100 #
b00111100000000101111111111111111 $
b00111100000000010000000000000000 '
1.
b001111 <
b00001 ?
b00100101 `
b001 a
b00001 e
1j
1p
0q
b00001 s
1{
#211
#212
#213
#214
#215
0{
#216
#217
#218
#219
#220
b00000000000000000000000000001000 #
b00111100000000110000010100000101 $
b00000000000000000000000000000100 &
b00111100000000101111111111111111 '
b00100101 (
b001 )
b00001 -
14
b11111 =
b111111 >
b00010 ?
b11111111111111110000000000000000 c
b00010 e
b00010 s
b11111111111111110000000000000000 t
1{
#221
#222
#223
#224
#225
0{
#226
#227
#228
#229
#230
b00000000000000000000000000001100 #
b00111100000001000000000000000000 $
b00000000000000000000000000001000 &
b00111100000000110000010100000101 '
b11111111111111110000000000000000 +
b00010 -
b00001 /
b10100 =
b000101 >
b00011 ?
b00000101000001010000000000000000 c
b00011 e
b11111111111111110000000000000000 f
b00001 k
b00011 s
b00000101000001010000000000000000 t
b11111111111111110000000000000000 v
1{
#231
#232
#233
#234
#235
0{
#236
#237
#238
#239
#240
b00000000000000000000000000010000 #
b00000000010000010010000000001010 $
b00000000000000000000000000001100 &
b00111100000001000000000000000000 '
b00000101000001010000000000000000 +
b00011 -
b00010 /
b11111111111111110000000000000000 0
b00001 5
b00000 =
b000000 >
b00100 ?
b00000000000000000000000000000000 c
b00100 e
b00000101000001010000000000000000 f
b00010 k
b11111111111111110000000000000000 l
b00100 s
b00000000000000000000000000000000 t
b00000101000001010000000000000000 v
1{
#241
#242
#243
#244
#245
0{
#246
#247
#248
#249
#250
b00000000000000000000000000010100 #
b00000000011000010010000000001011 $
b00000000000000000000000000010000 &
b00000000010000010010000000001010 '
b00000000000000000000000000000000 +
b00100 -
b00011 /
b00000101000001010000000000000000 0
b00010 5
b11111111111111110000000000000000 6
b000000 <
b001010 >
b00001 ?
b00001010 `
b011 a
b11111111111111110000000000000000 b
b00000000000000000000000000000000 f
b00011 k
b00000101000001010000000000000000 l
1q
b00010 r
b00001 s
b00000000000000000000000000000000 v
1{
b11111111111111110000000000000000 }
#251
#252
#253
#254
#255
0{
#256
#257
#258
#259
#260
b00000000000000000000000000011000 #
b00000000011000100010000000001011 $
b00000000000000000000000000010100 &
b00000000011000010010000000001011 '
b00001010 (
b011 )
b11111111111111110000000000000000 *
b00100 /
b00000000000000000000000000000000 0
b00011 5
b00000101000001010000000000000000 6
b001011 >
b11111111111111110000000000000000 B
b00001011 `
b00000101000001010000000000000000 b
0d
b11111111111111110000000000000000 f
b00100 k
b00000000000000000000000000000000 l
b00011 r
b11111111111111110000000000000000 x
1{
b00000101000001010000000000000000 }
#261
#262
#263
#264
#265
0{
#266
#267
#268
#269
#270
b00000000000000000000000000011100 #
b00000000010000110010000000001010 $
b00000000000000000000000000011000 &
b00000000011000100010000000001011 '
b00001011 (
b00000101000001010000000000000000 *
0,
b11111111111111110000000000000000 0
b00100 5
b00000000000000000000000000000000 6
b00010 ?
b00000101000001010000000000000000 C
b11111111111111110000000000000000 c
b00000101000001010000000000000000 f
b11111111111111110000000000000000 l
b00010 s
b00000101000001010000000000000000 x
1{
b11111111111111110000000000000000 ~
#271
1d
#272
#273
#274
#275
0{
#276
#277
#278
#279
#280
b00000000000000000000000000100000 #
b00000000000000000000000000010001 $
b00000000000000000000000000011100 &
b00000000010000110010000000001010 '
b11111111111111110000000000000000 +
1,
0.
b00000101000001010000000000000000 0
b11111111111111110000000000000000 6
b001010 >
b00011 ?
b00001010 `
b11111111111111110000000000000000 b
b00000101000001010000000000000000 c
0d
0j
b00000101000001010000000000000000 l
b00010 r
b00011 s
1{
b11111111111111110000000000000000 }
b00000101000001010000000000000000 ~
#281
#282
#283
#284
#285
0{
#286
#287
#288
#289
#290
b00000000000000000000000000100100 #
b00000000010000000000000000010001 $
b00000000000000000000000000100000 &
b00000000000000000000000000010001 '
b00001010 (
b11111111111111110000000000000000 *
b00000101000001010000000000000000 +
0,
1.
04
b00000101000001010000000000000000 6
b010001 >
b00000 ?
b11111111111111110000000000000000 D
b00010001 `
b000 a
b00000000000000000000000000000000 b
b00000000000000000000000000000000 c
b00000 e
b11111111111111110000000000000000 f
1j
0q
b00000 r
b00000 s
b11111111111111110000000000000000 x
1{
b00000000000000000000000000000000 }
b00000000000000000000000000000000 ~
#291
#292
#293
#294
#295
0{
#296
#297
#298
#299
#300
b00000000000000000000000000101000 #
b00000000011000000000000000010001 $
b00000000000000000000000000100100 &
b00000000010000000000000000010001 '
b00010001 (
b000 )
b00000000000000000000000000000000 *
b00000000000000000000000000000000 +
b00000 -
0.
b11111111111111110000000000000000 0
14
b11111111111111110000000000000000 b
b00000000000000000000000000000000 f
1g
0j
b11111111111111110000000000000000 l
b00010 r
1{
b11111111111111110000000000000000 }
#301
#302
#303
#304
#305
0{
#306
#307
#308
#309
#310
b00000000000000000000000000101100 #
b00000000000000000010000000010000 $
b00000000000000000000000000101000 &
b00000000011000000000000000010001 '
b11111111111111110000000000000000 *
b00000 /
b00000000000000000000000000000000 0
11
04
b11111111111111110000000000000000 6
b00000101000001010000000000000000 D
b00000101000001010000000000000000 b
b11111111111111110000000000000000 h
b00000 k
b00000000000000000000000000000000 l
1m
b00011 r
1{
b00000101000001010000000000000000 }
#311
#312
#313
#314
#315
0{
#316
#317
#318
#319
#320
b00000000000000000000000000110000 #
b00000000011000000000000000010011 $
b00000000000000000000000000101100 &
b00000000000000000010000000010000 '
b00000101000001010000000000000000 *
b11111111111111110000000000000000 2
b00000 5
b00000000000000000000000000000000 6
17
b010000 >
b00010000 `
b011 a
b00000000000000000000000000000000 b
1d
b00100 e
b00000101000001010000000000000000 h
b11111111111111110000000000000000 n
0p
b00000 r
b11111111111111110000000000000000 y
1{
b00000000000000000000000000000000 }
#321
#322
#323
#324
#325
0{
#326
#327
#328
#329
#330
b00000000000000000000000000110100 #
b00000000010000000000000000010011 $
b00000000000000000000000000110000 &
b00000000011000000000000000010011 '
b00010000 (
b011 )
b00000000000000000000000000000000 *
1,
b00100 -
b00000101000001010000000000000000 2
b11111111111111110000000000000000 8
b010011 >
b00010011 `
b000 a
b00000101000001010000000000000000 b
0d
b00000 e
b00000101000001010000000000000000 f
0g
b00000000000000000000000000000000 h
b00000101000001010000000000000000 n
1p
b00011 r
b00000101000001010000000000000000 x
b00000101000001010000000000000000 y
1{
b00000101000001010000000000000000 }
#331
#332
#333
#334
#335
0{
#336
#337
#338
#339
#340
b00000000000000000000000000111000 #
b00000000001000000000000000010011 $
b00000000000000000000000000110100 &
b00000000010000000000000000010011 '
b00010011 (
b000 )
b00000101000001010000000000000000 *
0,
b00000 -
1.
b00100 /
b00000101000001010000000000000000 0
01
b00000000000000000000000000000000 2
b00000101000001010000000000000000 8
b11111111111111110000000000000000 :
b11111111111111110000000000000000 b
b00000000000000000000000000000000 f
1g
b00000101000001010000000000000000 h
b00000101000001010000000000000000 i
1j
b00100 k
b00000101000001010000000000000000 l
0m
b00000000000000000000000000000000 n
b00010 r
1{
b11111111111111110000000000000000 }
#341
#342
#343
#344
#345
0{
#346
#347
#348
#349
#350
b00000000000000000000000000111100 #
b00000000000000000010000000010010 $
b00000000000000000000000000111000 &
b00000000001000000000000000010011 '
b11111111111111110000000000000000 *
0.
b00000 /
b00000000000000000000000000000000 0
11
b00000101000001010000000000000000 2
b00000101000001010000000000000000 3
14
b00100 5
b00000101000001010000000000000000 6
07
b00000000000000000000000000000000 8
b00000101000001010000000000000000 :
b00000000000000000000000000000000 b
b11111111111111110000000000000000 i
0j
b00000 k
b00000000000000000000000000000000 l
1m
b00000101000001010000000000000000 n
b00000101000001010000000000000000 o
b00001 r
b00000101000001010000000000000000 z
1{
b00000000000000000000000000000000 }
#351
#352
#353
#354
#355
0{
#356
#357
#358
#359
#360
b00000000000000000000000001000000 #
b00000000000000000000000000011110 $
b00000000000000000000000000111100 &
b00000000000000000010000000010010 '
b00000000000000000000000000000000 *
b11111111111111110000000000000000 3
04
b00000 5
b00000000000000000000000000000000 6
17
b00000101000001010000000000000000 8
b00000101000001010000000000000000 9
b010010 >
b00010010 `
b011 a
1d
b00100 e
b00000000000000000000000000000000 i
b11111111111111110000000000000000 o
0p
b00000 r
b11111111111111110000000000000000 z
1{
#361
#362
#363
#364
#365
0{
#366
#367
#368
#369
#370
b00000000000000000000000001000100 #
b00000000000000000000000000000000 $
b00000000000000000000000001000000 &
b00000000000000000000000000011110 '
b00010010 (
b011 )
1,
b00100 -
b00000000000000000000000000000000 3
b11111111111111110000000000000000 9
b00000101000001010000000000000000 ;
b011110 >
b00000000 `
b000 a
0d
b00000 e
0g
b00000000000000000000000000000000 h
b00000000000000000000000000000000 o
1u
b00000000000000000000000000000000 x
b00000000000000000000000000000000 z
1{
#371
#372
#373
#374
#375
0{
#376
#377
#378
#379
#380
b00000000000000000000000001001000 #
b00000000000000000000000001000100 &
b00000000000000000000000000000000 '
b00000000 (
b000 )
0,
b00000 -
1.
b00100 /
01
b00000000000000000000000000000000 2
b00000000000000000000000000000000 9
b11111111111111110000000000000000 ;
b000000 >
b01111100 `
b010 a
1d
1j
b00100 k
0m
b00000000000000000000000000000000 n
1q
0u
1{
#381
#382
#383
#384
#385
0{
#386
#387
#388
#389
#390
b00000000000000000000000001001100 #
b00000000000000000000000001001000 &
b01111100 (
b010 )
1,
0.
b00000 /
14
b00100 5
07
b00000000000000000000000000000000 8
b00000000000000000000000000000000 ;
0j
b00000 k
1{
#391
#392
#393
#394
#395
0{
#396
#397
#398
#399
#400
b00000000000000000000000001010000 #
b00000000000000000000000001001100 &
1.
04
b00000 5
b00000000000000000000000000000000 D
1j
1{
#401
#402
#403
#404
#405
0{
#406
#407
#408
#409
#410
b00000000000000000000000001010100 #
b00000000000000000000000001010000 &
14
1{
#411
#412
#413
#414
#415
0{
#416
#417
#418
#419
#420
b00000000000000000000000001011000 #
b00000000000000000010000000000001 $
b00000000000000000000000001010100 &
1{
#421
#422
#423
#424
#425
0{
#426
#427
#428
#429
#430
b00000000000000000000000001011100 #
b00000001000000010000000000000001 $
b00000000000000000000000001011000 &
b00000000000000000010000000000001 '
b000001 >
b00000000 `
b000 a
0d
b00100 e
0q
1u
1{
#431
#432
#433
#434
#435
0{
#436
#437
#438
#439
#440
b00000000000000000000000001100000 #
b00000000000000000000000000000000 $
b00000000000000000000000001011100 &
b00000001000000010000000000000001 '
b00000000 (
b000 )
0,
b00100 -
b00001 ?
b00000 e
b01000 r
b00001 s
1{
#441
#442
#443
#444
#445
0{
#446
#447
#448
#449
#450
b00000000000000000000000001100100 #
b00000000000000000000000001100000 &
b00000000000000000000000000000000 '
b00000 -
0.
b00100 /
b000000 >
b00000 ?
b01111100 `
b010 a
1d
0j
b00100 k
1q
b00000 r
b00000 s
0u
1{
#451
#452
#453
#454
#455
0{
#456
#457
#458
#459
#460
b00000000000000000000000001101000 #
b00000000000000000000000000000001 $
b00000000000000000000000001100100 &
b01111100 (
b010 )
1,
b00000 /
04
b00100 5
b00000 k
1{
#461
#462
#463
#464
#465
0{
#466
#467
#468
#469
#470
b00000000000000000000000001101100 #
b00000000000000000000000000000000 $
b00000000000000000000000001101000 &
b00000000000000000000000000000001 '
1.
b00000 5
b000001 >
b00000000 `
b000 a
0d
1j
0q
1u
1{
#471
#472
#473
#474
#475
0{
#476
#477
#478
#479
#480
b00000000000000000000000001110000 #
b00000000000000000000000001101100 &
b00000000000000000000000000000000 '
b00000000 (
b000 )
0,
14
b000000 >
b01111100 `
b010 a
1d
1q
0u
1{
#481
#482
#483
#484
#485
0{
#486
#487
#488
#489
#490
b00000000000000000000000001110100 #
b00000000000000000000000001110000 &
b01111100 (
b010 )
1,
0.
0j
1{
#491
#492
#493
#494
#495
0{
#496
#497
#498
#499
#500
b00000000000000000000000001111000 #
b00000000000000000000000001110100 &
1.
04
1j
1{
#501
#502
#503
#504
#505
0{
#506
#507
#508
#509
#510
b00000000000000000000000001111100 #
b00000000000000000000000001111000 &
14
1{
#511
#512
#513
#514
#515
0{
#516
#517
#518
#519
#520
b00000000000000000000000010000000 #
b00000000000000000000000001111100 &
1{
#521
#522
#523
#524
#525
0{
#526
#527
#528
#529
#530
b00000000000000000000000010000100 #
b00000000000000000000000010000000 &
1{
#531
#532
#533
#534
#535
0{
#536
#537
#538
#539
#540
b00000000000000000000000010001000 #
b00000000000000000000000010000100 &
1{
#541
#542
#543
#544
#545
0{
#546
#547
#548
#549
#550
b00000000000000000000000010001100 #
b00000000000000000000000010001000 &
1{
#551
#552
#553
#554
#555
0{
#556
#557
#558
#559
#560
b00000000000000000000000010010000 #
b00000000000000000000000010001100 &
1{
#561
#562
#563
#564
#565
0{
#566
#567
#568
#569
#570
b00000000000000000000000010010100 #
b00000000000000000000000010010000 &
1{
#571
#572
#573
#574
#575
0{
#576
#577
#578
#579
#580
b00000000000000000000000010011000 #
b00000000000000000000000010010100 &
1{
#581
#582
#583
#584
#585
0{
#586
#587
#588
#589
#590
b00000000000000000000000010011100 #
b00000000000000000000000010011000 &
1{
#591
#592
#593
#594
#595
0{
#596
#597
#598
#599
#600
b00000000000000000000000010100000 #
b00000000000000000000000010011100 &
1{
#601
#602
#603
#604
#605
0{
#606
#607
#608
#609
#610
b00000000000000000000000010100100 #
b00000000000000000000000010100000 &
1{
#611
#612
#613
#614
#615
0{
#616
#617
#618
#619
#620
b00000000000000000000000010101000 #
b00000000000000000000000010100100 &
1{
#621
#622
#623
#624
#625
0{
#626
#627
#628
#629
#630
b00000000000000000000000010101100 #
b00000000000000000000000010101000 &
1{
#631
#632
#633
#634
#635
0{
#636
#637
#638
#639
#640
b00000000000000000000000010110000 #
b00000000000000000000000010101100 &
1{
#641
#642
#643
#644
#645
0{
#646
#647
#648
#649
#650
b00000000000000000000000010110100 #
b00000000000000000000000010110000 &
1{
#651
#652
#653
#654
#655
0{
#656
#657
#658
#659
#660
b00000000000000000000000010111000 #
b00000000000000000000000010110100 &
1{
#661
#662
#663
#664
#665
0{
#666
#667
#668
#669
#670
b00000000000000000000000010111100 #
b00000000000000000000000010111000 &
1{
#671
#672
#673
#674
#675
0{
#676
#677
#678
#679
#680
b00000000000000000000000011000000 #
b00000000000000000000000010111100 &
1{
#681
#682
#683
#684
#685
0{
#686
#687
#688
#689
#690
b00000000000000000000000011000100 #
b00000000000000000000000011000000 &
1{
#691
#692
#693
#694
#695
0{
#696
#697
#698
#699
#700
b00000000000000000000000011001000 #
b00000000000000000000000011000100 &
1{
#701
#702
#703
#704
#705
0{
#706
#707
#708
#709
#710
b00000000000000000000000011001100 #
b00000000000000000000000011001000 &
1{
#711
#712
#713
#714
#715
0{
#716
#717
#718
#719
#720
b00000000000000000000000011010000 #
b00000000000000000000000011001100 &
1{
#721
#722
#723
#724
#725
0{
#726
#727
#728
#729
#730
b00000000000000000000000011010100 #
b00000000000000000000000011010000 &
1{
#731
#732
#733
#734
#735
0{
#736
#737
#738
#739
#740
b00000000000000000000000011011000 #
b00000000000000000000000011010100 &
1{
#741
#742
#743
#744
#745
0{
#746
#747
#748
#749
#750
b00000000000000000000000011011100 #
b00000000000000000000000011011000 &
1{
#751
#752
#753
#754
#755
0{
#756
#757
#758
#759
#760
b00000000000000000000000011100000 #
b00000000000000000000000011011100 &
1{
#761
#762
#763
#764
#765
0{
#766
#767
#768
#769
#770
b00000000000000000000000011100100 #
b00000000000000000000000011100000 &
1{
#771
#772
#773
#774
#775
0{
#776
#777
#778
#779
#780
b00000000000000000000000011101000 #
b00000000000000000000000011100100 &
1{
#781
#782
#783
#784
#785
0{
#786
#787
#788
#789
#790
b00000000000000000000000011101100 #
b00000000000000000000000011101000 &
1{
#791
#792
#793
#794
#795
0{
#796
#797
#798
#799
#800
b00000000000000000000000011110000 #
b00000000000000000000000011101100 &
1{
#801
#802
#803
#804
#805
0{
#806
#807
#808
#809
