wave.vcd
$version Generated by VerilatedVcd $end
$date Wed May 11 14:23:10 2022 $end
$timescale 1ps $end

 $scope module TOP $end
  $var wire  1 >! clk $end
  $var wire  1 ?! rst $end
  $scope module top $end
   $var wire  1 >! clk $end
   $var wire 32 $ inst [31:0] $end
   $var wire 32 # inst_addr [31:0] $end
   $var wire  1 % rom_ce $end
   $var wire  1 ?! rst $end
   $scope module inst_rom0 $end
    $var wire 32 # addr [31:0] $end
    $var wire  1 % ce $end
    $var wire 32 $ inst [31:0] $end
   $upscope $end
   $scope module openmips0 $end
    $var wire 32 0! branch_target_address [31:0] $end
    $var wire  1 >! clk $end
    $var wire  2 ? cnt_i [1:0] $end
    $var wire  2 -! cnt_o [1:0] $end
    $var wire  8 ( ex_aluop_i [7:0] $end
    $var wire  3 ) ex_alusel_i [2:0] $end
    $var wire 32 } ex_hi_o [31:0] $end
    $var wire  1 / ex_is_in_delayslot_i $end
    $var wire 32 0 ex_link_address_i [31:0] $end
    $var wire 32 ~ ex_lo_o [31:0] $end
    $var wire 32 * ex_reg1_i [31:0] $end
    $var wire 32 + ex_reg2_i [31:0] $end
    $var wire  5 - ex_wd_i [4:0] $end
    $var wire  5 - ex_wd_o [4:0] $end
    $var wire 32 { ex_wdata_o [31:0] $end
    $var wire  1 | ex_whilo_o $end
    $var wire  1 , ex_wreg_i $end
    $var wire  1 . ex_wreg_o $end
    $var wire 32 = hi [31:0] $end
    $var wire 64 @ hilo_temp_i [63:0] $end
    $var wire 64 .! hilo_temp_o [63:0] $end
    $var wire  8 s id_aluop_o [7:0] $end
    $var wire  3 t id_alusel_o [2:0] $end
    $var wire  1 1! id_branch_flag_o $end
    $var wire 32 ' id_inst_i [31:0] $end
    $var wire  1 @! id_is_in_delayslot_o $end
    $var wire 32 y id_link_addr_o [31:0] $end
    $var wire  1 z id_next_inst_in_delayslot_o $end
    $var wire 32 & id_pc_i [31:0] $end
    $var wire 32 u id_reg1_o [31:0] $end
    $var wire 32 v id_reg2_o [31:0] $end
    $var wire  5 x id_wd_o [4:0] $end
    $var wire  1 w id_wreg_o $end
    $var wire  1 B is_in_delayslot_i $end
    $var wire  1 D! is_in_delayslot_o $end
    $var wire 32 > lo [31:0] $end
    $var wire 32 5 mem_hi_i [31:0] $end
    $var wire 32 %! mem_hi_o [31:0] $end
    $var wire 32 6 mem_lo_i [31:0] $end
    $var wire 32 &! mem_lo_o [31:0] $end
    $var wire  5 2 mem_wd_i [4:0] $end
    $var wire  5 "! mem_wd_o [4:0] $end
    $var wire 32 3 mem_wdata_i [31:0] $end
    $var wire 32 #! mem_wdata_o [31:0] $end
    $var wire  1 4 mem_whilo_i $end
    $var wire  1 $! mem_whilo_o $end
    $var wire  1 1 mem_wreg_i $end
    $var wire  1 !! mem_wreg_o $end
    $var wire 32 # pc [31:0] $end
    $var wire  5 )! reg1_addr [4:0] $end
    $var wire 32 A! reg1_data [31:0] $end
    $var wire  1 '! reg1_read $end
    $var wire  5 *! reg2_addr [4:0] $end
    $var wire 32 B! reg2_data [31:0] $end
    $var wire  1 (! reg2_read $end
    $var wire 32 # rom_addr_o [31:0] $end
    $var wire  1 % rom_ce_o $end
    $var wire 32 $ rom_data_i [31:0] $end
    $var wire  1 ?! rst $end
    $var wire  6 +! stall [5:0] $end
    $var wire  1 ,! stallreq_from_ex $end
    $var wire  1 C! stallreq_from_id $end
    $var wire 32 ; wb_hi_i [31:0] $end
    $var wire 32 < wb_lo_i [31:0] $end
    $var wire  5 8 wb_wd_i [4:0] $end
    $var wire 32 9 wb_wdata_i [31:0] $end
    $var wire  1 : wb_whilo_i $end
    $var wire  1 7 wb_wreg_i $end
    $scope module ctrl0 $end
     $var wire  1 ?! rst $end
     $var wire  6 +! stall [5:0] $end
     $var wire  1 ,! stallreq_from_ex $end
     $var wire  1 C! stallreq_from_id $end
    $upscope $end
    $scope module ex0 $end
     $var wire 32 7! HI [31:0] $end
     $var wire 32 8! LO [31:0] $end
     $var wire  8 ( aluop_i [7:0] $end
     $var wire  3 ) alusel_i [2:0] $end
     $var wire 32 9! arithmeticres [31:0] $end
     $var wire  2 ? cnt_i [1:0] $end
     $var wire  2 -! cnt_o [1:0] $end
     $var wire 32 = hi_i [31:0] $end
     $var wire 32 } hi_o [31:0] $end
     $var wire 64 q hilo_temp [63:0] $end
     $var wire 64 :! hilo_temp1 [63:0] $end
     $var wire 64 @ hilo_temp_i [63:0] $end
     $var wire 64 .! hilo_temp_o [63:0] $end
     $var wire  1 / is_in_delayslot_i $end
     $var wire 32 0 link_address_i [31:0] $end
     $var wire 32 > lo_i [31:0] $end
     $var wire 32 ~ lo_o [31:0] $end
     $var wire 32 4! logicout [31:0] $end
     $var wire 32 %! mem_hi_i [31:0] $end
     $var wire 32 &! mem_lo_i [31:0] $end
     $var wire  1 4 mem_whilo_i $end
     $var wire 32 6! movres [31:0] $end
     $var wire 64 <! mulres [63:0] $end
     $var wire 32 o opdata1_mult [31:0] $end
     $var wire 32 p opdata2_mult [31:0] $end
     $var wire  1 j ov_sum $end
     $var wire  1 E! reg1_eq_reg2 $end
     $var wire 32 * reg1_i [31:0] $end
     $var wire 32 m reg1_i_not [31:0] $end
     $var wire  1 k reg1_lt_reg2 $end
     $var wire 32 + reg2_i [31:0] $end
     $var wire 32 l reg2_i_mux [31:0] $end
     $var wire 32 n result_sum [31:0] $end
     $var wire  1 ?! rst $end
     $var wire 32 5! shiftres [31:0] $end
     $var wire  1 ,! stallreq $end
     $var wire  1 ,! stallreq_for_madd_msub $end
     $var wire 32 ; wb_hi_i [31:0] $end
     $var wire 32 < wb_lo_i [31:0] $end
     $var wire  1 : wb_whilo_i $end
     $var wire  5 - wd_i [4:0] $end
     $var wire  5 - wd_o [4:0] $end
     $var wire 32 { wdata_o [31:0] $end
     $var wire  1 | whilo_o $end
     $var wire  1 , wreg_i $end
     $var wire  1 . wreg_o $end
    $upscope $end
    $scope module ex_mem0 $end
     $var wire  1 >! clk $end
     $var wire  2 -! cnt_i [1:0] $end
     $var wire  2 ? cnt_o [1:0] $end
     $var wire 32 } ex_hi [31:0] $end
     $var wire 32 ~ ex_lo [31:0] $end
     $var wire  5 - ex_wd [4:0] $end
     $var wire 32 { ex_wdata [31:0] $end
     $var wire  1 | ex_whilo $end
     $var wire  1 . ex_wreg $end
     $var wire 64 .! hilo_i [63:0] $end
     $var wire 64 @ hilo_o [63:0] $end
     $var wire 32 5 mem_hi [31:0] $end
     $var wire 32 6 mem_lo [31:0] $end
     $var wire  5 2 mem_wd [4:0] $end
     $var wire 32 3 mem_wdata [31:0] $end
     $var wire  1 4 mem_whilo $end
     $var wire  1 1 mem_wreg $end
     $var wire  1 ?! rst $end
     $var wire  6 +! stall [5:0] $end
    $upscope $end
    $scope module hilo_reg0 $end
     $var wire  1 >! clk $end
     $var wire 32 ; hi_i [31:0] $end
     $var wire 32 = hi_o [31:0] $end
     $var wire 32 < lo_i [31:0] $end
     $var wire 32 > lo_o [31:0] $end
     $var wire  1 ?! rst $end
     $var wire  1 : we $end
    $upscope $end
    $scope module id0 $end
     $var wire  8 s aluop_o [7:0] $end
     $var wire  3 t alusel_o [2:0] $end
     $var wire  1 1! branch_flag_o $end
     $var wire 32 0! branch_target_address_o [31:0] $end
     $var wire  5 - ex_wd_i [4:0] $end
     $var wire 32 { ex_wdata_i [31:0] $end
     $var wire  1 . ex_wreg_i $end
     $var wire 32 2! imm [31:0] $end
     $var wire 32 I imm_sll2_signedext [31:0] $end
     $var wire 32 ' inst_i [31:0] $end
     $var wire  1 3! instvalid $end
     $var wire  1 D! is_in_delayslot_i $end
     $var wire  1 @! is_in_delayslot_o $end
     $var wire 32 y link_addr_o [31:0] $end
     $var wire  5 "! mem_wd_i [4:0] $end
     $var wire 32 #! mem_wdata_i [31:0] $end
     $var wire  1 !! mem_wreg_i $end
     $var wire  1 z next_inst_in_delayslot_o $end
     $var wire  6 C op [5:0] $end
     $var wire  5 D op2 [4:0] $end
     $var wire  6 E op3 [5:0] $end
     $var wire  5 F op4 [4:0] $end
     $var wire 32 & pc_i [31:0] $end
     $var wire 32 G pc_plus_4 [31:0] $end
     $var wire 32 H pc_plus_8 [31:0] $end
     $var wire  5 )! reg1_addr_o [4:0] $end
     $var wire 32 A! reg1_data_i [31:0] $end
     $var wire 32 u reg1_o [31:0] $end
     $var wire  1 '! reg1_read_o $end
     $var wire  5 *! reg2_addr_o [4:0] $end
     $var wire 32 B! reg2_data_i [31:0] $end
     $var wire 32 v reg2_o [31:0] $end
     $var wire  1 (! reg2_read_o $end
     $var wire  1 ?! rst $end
     $var wire  1 C! stallreq $end
     $var wire  5 x wd_o [4:0] $end
     $var wire  1 w wreg_o $end
    $upscope $end
    $scope module id_ex0 $end
     $var wire  1 >! clk $end
     $var wire  8 ( ex_aluop [7:0] $end
     $var wire  3 ) ex_alusel [2:0] $end
     $var wire  1 / ex_is_in_delayslot $end
     $var wire 32 0 ex_link_address [31:0] $end
     $var wire 32 * ex_reg1 [31:0] $end
     $var wire 32 + ex_reg2 [31:0] $end
     $var wire  5 - ex_wd [4:0] $end
     $var wire  1 , ex_wreg $end
     $var wire  8 s id_aluop [7:0] $end
     $var wire  3 t id_alusel [2:0] $end
     $var wire  1 @! id_is_in_delayslot $end
     $var wire 32 y id_link_address [31:0] $end
     $var wire 32 u id_reg1 [31:0] $end
     $var wire 32 v id_reg2 [31:0] $end
     $var wire  5 x id_wd [4:0] $end
     $var wire  1 w id_wreg $end
     $var wire  1 B is_in_delayslot_o $end
     $var wire  1 z next_inst_in_delayslot_i $end
     $var wire  1 ?! rst $end
     $var wire  6 +! stall [5:0] $end
    $upscope $end
    $scope module if_id0 $end
     $var wire  1 >! clk $end
     $var wire 32 ' id_inst [31:0] $end
     $var wire 32 & id_pc [31:0] $end
     $var wire 32 $ if_inst [31:0] $end
     $var wire 32 # if_pc [31:0] $end
     $var wire  1 ?! rst $end
     $var wire  6 +! stall [5:0] $end
    $upscope $end
    $scope module mem0 $end
     $var wire 32 5 hi_i [31:0] $end
     $var wire 32 %! hi_o [31:0] $end
     $var wire 32 6 lo_i [31:0] $end
     $var wire 32 &! lo_o [31:0] $end
     $var wire  1 ?! rst $end
     $var wire  5 2 wd_i [4:0] $end
     $var wire  5 "! wd_o [4:0] $end
     $var wire 32 3 wdata_i [31:0] $end
     $var wire 32 #! wdata_o [31:0] $end
     $var wire  1 4 whilo_i $end
     $var wire  1 $! whilo_o $end
     $var wire  1 1 wreg_i $end
     $var wire  1 !! wreg_o $end
    $upscope $end
    $scope module mem_wb0 $end
     $var wire  1 >! clk $end
     $var wire 32 %! mem_hi [31:0] $end
     $var wire 32 &! mem_lo [31:0] $end
     $var wire  5 "! mem_wd [4:0] $end
     $var wire 32 #! mem_wdata [31:0] $end
     $var wire  1 $! mem_whilo $end
     $var wire  1 !! mem_wreg $end
     $var wire  1 ?! rst $end
     $var wire  6 +! stall [5:0] $end
     $var wire 32 ; wb_hi [31:0] $end
     $var wire 32 < wb_lo [31:0] $end
     $var wire  5 8 wb_wd [4:0] $end
     $var wire 32 9 wb_wdata [31:0] $end
     $var wire  1 : wb_whilo $end
     $var wire  1 7 wb_wreg $end
    $upscope $end
    $scope module pc_reg0 $end
     $var wire  1 1! branch_flag_i $end
     $var wire 32 0! branch_target_address_i [31:0] $end
     $var wire  1 % ce $end
     $var wire  1 >! clk $end
     $var wire 32 # pc [31:0] $end
     $var wire  1 ?! rst $end
     $var wire  6 +! stall [5:0] $end
    $upscope $end
    $scope module regfile1 $end
     $var wire  1 >! clk $end
     $var wire  5 )! raddr1 [4:0] $end
     $var wire  5 *! raddr2 [4:0] $end
     $var wire 32 A! rdata1 [31:0] $end
     $var wire 32 B! rdata2 [31:0] $end
     $var wire  1 '! re1 $end
     $var wire  1 (! re2 $end
     $var wire 32 J regs(0) [31:0] $end
     $var wire 32 K regs(1) [31:0] $end
     $var wire 32 T regs(10) [31:0] $end
     $var wire 32 U regs(11) [31:0] $end
     $var wire 32 V regs(12) [31:0] $end
     $var wire 32 W regs(13) [31:0] $end
     $var wire 32 X regs(14) [31:0] $end
     $var wire 32 Y regs(15) [31:0] $end
     $var wire 32 Z regs(16) [31:0] $end
     $var wire 32 [ regs(17) [31:0] $end
     $var wire 32 \ regs(18) [31:0] $end
     $var wire 32 ] regs(19) [31:0] $end
     $var wire 32 L regs(2) [31:0] $end
     $var wire 32 ^ regs(20) [31:0] $end
     $var wire 32 _ regs(21) [31:0] $end
     $var wire 32 ` regs(22) [31:0] $end
     $var wire 32 a regs(23) [31:0] $end
     $var wire 32 b regs(24) [31:0] $end
     $var wire 32 c regs(25) [31:0] $end
     $var wire 32 d regs(26) [31:0] $end
     $var wire 32 e regs(27) [31:0] $end
     $var wire 32 f regs(28) [31:0] $end
     $var wire 32 g regs(29) [31:0] $end
     $var wire 32 M regs(3) [31:0] $end
     $var wire 32 h regs(30) [31:0] $end
     $var wire 32 i regs(31) [31:0] $end
     $var wire 32 N regs(4) [31:0] $end
     $var wire 32 O regs(5) [31:0] $end
     $var wire 32 P regs(6) [31:0] $end
     $var wire 32 Q regs(7) [31:0] $end
     $var wire 32 R regs(8) [31:0] $end
     $var wire 32 S regs(9) [31:0] $end
     $var wire  1 ?! rst $end
     $var wire  5 8 waddr [4:0] $end
     $var wire 32 9 wdata [31:0] $end
     $var wire  1 7 we $end
    $upscope $end
   $upscope $end
  $upscope $end
 $upscope $end
$enddefinitions $end


#1
b00000000000000000000000000000000 #
b00000000000000000000000000000000 $
0%
b00000000000000000000000000000000 &
b00000000000000000000000000000000 '
b00000000 (
b000 )
b00000000000000000000000000000000 *
b00000000000000000000000000000000 +
0,
b00000 -
0.
0/
b00000000000000000000000000000000 0
01
b00000 2
b00000000000000000000000000000000 3
04
b00000000000000000000000000000000 5
b00000000000000000000000000000000 6
07
b00000 8
b00000000000000000000000000000000 9
0:
b00000000000000000000000000000000 ;
b00000000000000000000000000000000 <
b00000000000000000000000000000000 =
b00000000000000000000000000000000 >
b00 ?
b0000000000000000000000000000000000000000000000000000000000000000 @
0B
b000000 C
b00000 D
b000000 E
b00000 F
b00000000000000000000000000000100 G
b00000000000000000000000000001000 H
b00000000000000000000000000000000 I
b00000000000000000000000000000000 J
b00000000000000000000000000000000 K
b00000000000000000000000000000000 L
b00000000000000000000000000000000 M
b00000000000000000000000000000000 N
b00000000000000000000000000000000 O
b00000000000000000000000000000000 P
b00000000000000000000000000000000 Q
b00000000000000000000000000000000 R
b00000000000000000000000000000000 S
b00000000000000000000000000000000 T
b00000000000000000000000000000000 U
b00000000000000000000000000000000 V
b00000000000000000000000000000000 W
b00000000000000000000000000000000 X
b00000000000000000000000000000000 Y
b00000000000000000000000000000000 Z
b00000000000000000000000000000000 [
b00000000000000000000000000000000 \
b00000000000000000000000000000000 ]
b00000000000000000000000000000000 ^
b00000000000000000000000000000000 _
b00000000000000000000000000000000 `
b00000000000000000000000000000000 a
b00000000000000000000000000000000 b
b00000000000000000000000000000000 c
b00000000000000000000000000000000 d
b00000000000000000000000000000000 e
b00000000000000000000000000000000 f
b00000000000000000000000000000000 g
b00000000000000000000000000000000 h
b00000000000000000000000000000000 i
0j
0k
b00000000000000000000000000000000 l
b11111111111111111111111111111111 m
b00000000000000000000000000000000 n
b00000000000000000000000000000000 o
b00000000000000000000000000000000 p
b0000000000000000000000000000000000000000000000000000000000000000 q
b00000000 s
b000 t
b00000000000000000000000000000000 u
b00000000000000000000000000000000 v
0w
b00000 x
b00000000000000000000000000000000 y
0z
b00000000000000000000000000000000 {
0|
b00000000000000000000000000000000 }
b00000000000000000000000000000000 ~
0!!
b00000 "!
b00000000000000000000000000000000 #!
0$!
b00000000000000000000000000000000 %!
b00000000000000000000000000000000 &!
0'!
0(!
b00000 )!
b00000 *!
b000000 +!
0,!
b00 -!
b0000000000000000000000000000000000000000000000000000000000000000 .!
b00000000000000000000000000000000 0!
01!
b00000000000000000000000000000000 2!
03!
b00000000000000000000000000000000 4!
b00000000000000000000000000000000 5!
b00000000000000000000000000000000 6!
b00000000000000000000000000000000 7!
b00000000000000000000000000000000 8!
b00000000000000000000000000000000 9!
b0000000000000000000000000000000000000000000000000000000000000000 :!
b0000000000000000000000000000000000000000000000000000000000000000 <!
0>!
1?!
0@!
b00000000000000000000000000000000 A!
b00000000000000000000000000000000 B!
0C!
0D!
0E!
#2
#3
#4
#5
#6
#7
#8
#9
#10
1>!
#11
#12
#13
#14
#15
0>!
#16
#17
#18
#19
#20
1>!
#21
#22
#23
#24
#25
0>!
#26
#27
#28
#29
#30
1>!
#31
#32
#33
#34
#35
0>!
#36
#37
#38
#39
#40
1>!
#41
#42
#43
#44
#45
0>!
#46
#47
#48
#49
#50
1>!
#51
#52
#53
#54
#55
0>!
#56
#57
#58
#59
#60
1>!
#61
#62
#63
#64
#65
0>!
#66
#67
#68
#69
#70
1>!
#71
#72
#73
#74
#75
0>!
#76
#77
#78
#79
#80
1>!
#81
#82
#83
#84
#85
0>!
#86
#87
#88
#89
#90
1>!
#91
#92
#93
#94
#95
0>!
#96
#97
#98
#99
#100
1>!
#101
#102
#103
#104
#105
0>!
#106
#107
#108
#109
#110
1>!
#111
#112
#113
#114
#115
0>!
#116
#117
#118
#119
#120
1>!
#121
#122
#123
#124
#125
0>!
#126
#127
#128
#129
#130
1>!
#131
#132
#133
#134
#135
0>!
#136
#137
#138
#139
#140
1>!
#141
#142
#143
#144
#145
0>!
#146
#147
#148
#149
#150
1>!
#151
#152
#153
#154
#155
0>!
#156
#157
#158
#159
#160
1>!
#161
#162
#163
#164
#165
0>!
#166
#167
#168
#169
#170
1>!
#171
#172
#173
#174
#175
0>!
#176
#177
#178
#179
#180
1>!
#181
#182
#183
#184
#185
0>!
#186
#187
#188
#189
#190
1>!
#191
#192
#193
#194
#195
0>!
#196
b01111100 s
b010 t
1w
1(!
0?!
#197
#198
#199
#200
b00110100000000010000000000000001 $
1%
b01111100 (
b010 )
1,
1.
1>!
#201
#202
#203
#204
#205
0>!
#206
#207
#208
#209
#210
b00000000000000000000000000000100 #
b00001000000000000000000000001000 $
b00110100000000010000000000000001 '
11
b001101 C
b000001 E
b00001 F
b00000000000000000000000000000100 I
b00100101 s
b001 t
b00000000000000000000000000000001 v
b00001 x
1!!
1'!
0(!
b00001 *!
b00000000000000000000000000000001 2!
1>!
#211
#212
#213
#214
#215
0>!
#216
#217
#218
#219
#220
b00000000000000000000000000001000 #
b00110100000000010000000000000010 $
b00000000000000000000000000000100 &
b00001000000000000000000000001000 '
b00100101 (
b001 )
b00000000000000000000000000000001 +
b00001 -
17
b000010 C
b001000 E
b00000 F
b00000000000000000000000000001000 G
b00000000000000000000000000001100 H
b00000000000000000000000000100000 I
1k
b00000000000000000000000000000001 l
b00000000000000000000000000000001 n
b00000000000000000000000000000001 p
b01001111 s
b110 t
b00000000000000000000000000000000 v
0w
b00000 x
1z
b00000000000000000000000000000001 {
0'!
b00000 *!
b00000000000000000000000000100000 0!
11!
b00000000000000000000000000000000 2!
b00000000000000000000000000000001 4!
1>!
#221
#222
#223
#224
#225
0>!
#226
#227
#228
#229
#230
b00000000000000000000000000100000 #
b00110100000000010000000000000011 $
b00000000000000000000000000001000 &
b00110100000000010000000000000010 '
b01001111 (
b110 )
b00000000000000000000000000000000 +
0,
b00000 -
0.
b00001 2
b00000000000000000000000000000001 3
1B
b001101 C
b000010 E
b00001 F
b00000000000000000000000000001100 G
b00000000000000000000000000010000 H
b00000000000000000000000000001000 I
0k
b00000000000000000000000000000000 l
b00000000000000000000000000000000 n
b00000000000000000000000000000000 p
b00100101 s
b001 t
b00000000000000000000000000000010 v
1w
b00001 x
0z
b00000000000000000000000000000000 {
b00001 "!
b00000000000000000000000000000001 #!
1'!
b00001 *!
b00000000000000000000000000000000 0!
01!
b00000000000000000000000000000010 2!
b00000000000000000000000000000000 4!
1>!
#231
#232
#233
#234
#235
0>!
#236
#237
#238
#239
#240
b00000000000000000000000000100100 #
b00001100000000000000000000010000 $
b00000000000000000000000000100000 &
b00110100000000010000000000000011 '
b00100101 (
b001 )
b00000000000000000000000000000010 +
1,
b00001 -
1.
01
b00000 2
b00000000000000000000000000000000 3
b00001 8
b00000000000000000000000000000001 9
0B
b000011 E
b00000000000000000000000000100100 G
b00000000000000000000000000101000 H
b00000000000000000000000000001100 I
1k
b00000000000000000000000000000010 l
b00000000000000000000000000000010 n
b00000000000000000000000000000010 p
b00000000000000000000000000000011 v
b00000000000000000000000000000010 {
0!!
b00000 "!
b00000000000000000000000000000000 #!
b00000000000000000000000000000011 2!
b00000000000000000000000000000010 4!
1>!
#241
#242
#243
#244
#245
0>!
#246
#247
#248
#249
#250
b00000000000000000000000000101000 #
b00110100000010100000000000000010 $
b00000000000000000000000000100100 &
b00001100000000000000000000010000 '
b00000000000000000000000000000011 +
11
b00001 2
b00000000000000000000000000000010 3
07
b00000 8
b00000000000000000000000000000000 9
b000011 C
b010000 E
b00000 F
b00000000000000000000000000101000 G
b00000000000000000000000000101100 H
b00000000000000000000000001000000 I
b00000000000000000000000000000001 K
b00000000000000000000000000000011 l
b00000000000000000000000000000011 n
b00000000000000000000000000000011 p
b01010000 s
b110 t
b00000000000000000000000000000000 v
b11111 x
b00000000000000000000000000101100 y
1z
b00000000000000000000000000000011 {
1!!
b00001 "!
b00000000000000000000000000000010 #!
0'!
b00000 *!
b00000000000000000000000001000000 0!
11!
b00000000000000000000000000000000 2!
b00000000000000000000000000000011 4!
1>!
#251
#252
#253
#254
#255
0>!
#256
#257
#258
#259
#260
b00000000000000000000000001000000 #
b00000011111000000001000000001001 $
b00000000000000000000000000101000 &
b00110100000010100000000000000010 '
b01010000 (
b110 )
b00000000000000000000000000000000 +
b11111 -
b00000000000000000000000000101100 0
b00000000000000000000000000000011 3
17
b00001 8
b00000000000000000000000000000010 9
1B
b001101 C
b000010 E
b01010 F
b00000000000000000000000000101100 G
b00000000000000000000000000110000 H
b00000000000000000000000000001000 I
0k
b00000000000000000000000000000000 l
b00000000000000000000000000000000 n
b00000000000000000000000000000000 p
b00100101 s
b001 t
b00000000000000000000000000000010 v
b01010 x
b00000000000000000000000000000000 y
0z
b00000000000000000000000000101100 {
b00000000000000000000000000000011 #!
1'!
b01010 *!
b00000000000000000000000000000000 0!
01!
b00000000000000000000000000000010 2!
b00000000000000000000000000000000 4!
1>!
#261
#262
#263
#264
#265
0>!
#266
#267
#268
#269
#270
b00000000000000000000000001000100 #
b00000000010000000000100000100101 $
b00000000000000000000000001000000 &
b00000011111000000001000000001001 '
b00100101 (
b001 )
b00000000000000000000000000000010 +
b01010 -
b00000000000000000000000000000000 0
b11111 2
b00000000000000000000000000101100 3
b00000000000000000000000000000011 9
0B
b000000 C
b001001 E
b00000 F
b00000000000000000000000001000100 G
b00000000000000000000000001001000 H
b00000000000000000100000000100100 I
b00000000000000000000000000000010 K
1k
b00000000000000000000000000000010 l
b00000000000000000000000000000010 n
b00000000000000000000000000000010 p
b00001001 s
b110 t
b00000000000000000000000000101100 u
b00000000000000000000000000000000 v
b00010 x
b00000000000000000000000001001000 y
1z
b00000000000000000000000000000010 {
b11111 "!
b00000000000000000000000000101100 #!
b11111 )!
b00000 *!
b00000000000000000000000000101100 0!
11!
b00000000000000000000000000000000 2!
b00000000000000000000000000000010 4!
1>!
#271
#272
#273
#274
#275
0>!
#276
#277
#278
#279
#280
b00000000000000000000000000101100 #
b00110100000000010000000000000101 $
b00000000000000000000000001000100 &
b00000000010000000000100000100101 '
b00001001 (
b110 )
b00000000000000000000000000101100 *
b00000000000000000000000000000000 +
b00010 -
b00000000000000000000000001001000 0
b01010 2
b00000000000000000000000000000010 3
b11111 8
b00000000000000000000000000101100 9
1B
b100101 E
b00000000000000000000000001001000 G
b00000000000000000000000001001100 H
b00000000000000000010000010010100 I
b00000000000000000000000000000011 K
0k
b00000000000000000000000000000000 l
b11111111111111111111111111010011 m
b00000000000000000000000000101100 n
b00000000000000000000000000101100 o
b00000000000000000000000000000000 p
b00100101 s
b001 t
b00000000000000000000000001001000 u
b00001 x
b00000000000000000000000000000000 y
0z
b00000000000000000000000001001000 {
b01010 "!
b00000000000000000000000000000010 #!
1(!
b00010 )!
b00000000000000000000000000000000 0!
01!
b00000000000000000000000000000000 4!
1>!
#281
#282
#283
#284
#285
0>!
#286
#287
#288
#289
#290
b00000000000000000000000000110000 #
b00110100000000010000000000000110 $
b00000000000000000000000000101100 &
b00110100000000010000000000000101 '
b00100101 (
b001 )
b00000000000000000000000001001000 *
b00001 -
b00000000000000000000000000000000 0
b00010 2
b00000000000000000000000001001000 3
b01010 8
b00000000000000000000000000000010 9
0B
b001101 C
b000101 E
b00001 F
b00000000000000000000000000110000 G
b00000000000000000000000000110100 H
b00000000000000000000000000010100 I
b00000000000000000000000000101100 i
b11111111111111111111111110110111 m
b00000000000000000000000001001000 n
b00000000000000000000000001001000 o
b00000000000000000000000000000000 u
b00000000000000000000000000000101 v
b00010 "!
b00000000000000000000000001001000 #!
0(!
b00000 )!
b00001 *!
b00000000000000000000000000000101 2!
b00000000000000000000000001001000 4!
1>!
#291
#292
#293
#294
#295
0>!
#296
#297
#298
#299
#300
b00000000000000000000000000110100 #
b00001000000000000000000000011000 $
b00000000000000000000000000110000 &
b00110100000000010000000000000110 '
b00000000000000000000000000000000 *
b00000000000000000000000000000101 +
b00001 2
b00010 8
b00000000000000000000000001001000 9
b000110 E
b00000000000000000000000000110100 G
b00000000000000000000000000111000 H
b00000000000000000000000000011000 I
b00000000000000000000000000000010 T
1k
b00000000000000000000000000000101 l
b11111111111111111111111111111111 m
b00000000000000000000000000000101 n
b00000000000000000000000000000000 o
b00000000000000000000000000000101 p
b00000000000000000000000000000110 v
b00000000000000000000000000000101 {
b00001 "!
b00000000000000000000000000000110 2!
b00000000000000000000000000000101 4!
1>!
#301
#302
#303
#304
#305
0>!
#306
#307
#308
#309
#310
b00000000000000000000000000111000 #
b00000000000000000000000000000000 $
b00000000000000000000000000110100 &
b00001000000000000000000000011000 '
b00000000000000000000000000000110 +
b00000000000000000000000000000101 3
b00001 8
b000010 C
b011000 E
b00000 F
b00000000000000000000000000111000 G
b00000000000000000000000000111100 H
b00000000000000000000000001100000 I
b00000000000000000000000001001000 L
b00000000000000000000000000000110 l
b00000000000000000000000000000110 n
b00000000000000000000000000000110 p
b01001111 s
b110 t
b00000000000000000000000000000000 v
0w
b00000 x
1z
b00000000000000000000000000000110 {
b00000000000000000000000000000101 #!
0'!
b00000 *!
b00000000000000000000000001100000 0!
11!
b00000000000000000000000000000000 2!
b00000000000000000000000000000110 4!
1>!
#311
#312
#313
#314
#315
0>!
#316
#317
#318
#319
#320
b00000000000000000000000001100000 #
b00110100000000010000000000000111 $
b00000000000000000000000000111000 &
b00000000000000000000000000000000 '
b01001111 (
b110 )
b00000000000000000000000000000000 +
0,
b00000 -
0.
b00000000000000000000000000000110 3
b00000000000000000000000000000101 9
1B
b000000 C
b000000 E
b00000000000000000000000000111100 G
b00000000000000000000000001000000 H
b00000000000000000000000000000000 I
b00000000000000000000000001001000 K
0k
b00000000000000000000000000000000 l
b00000000000000000000000000000000 n
b00000000000000000000000000000000 p
b01111100 s
b010 t
1w
0z
b00000000000000000000000000000000 {
b00000000000000000000000000000110 #!
1(!
b00000000000000000000000000000000 0!
01!
b00000000000000000000000000000000 4!
1>!
#321
#322
#323
#324
#325
0>!
#326
#327
#328
#329
#330
b00000000000000000000000001100100 #
b00000000010000000000000000001000 $
b00000000000000000000000001100000 &
b00110100000000010000000000000111 '
b01111100 (
b010 )
1,
1.
01
b00000 2
b00000000000000000000000000000000 3
b00000000000000000000000000000110 9
0B
b001101 C
b000111 E
b00001 F
b00000000000000000000000001100100 G
b00000000000000000000000001101000 H
b00000000000000000000000000011100 I
b00000000000000000000000000000101 K
b00100101 s
b001 t
b00000000000000000000000000000111 v
b00001 x
0!!
b00000 "!
b00000000000000000000000000000000 #!
1'!
0(!
b00001 *!
b00000000000000000000000000000111 2!
1>!
#331
#332
#333
#334
#335
0>!
#336
#337
#338
#339
#340
b00000000000000000000000001101000 #
b00110100000000010000000000001000 $
b00000000000000000000000001100100 &
b00000000010000000000000000001000 '
b00100101 (
b001 )
b00000000000000000000000000000111 +
b00001 -
11
07
b00000 8
b00000000000000000000000000000000 9
b000000 C
b001000 E
b00000 F
b00000000000000000000000001101000 G
b00000000000000000000000001101100 H
b00000000000000000000000000100000 I
b00000000000000000000000000000110 K
1k
b00000000000000000000000000000111 l
b00000000000000000000000000000111 n
b00000000000000000000000000000111 p
b00001000 s
b110 t
b00000000000000000000000001001000 u
b00000000000000000000000000000000 v
0w
b00000 x
1z
b00000000000000000000000000000111 {
1!!
b00010 )!
b00000 *!
b00000000000000000000000001001000 0!
11!
b00000000000000000000000000000000 2!
b00000000000000000000000000000111 4!
1>!
b00000000000000000000000001001000 A!
#341
#342
#343
#344
#345
0>!
#346
#347
#348
#349
