wave.vcd
$version Generated by VerilatedVcd $end
$date Sat Apr 23 00:08:10 2022 $end
$timescale 1ps $end

 $scope module TOP $end
  $var wire  1 )! clk $end
  $var wire  1 *! rst $end
  $scope module top $end
   $var wire  1 )! clk $end
   $var wire 32 $ inst [31:0] $end
   $var wire 32 # inst_addr [31:0] $end
   $var wire  1 % rom_ce $end
   $var wire  1 *! rst $end
   $scope module inst_rom0 $end
    $var wire 32 # addr [31:0] $end
    $var wire  1 % ce $end
    $var wire 32 $ inst [31:0] $end
   $upscope $end
   $scope module openmips0 $end
    $var wire  1 )! clk $end
    $var wire  8 ( ex_aluop_i [7:0] $end
    $var wire  3 ) ex_alusel_i [2:0] $end
    $var wire 32 q ex_hi_o [31:0] $end
    $var wire 32 r ex_lo_o [31:0] $end
    $var wire 32 * ex_reg1_i [31:0] $end
    $var wire 32 + ex_reg2_i [31:0] $end
    $var wire  5 - ex_wd_i [4:0] $end
    $var wire  5 - ex_wd_o [4:0] $end
    $var wire 32 o ex_wdata_o [31:0] $end
    $var wire  1 p ex_whilo_o $end
    $var wire  1 , ex_wreg_i $end
    $var wire  1 . ex_wreg_o $end
    $var wire 32 ; hi [31:0] $end
    $var wire  8 j id_aluop_o [7:0] $end
    $var wire  3 k id_alusel_o [2:0] $end
    $var wire 32 ' id_inst_i [31:0] $end
    $var wire 32 & id_pc_i [31:0] $end
    $var wire 32 +! id_reg1_o [31:0] $end
    $var wire 32 l id_reg2_o [31:0] $end
    $var wire  5 n id_wd_o [4:0] $end
    $var wire  1 m id_wreg_o $end
    $var wire 32 < lo [31:0] $end
    $var wire 32 3 mem_hi_i [31:0] $end
    $var wire 32 w mem_hi_o [31:0] $end
    $var wire 32 4 mem_lo_i [31:0] $end
    $var wire 32 x mem_lo_o [31:0] $end
    $var wire  5 0 mem_wd_i [4:0] $end
    $var wire  5 t mem_wd_o [4:0] $end
    $var wire 32 1 mem_wdata_i [31:0] $end
    $var wire 32 u mem_wdata_o [31:0] $end
    $var wire  1 2 mem_whilo_i $end
    $var wire  1 v mem_whilo_o $end
    $var wire  1 / mem_wreg_i $end
    $var wire  1 s mem_wreg_o $end
    $var wire 32 # pc [31:0] $end
    $var wire  5 { reg1_addr [4:0] $end
    $var wire 32 ,! reg1_data [31:0] $end
    $var wire  1 y reg1_read $end
    $var wire  5 | reg2_addr [4:0] $end
    $var wire 32 -! reg2_data [31:0] $end
    $var wire  1 z reg2_read $end
    $var wire 32 # rom_addr_o [31:0] $end
    $var wire  1 % rom_ce_o $end
    $var wire 32 $ rom_data_i [31:0] $end
    $var wire  1 *! rst $end
    $var wire 32 9 wb_hi_i [31:0] $end
    $var wire 32 : wb_lo_i [31:0] $end
    $var wire  5 6 wb_wd_i [4:0] $end
    $var wire 32 7 wb_wdata_i [31:0] $end
    $var wire  1 8 wb_whilo_i $end
    $var wire  1 5 wb_wreg_i $end
    $scope module ex0 $end
     $var wire 32 $! HI [31:0] $end
     $var wire 32 %! LO [31:0] $end
     $var wire  8 ( aluop_i [7:0] $end
     $var wire  3 ) alusel_i [2:0] $end
     $var wire 32 &! arithmeticres [31:0] $end
     $var wire 32 ; hi_i [31:0] $end
     $var wire 32 q hi_o [31:0] $end
     $var wire 64 h hilo_temp [63:0] $end
     $var wire 32 < lo_i [31:0] $end
     $var wire 32 r lo_o [31:0] $end
     $var wire 32 !! logicout [31:0] $end
     $var wire 32 w mem_hi_i [31:0] $end
     $var wire 32 x mem_lo_i [31:0] $end
     $var wire  1 2 mem_whilo_i $end
     $var wire 32 #! movres [31:0] $end
     $var wire 64 '! mulres [63:0] $end
     $var wire 32 f opdata1_mult [31:0] $end
     $var wire 32 g opdata2_mult [31:0] $end
     $var wire  1 a ov_sum $end
     $var wire  1 .! reg1_eq_reg2 $end
     $var wire 32 * reg1_i [31:0] $end
     $var wire 32 d reg1_i_not [31:0] $end
     $var wire  1 b reg1_lt_reg2 $end
     $var wire 32 + reg2_i [31:0] $end
     $var wire 32 c reg2_i_mux [31:0] $end
     $var wire 32 e result_sum [31:0] $end
     $var wire  1 *! rst $end
     $var wire 32 "! shiftres [31:0] $end
     $var wire 32 9 wb_hi_i [31:0] $end
     $var wire 32 : wb_lo_i [31:0] $end
     $var wire  1 8 wb_whilo_i $end
     $var wire  5 - wd_i [4:0] $end
     $var wire  5 - wd_o [4:0] $end
     $var wire 32 o wdata_o [31:0] $end
     $var wire  1 p whilo_o $end
     $var wire  1 , wreg_i $end
     $var wire  1 . wreg_o $end
    $upscope $end
    $scope module ex_mem0 $end
     $var wire  1 )! clk $end
     $var wire 32 q ex_hi [31:0] $end
     $var wire 32 r ex_lo [31:0] $end
     $var wire  5 - ex_wd [4:0] $end
     $var wire 32 o ex_wdata [31:0] $end
     $var wire  1 p ex_whilo $end
     $var wire  1 . ex_wreg $end
     $var wire 32 3 mem_hi [31:0] $end
     $var wire 32 4 mem_lo [31:0] $end
     $var wire  5 0 mem_wd [4:0] $end
     $var wire 32 1 mem_wdata [31:0] $end
     $var wire  1 2 mem_whilo $end
     $var wire  1 / mem_wreg $end
     $var wire  1 *! rst $end
    $upscope $end
    $scope module hilo_reg0 $end
     $var wire  1 )! clk $end
     $var wire 32 9 hi_i [31:0] $end
     $var wire 32 ; hi_o [31:0] $end
     $var wire 32 : lo_i [31:0] $end
     $var wire 32 < lo_o [31:0] $end
     $var wire  1 *! rst $end
     $var wire  1 8 we $end
    $upscope $end
    $scope module id0 $end
     $var wire  8 j aluop_o [7:0] $end
     $var wire  3 k alusel_o [2:0] $end
     $var wire  5 - ex_wd_i [4:0] $end
     $var wire 32 o ex_wdata_i [31:0] $end
     $var wire  1 . ex_wreg_i $end
     $var wire 32 } imm [31:0] $end
     $var wire 32 ' inst_i [31:0] $end
     $var wire  1 ~ instvalid $end
     $var wire  5 t mem_wd_i [4:0] $end
     $var wire 32 u mem_wdata_i [31:0] $end
     $var wire  1 s mem_wreg_i $end
     $var wire  6 = op [5:0] $end
     $var wire  5 > op2 [4:0] $end
     $var wire  6 ? op3 [5:0] $end
     $var wire  5 @ op4 [4:0] $end
     $var wire 32 & pc_i [31:0] $end
     $var wire  5 { reg1_addr_o [4:0] $end
     $var wire 32 ,! reg1_data_i [31:0] $end
     $var wire 32 +! reg1_o [31:0] $end
     $var wire  1 y reg1_read_o $end
     $var wire  5 | reg2_addr_o [4:0] $end
     $var wire 32 -! reg2_data_i [31:0] $end
     $var wire 32 l reg2_o [31:0] $end
     $var wire  1 z reg2_read_o $end
     $var wire  1 *! rst $end
     $var wire  5 n wd_o [4:0] $end
     $var wire  1 m wreg_o $end
    $upscope $end
    $scope module id_ex0 $end
     $var wire  1 )! clk $end
     $var wire  8 ( ex_aluop [7:0] $end
     $var wire  3 ) ex_alusel [2:0] $end
     $var wire 32 * ex_reg1 [31:0] $end
     $var wire 32 + ex_reg2 [31:0] $end
     $var wire  5 - ex_wd [4:0] $end
     $var wire  1 , ex_wreg $end
     $var wire  8 j id_aluop [7:0] $end
     $var wire  3 k id_alusel [2:0] $end
     $var wire 32 +! id_reg1 [31:0] $end
     $var wire 32 l id_reg2 [31:0] $end
     $var wire  5 n id_wd [4:0] $end
     $var wire  1 m id_wreg $end
     $var wire  1 *! rst $end
    $upscope $end
    $scope module if_id0 $end
     $var wire  1 )! clk $end
     $var wire 32 ' id_inst [31:0] $end
     $var wire 32 & id_pc [31:0] $end
     $var wire 32 $ if_inst [31:0] $end
     $var wire 32 # if_pc [31:0] $end
     $var wire  1 *! rst $end
    $upscope $end
    $scope module mem0 $end
     $var wire 32 3 hi_i [31:0] $end
     $var wire 32 w hi_o [31:0] $end
     $var wire 32 4 lo_i [31:0] $end
     $var wire 32 x lo_o [31:0] $end
     $var wire  1 *! rst $end
     $var wire  5 0 wd_i [4:0] $end
     $var wire  5 t wd_o [4:0] $end
     $var wire 32 1 wdata_i [31:0] $end
     $var wire 32 u wdata_o [31:0] $end
     $var wire  1 2 whilo_i $end
     $var wire  1 v whilo_o $end
     $var wire  1 / wreg_i $end
     $var wire  1 s wreg_o $end
    $upscope $end
    $scope module mem_wb0 $end
     $var wire  1 )! clk $end
     $var wire 32 w mem_hi [31:0] $end
     $var wire 32 x mem_lo [31:0] $end
     $var wire  5 t mem_wd [4:0] $end
     $var wire 32 u mem_wdata [31:0] $end
     $var wire  1 v mem_whilo $end
     $var wire  1 s mem_wreg $end
     $var wire  1 *! rst $end
     $var wire 32 9 wb_hi [31:0] $end
     $var wire 32 : wb_lo [31:0] $end
     $var wire  5 6 wb_wd [4:0] $end
     $var wire 32 7 wb_wdata [31:0] $end
     $var wire  1 8 wb_whilo $end
     $var wire  1 5 wb_wreg $end
    $upscope $end
    $scope module pc_reg0 $end
     $var wire  1 % ce $end
     $var wire  1 )! clk $end
     $var wire 32 # pc [31:0] $end
     $var wire  1 *! rst $end
    $upscope $end
    $scope module regfile1 $end
     $var wire  1 )! clk $end
     $var wire  5 { raddr1 [4:0] $end
     $var wire  5 | raddr2 [4:0] $end
     $var wire 32 ,! rdata1 [31:0] $end
     $var wire 32 -! rdata2 [31:0] $end
     $var wire  1 y re1 $end
     $var wire  1 z re2 $end
     $var wire 32 A regs(0) [31:0] $end
     $var wire 32 B regs(1) [31:0] $end
     $var wire 32 K regs(10) [31:0] $end
     $var wire 32 L regs(11) [31:0] $end
     $var wire 32 M regs(12) [31:0] $end
     $var wire 32 N regs(13) [31:0] $end
     $var wire 32 O regs(14) [31:0] $end
     $var wire 32 P regs(15) [31:0] $end
     $var wire 32 Q regs(16) [31:0] $end
     $var wire 32 R regs(17) [31:0] $end
     $var wire 32 S regs(18) [31:0] $end
     $var wire 32 T regs(19) [31:0] $end
     $var wire 32 C regs(2) [31:0] $end
     $var wire 32 U regs(20) [31:0] $end
     $var wire 32 V regs(21) [31:0] $end
     $var wire 32 W regs(22) [31:0] $end
     $var wire 32 X regs(23) [31:0] $end
     $var wire 32 Y regs(24) [31:0] $end
     $var wire 32 Z regs(25) [31:0] $end
     $var wire 32 [ regs(26) [31:0] $end
     $var wire 32 \ regs(27) [31:0] $end
     $var wire 32 ] regs(28) [31:0] $end
     $var wire 32 ^ regs(29) [31:0] $end
     $var wire 32 D regs(3) [31:0] $end
     $var wire 32 _ regs(30) [31:0] $end
     $var wire 32 ` regs(31) [31:0] $end
     $var wire 32 E regs(4) [31:0] $end
     $var wire 32 F regs(5) [31:0] $end
     $var wire 32 G regs(6) [31:0] $end
     $var wire 32 H regs(7) [31:0] $end
     $var wire 32 I regs(8) [31:0] $end
     $var wire 32 J regs(9) [31:0] $end
     $var wire  1 *! rst $end
     $var wire  5 6 waddr [4:0] $end
     $var wire 32 7 wdata [31:0] $end
     $var wire  1 5 we $end
    $upscope $end
   $upscope $end
  $upscope $end
 $upscope $end
$enddefinitions $end


#1
b00000000000000000000000000000000 #
b00000000000000000000000000000000 $
0%
b00000000000000000000000000000000 &
b00000000000000000000000000000000 '
b00000000 (
b000 )
b00000000000000000000000000000000 *
b00000000000000000000000000000000 +
0,
b00000 -
0.
0/
b00000 0
b00000000000000000000000000000000 1
02
b00000000000000000000000000000000 3
b00000000000000000000000000000000 4
05
b00000 6
b00000000000000000000000000000000 7
08
b00000000000000000000000000000000 9
b00000000000000000000000000000000 :
b00000000000000000000000000000000 ;
b00000000000000000000000000000000 <
b000000 =
b00000 >
b000000 ?
b00000 @
b00000000000000000000000000000000 A
b00000000000000000000000000000000 B
b00000000000000000000000000000000 C
b00000000000000000000000000000000 D
b00000000000000000000000000000000 E
b00000000000000000000000000000000 F
b00000000000000000000000000000000 G
b00000000000000000000000000000000 H
b00000000000000000000000000000000 I
b00000000000000000000000000000000 J
b00000000000000000000000000000000 K
b00000000000000000000000000000000 L
b00000000000000000000000000000000 M
b00000000000000000000000000000000 N
b00000000000000000000000000000000 O
b00000000000000000000000000000000 P
b00000000000000000000000000000000 Q
b00000000000000000000000000000000 R
b00000000000000000000000000000000 S
b00000000000000000000000000000000 T
b00000000000000000000000000000000 U
b00000000000000000000000000000000 V
b00000000000000000000000000000000 W
b00000000000000000000000000000000 X
b00000000000000000000000000000000 Y
b00000000000000000000000000000000 Z
b00000000000000000000000000000000 [
b00000000000000000000000000000000 \
b00000000000000000000000000000000 ]
b00000000000000000000000000000000 ^
b00000000000000000000000000000000 _
b00000000000000000000000000000000 `
0a
0b
b00000000000000000000000000000000 c
b11111111111111111111111111111111 d
b00000000000000000000000000000000 e
b00000000000000000000000000000000 f
b00000000000000000000000000000000 g
b0000000000000000000000000000000000000000000000000000000000000000 h
b00000000 j
b000 k
b00000000000000000000000000000000 l
0m
b00000 n
b00000000000000000000000000000000 o
0p
b00000000000000000000000000000000 q
b00000000000000000000000000000000 r
0s
b00000 t
b00000000000000000000000000000000 u
0v
b00000000000000000000000000000000 w
b00000000000000000000000000000000 x
0y
0z
b00000 {
b00000 |
b00000000000000000000000000000000 }
0~
b00000000000000000000000000000000 !!
b00000000000000000000000000000000 "!
b00000000000000000000000000000000 #!
b00000000000000000000000000000000 $!
b00000000000000000000000000000000 %!
b00000000000000000000000000000000 &!
b0000000000000000000000000000000000000000000000000000000000000000 '!
0)!
1*!
b00000000000000000000000000000000 +!
b00000000000000000000000000000000 ,!
b00000000000000000000000000000000 -!
0.!
#2
#3
#4
#5
#6
#7
#8
#9
#10
1)!
#11
#12
#13
#14
#15
0)!
#16
#17
#18
#19
#20
1)!
#21
#22
#23
#24
#25
0)!
#26
#27
#28
#29
#30
1)!
#31
#32
#33
#34
#35
0)!
#36
#37
#38
#39
#40
1)!
#41
#42
#43
#44
#45
0)!
#46
#47
#48
#49
#50
1)!
#51
#52
#53
#54
#55
0)!
#56
#57
#58
#59
#60
1)!
#61
#62
#63
#64
#65
0)!
#66
#67
#68
#69
#70
1)!
#71
#72
#73
#74
#75
0)!
#76
#77
#78
#79
#80
1)!
#81
#82
#83
#84
#85
0)!
#86
#87
#88
#89
#90
1)!
#91
#92
#93
#94
#95
0)!
#96
#97
#98
#99
#100
1)!
#101
#102
#103
#104
#105
0)!
#106
#107
#108
#109
#110
1)!
#111
#112
#113
#114
#115
0)!
#116
#117
#118
#119
#120
1)!
#121
#122
#123
#124
#125
0)!
#126
#127
#128
#129
#130
1)!
#131
#132
#133
#134
#135
0)!
#136
#137
#138
#139
#140
1)!
#141
#142
#143
#144
#145
0)!
#146
#147
#148
#149
#150
1)!
#151
#152
#153
#154
#155
0)!
#156
#157
#158
#159
#160
1)!
#161
#162
#163
#164
#165
0)!
#166
#167
#168
#169
#170
1)!
#171
#172
#173
#174
#175
0)!
#176
#177
#178
#179
#180
1)!
#181
#182
#183
#184
#185
0)!
#186
#187
#188
#189
#190
1)!
#191
#192
#193
#194
#195
0)!
#196
b01111100 j
b010 k
1m
1z
0*!
#197
#198
#199
#200
b00110100000000011000000000000000 $
1%
b01111100 (
b010 )
1,
1.
1)!
#201
#202
#203
#204
#205
0)!
#206
#207
#208
#209
#210
b00000000000000000000000000000100 #
b00000000000000010000110000000000 $
b00110100000000011000000000000000 '
1/
b001101 =
b00001 @
b00100101 j
b001 k
b00000000000000001000000000000000 l
b00001 n
1s
1y
0z
b00001 |
b00000000000000001000000000000000 }
1)!
#211
#212
#213
#214
#215
0)!
#216
#217
#218
#219
#220
b00000000000000000000000000001000 #
b00110100001000010000000000010000 $
b00000000000000000000000000000100 &
b00000000000000010000110000000000 '
b00100101 (
b001 )
b00000000000000001000000000000000 +
b00001 -
15
b000000 =
b10000 >
1b
b00000000000000001000000000000000 c
b00000000000000001000000000000000 e
b00000000000000001000000000000000 g
b01111100 j
b010 k
b00000000000000001000000000000000 o
0y
1z
b00000000000000000000000000010000 }
b00000000000000001000000000000000 !!
1)!
b00000000000000000000000000010000 +!
#221
#222
#223
#224
#225
0)!
#226
#227
#228
#229
#230
b00000000000000000000000000001100 #
b00110100000000101000000000000000 $
b00000000000000000000000000001000 &
b00110100001000010000000000010000 '
b01111100 (
b010 )
b00000000000000000000000000010000 *
b00001 0
b00000000000000001000000000000000 1
b001101 =
b00000 >
b010000 ?
b11111111111111111111111111101111 d
b00000000000000001000000000010000 e
b00000000000000000000000000010000 f
b0000000000000000000000000000000000000000000010000000000000000000 h
b00100101 j
b001 k
b00000000000000000000000000010000 l
b10000000000000000000000000000000 o
b00001 t
b00000000000000001000000000000000 u
1y
0z
b00001 {
b10000000000000000000000000000000 "!
b0000000000000000000000000000000000000000000010000000000000000000 '!
1)!
b10000000000000000000000000000000 +!
#231
#232
#233
#234
#235
0)!
#236
#237
#238
#239
#240
b00000000000000000000000000010000 #
b00000000000000100001010000000000 $
b00000000000000000000000000001100 &
b00110100000000101000000000000000 '
b00100101 (
b001 )
b10000000000000000000000000000000 *
b00000000000000000000000000010000 +
b10000000000000000000000000000000 1
b00001 6
b00000000000000001000000000000000 7
b000000 ?
b00010 @
0b
b00000000000000000000000000010000 c
b01111111111111111111111111111111 d
b10000000000000000000000000010000 e
b10000000000000000000000000000000 f
b00000000000000000000000000010000 g
b0000000000000000000000000000100000000000000000000000000000000000 h
b00000000000000001000000000000000 l
b00010 n
b10000000000000000000000000010000 o
b10000000000000000000000000000000 u
b00000 {
b00010 |
b00000000000000001000000000000000 }
b10000000000000000000000000010000 !!
b0000000000000000000000000000100000000000000000000000000000000000 '!
1)!
b00000000000000000000000000000000 +!
#241
#242
#243
#244
#245
0)!
#246
#247
#248
#249
#250
b00000000000000000000000000010100 #
b00110100010000100000000000000001 $
b00000000000000000000000000010000 &
b00000000000000100001010000000000 '
b00000000000000000000000000000000 *
b00000000000000001000000000000000 +
b00010 -
b10000000000000000000000000010000 1
b10000000000000000000000000000000 7
b000000 =
b10000 >
b00000000000000001000000000000000 B
1b
b00000000000000001000000000000000 c
b11111111111111111111111111111111 d
b00000000000000001000000000000000 e
b00000000000000000000000000000000 f
b00000000000000001000000000000000 g
b0000000000000000000000000000000000000000000000000000000000000000 h
b01111100 j
b010 k
b00000000000000001000000000000000 o
b10000000000000000000000000010000 u
0y
1z
b00000000000000000000000000010000 }
b00000000000000001000000000000000 !!
b0000000000000000000000000000000000000000000000000000000000000000 '!
1)!
b00000000000000000000000000010000 +!
#251
#252
#253
#254
#255
0)!
#256
#257
#258
#259
#260
b00000000000000000000000000011000 #
b00110100000000110000000000000000 $
b00000000000000000000000000010100 &
b00110100010000100000000000000001 '
b01111100 (
b010 )
b00000000000000000000000000010000 *
b00010 0
b00000000000000001000000000000000 1
b10000000000000000000000000010000 7
b001101 =
b00000 >
b000001 ?
b10000000000000000000000000000000 B
b11111111111111111111111111101111 d
b00000000000000001000000000010000 e
b00000000000000000000000000010000 f
b0000000000000000000000000000000000000000000010000000000000000000 h
b00100101 j
b001 k
b00000000000000000000000000000001 l
b10000000000000000000000000000000 o
b00010 t
b00000000000000001000000000000000 u
1y
0z
b00010 {
b00000000000000000000000000000001 }
b0000000000000000000000000000000000000000000010000000000000000000 '!
1)!
b10000000000000000000000000000000 +!
#261
#262
#263
#264
#265
0)!
#266
#267
#268
#269
#270
b00000000000000000000000000011100 #
b00000000010000010001100000100001 $
b00000000000000000000000000011000 &
b00110100000000110000000000000000 '
b00100101 (
b001 )
b10000000000000000000000000000000 *
b00000000000000000000000000000001 +
b10000000000000000000000000000000 1
b00010 6
b00000000000000001000000000000000 7
b000000 ?
b00011 @
b10000000000000000000000000010000 B
0b
b00000000000000000000000000000001 c
b01111111111111111111111111111111 d
b10000000000000000000000000000001 e
b10000000000000000000000000000000 f
b00000000000000000000000000000001 g
b0000000000000000000000000000000010000000000000000000000000000000 h
b00000000000000000000000000000000 l
b00011 n
b10000000000000000000000000000001 o
b10000000000000000000000000000000 u
b00000 {
b00011 |
b00000000000000000000000000000000 }
b10000000000000000000000000000001 !!
b0000000000000000000000000000000010000000000000000000000000000000 '!
1)!
b00000000000000000000000000000000 +!
#271
#272
#273
#274
#275
0)!
#276
#277
#278
#279
#280
b00000000000000000000000000100000 #
b00110100000000110000000000000000 $
b00000000000000000000000000011100 &
b00000000010000010001100000100001 '
b00000000000000000000000000000000 *
b00000000000000000000000000000000 +
b00011 -
b10000000000000000000000000000001 1
b10000000000000000000000000000000 7
b000000 =
b100001 ?
b00001 @
b00000000000000001000000000000000 C
b00000000000000000000000000000000 c
b11111111111111111111111111111111 d
b00000000000000000000000000000000 e
b00000000000000000000000000000000 f
b00000000000000000000000000000000 g
b0000000000000000000000000000000000000000000000000000000000000000 h
b00100001 j
b100 k
b10000000000000000000000000010000 l
b00000000000000000000000000000000 o
b10000000000000000000000000000001 u
1z
b00010 {
b00001 |
b00000000000000000000000000000000 !!
b0000000000000000000000000000000000000000000000000000000000000000 '!
1)!
b10000000000000000000000000000001 +!
b10000000000000000000000000000000 ,!
b10000000000000000000000000010000 -!
#281
#282
#283
#284
#285
0)!
#286
#287
#288
#289
#290
b00000000000000000000000000100100 #
b00000000010000010001100000100000 $
b00000000000000000000000000100000 &
b00110100000000110000000000000000 '
b00100001 (
b100 )
b10000000000000000000000000000001 *
b10000000000000000000000000010000 +
b00011 0
b00000000000000000000000000000000 1
b10000000000000000000000000000001 7
b001101 =
b000000 ?
b00011 @
b10000000000000000000000000000000 C
1a
1b
b10000000000000000000000000010000 c
b01111111111111111111111111111110 d
b00000000000000000000000000010001 e
b10000000000000000000000000000001 f
b10000000000000000000000000010000 g
b0100000000000000000000000000100010000000000000000000000000010000 h
b00100101 j
b001 k
b00000000000000000000000000000000 l
b00000000000000000000000000010001 o
b00011 t
b00000000000000000000000000000000 u
0z
b00000 {
b00011 |
b00000000000000000000000000010001 &!
b0100000000000000000000000000100010000000000000000000000000010000 '!
1)!
b00000000000000000000000000000000 +!
b00000000000000000000000000000000 ,!
b00000000000000000000000000000000 -!
#291
#292
#293
#294
#295
0)!
#296
#297
#298
#299
#300
b00000000000000000000000000101000 #
b00000000001000110001100000100010 $
b00000000000000000000000000100100 &
b00000000010000010001100000100000 '
b00100101 (
b001 )
b00000000000000000000000000000000 *
b00000000000000000000000000000000 +
b00000000000000000000000000010001 1
b00011 6
b00000000000000000000000000000000 7
b000000 =
b100000 ?
b00001 @
b10000000000000000000000000000001 C
0a
0b
b00000000000000000000000000000000 c
b11111111111111111111111111111111 d
b00000000000000000000000000000000 e
b00000000000000000000000000000000 f
b00000000000000000000000000000000 g
b0000000000000000000000000000000000000000000000000000000000000000 h
b00100000 j
b100 k
b10000000000000000000000000010000 l
b00000000000000000000000000000000 o
b00000000000000000000000000010001 u
1z
b00010 {
b00001 |
b00000000000000000000000000000000 &!
b0000000000000000000000000000000000000000000000000000000000000000 '!
1)!
b10000000000000000000000000000001 +!
b10000000000000000000000000000001 ,!
b10000000000000000000000000010000 -!
#301
#302
#303
#304
#305
0)!
#306
#307
#308
#309
#310
b00000000000000000000000000101100 #
b00000000011000100001100000100011 $
b00000000000000000000000000101000 &
b00000000001000110001100000100010 '
b00100000 (
b100 )
b10000000000000000000000000000001 *
b10000000000000000000000000010000 +
0.
b00000000000000000000000000000000 1
b00000000000000000000000000010001 7
b100010 ?
b00011 @
1a
1b
b10000000000000000000000000010000 c
b01111111111111111111111111111110 d
b00000000000000000000000000010001 e
b10000000000000000000000000000001 f
b10000000000000000000000000010000 g
b0100000000000000000000000000100010000000000000000000000000010000 h
b00100010 j
b00000000000000000000000000000000 l
b00000000000000000000000000010001 o
b00000000000000000000000000000000 u
b00001 {
b00011 |
b00000000000000000000000000010001 &!
b0100000000000000000000000000100010000000000000000000000000010000 '!
1)!
b10000000000000000000000000010000 +!
b10000000000000000000000000010000 ,!
b00000000000000000000000000010001 -!
#311
#312
#313
#314
#315
0)!
#316
#317
#318
#319
#320
b00000000000000000000000000110000 #
b00100000011000110000000000000010 $
b00000000000000000000000000101100 &
b00000000011000100001100000100011 '
b00100010 (
b10000000000000000000000000010000 *
b00000000000000000000000000000000 +
1.
0/
b00000000000000000000000000010001 1
b00000000000000000000000000000000 7
b100011 ?
b00010 @
b00000000000000000000000000010001 D
0a
0b
b00000000000000000000000000000000 c
b01111111111111111111111111101111 d
b10000000000000000000000000010000 e
b10000000000000000000000000010000 f
b00000000000000000000000000000000 g
b0000000000000000000000000000000000000000000000000000000000000000 h
b00100011 j
b10000000000000000000000000000001 l
b10000000000000000000000000010000 o
0s
b00000000000000000000000000010001 u
b00011 {
b00010 |
b10000000000000000000000000010000 &!
b0000000000000000000000000000000000000000000000000000000000000000 '!
1)!
b00000000000000000000000000000000 ,!
b10000000000000000000000000000001 -!
#321
#322
#323
#324
#325
0)!
#326
#327
#328
#329
#330
b00000000000000000000000000110100 #
b00110100000000110000000000000000 $
b00000000000000000000000000110000 &
b00100000011000110000000000000010 '
b00100011 (
b10000000000000000000000000000001 +
1/
b10000000000000000000000000010000 1
05
b00000000000000000000000000010001 7
b001000 =
b000010 ?
b00011 @
b00000000000000000000000000000000 D
b01111111111111111111111111111111 c
b00000000000000000000000000001111 e
b10000000000000000000000000000001 g
b0100000000000000000000000000100010000000000000000000000000010000 h
b00100000 j
b00000000000000000000000000000010 l
b00000000000000000000000000001111 o
1s
b10000000000000000000000000010000 u
0z
b00011 |
b00000000000000000000000000000010 }
b00000000000000000000000000001111 &!
b0100000000000000000000000000100010000000000000000000000000010000 '!
1)!
b00000000000000000000000000001111 +!
b00000000000000000000000000000000 -!
#331
#332
#333
#334
#335
0)!
#336
#337
#338
#339
#340
b00000000000000000000000000111000 #
b00100100011000111000000000000000 $
b00000000000000000000000000110100 &
b00110100000000110000000000000000 '
b00100000 (
b00000000000000000000000000001111 *
b00000000000000000000000000000010 +
b00000000000000000000000000001111 1
15
b10000000000000000000000000010000 7
b001101 =
b000000 ?
b00000000000000000000000000000010 c
b11111111111111111111111111110000 d
b00000000000000000000000000010001 e
b00000000000000000000000000001111 f
b00000000000000000000000000000010 g
b0000000000000000000000000000000000000000000000000000000000011110 h
b00100101 j
b001 k
b00000000000000000000000000000000 l
b00000000000000000000000000010001 o
b00000000000000000000000000001111 u
b00000 {
b00000000000000000000000000000000 }
b00000000000000000000000000010001 &!
b0000000000000000000000000000000000000000000000000000000000011110 '!
1)!
b00000000000000000000000000000000 +!
#341
#342
#343
#344
#345
0)!
#346
#347
#348
#349
#350
b00000000000000000000000000111100 #
b00110100000000011111111111111111 $
b00000000000000000000000000111000 &
b00100100011000111000000000000000 '
b00100101 (
b001 )
b00000000000000000000000000000000 *
b00000000000000000000000000000000 +
b00000000000000000000000000010001 1
b00000000000000000000000000001111 7
b001001 =
b10000000000000000000000000010000 D
b00000000000000000000000000000000 c
b11111111111111111111111111111111 d
b00000000000000000000000000000000 e
b00000000000000000000000000000000 f
b00000000000000000000000000000000 g
b0000000000000000000000000000000000000000000000000000000000000000 h
b00100001 j
b100 k
b11111111111111111000000000000000 l
b00000000000000000000000000000000 o
b00000000000000000000000000010001 u
b00011 {
b11111111111111111000000000000000 }
b00000000000000000000000000000000 &!
b0000000000000000000000000000000000000000000000000000000000000000 '!
1)!
b00000000000000000000000000001111 ,!
#351
#352
#353
#354
#355
0)!
#356
#357
#358
#359
#360
b00000000000000000000000001000000 #
b00000000000000010000110000000000 $
b00000000000000000000000000111100 &
b00110100000000011111111111111111 '
b00100001 (
b100 )
b11111111111111111000000000000000 +
b00000000000000000000000000000000 1
b00000000000000000000000000010001 7
b001101 =
b11111 >
b111111 ?
b00001 @
b00000000000000000000000000001111 D
1b
b11111111111111111000000000000000 c
b11111111111111111000000000000000 e
b11111111111111111000000000000000 g
b00100101 j
b001 k
b00000000000000001111111111111111 l
b00001 n
b11111111111111111000000000000000 o
b00000000000000000000000000000000 u
b00000 {
b00001 |
b00000000000000001111111111111111 }
b11111111111111111000000000000000 &!
1)!
b00000000000000000000000000000000 ,!
#361
#362
#363
#364
#365
0)!
#366
#367
#368
#369
#370
b00000000000000000000000001000100 #
b00000000001000000001000000101010 $
b00000000000000000000000001000000 &
b00000000000000010000110000000000 '
b00100101 (
b001 )
b00000000000000001111111111111111 +
b00001 -
b11111111111111111000000000000000 1
b00000000000000000000000000000000 7
b000000 =
b10000 >
b000000 ?
b00000000000000000000000000010001 D
b00000000000000001111111111111111 c
b00000000000000001111111111111111 e
b00000000000000001111111111111111 g
b01111100 j
b010 k
b00000000000000001111111111111111 o
b11111111111111111000000000000000 u
0y
1z
b00000000000000000000000000010000 }
b00000000000000001111111111111111 !!
b00000000000000000000000000000000 &!
1)!
b00000000000000000000000000010000 +!
b10000000000000000000000000010000 -!
#371
#372
#373
#374
#375
0)!
#376
#377
#378
#379
#380
b00000000000000000000000001001000 #
b00000000001000000001000000101011 $
b00000000000000000000000001000100 &
b00000000001000000001000000101010 '
b01111100 (
b010 )
b00000000000000000000000000010000 *
b00001 0
b00000000000000001111111111111111 1
b11111111111111111000000000000000 7
b00000 >
b101010 ?
b00000 @
b00000000000000000000000000000000 D
b11111111111111111111111111101111 d
b00000000000000010000000000001111 e
b00000000000000000000000000010000 f
b0000000000000000000000000000000000000000000011111111111111110000 h
b00101010 j
b100 k
b00000000000000000000000000000000 l
b00010 n
b11111111111111110000000000000000 o
b00001 t
b00000000000000001111111111111111 u
1y
b00001 {
b00000 |
b00000000000000000000000000000000 }
b11111111111111110000000000000000 "!
b0000000000000000000000000000000000000000000011111111111111110000 '!
1)!
b11111111111111110000000000000000 +!
b10000000000000000000000000010000 ,!
b00000000000000000000000000000000 -!
#381
#382
#383
#384
#385
0)!
#386
#387
#388
#389
