wave.vcd
$version Generated by VerilatedVcd $end
$date Tue Apr 12 16:42:01 2022 $end
$timescale 1ps $end

 $scope module TOP $end
  $var wire  1 h clk $end
  $var wire  1 i rst $end
  $scope module top $end
   $var wire  1 h clk $end
   $var wire 32 $ inst [31:0] $end
   $var wire 32 # inst_addr [31:0] $end
   $var wire  1 % rom_ce $end
   $var wire  1 i rst $end
   $scope module inst_rom0 $end
    $var wire 32 # addr [31:0] $end
    $var wire  1 % ce $end
    $var wire 32 $ inst [31:0] $end
   $upscope $end
   $scope module openmips0 $end
    $var wire  1 h clk $end
    $var wire  8 ( ex_aluop_i [7:0] $end
    $var wire  3 ) ex_alusel_i [2:0] $end
    $var wire 32 * ex_reg1_i [31:0] $end
    $var wire 32 + ex_reg2_i [31:0] $end
    $var wire  5 - ex_wd_i [4:0] $end
    $var wire  5 - ex_wd_o [4:0] $end
    $var wire 32 \ ex_wdata_o [31:0] $end
    $var wire  1 , ex_wreg_i $end
    $var wire  1 , ex_wreg_o $end
    $var wire  8 X id_aluop_o [7:0] $end
    $var wire  3 Y id_alusel_o [2:0] $end
    $var wire 32 ' id_inst_i [31:0] $end
    $var wire 32 & id_pc_i [31:0] $end
    $var wire 32 j id_reg1_o [31:0] $end
    $var wire 32 k id_reg2_o [31:0] $end
    $var wire  5 [ id_wd_o [4:0] $end
    $var wire  1 Z id_wreg_o $end
    $var wire  5 / mem_wd_i [4:0] $end
    $var wire  5 ^ mem_wd_o [4:0] $end
    $var wire 32 0 mem_wdata_i [31:0] $end
    $var wire 32 _ mem_wdata_o [31:0] $end
    $var wire  1 . mem_wreg_i $end
    $var wire  1 ] mem_wreg_o $end
    $var wire 32 # pc [31:0] $end
    $var wire  5 b reg1_addr [4:0] $end
    $var wire 32 l reg1_data [31:0] $end
    $var wire  1 ` reg1_read $end
    $var wire  5 c reg2_addr [4:0] $end
    $var wire 32 m reg2_data [31:0] $end
    $var wire  1 a reg2_read $end
    $var wire 32 # rom_addr_o [31:0] $end
    $var wire  1 % rom_ce_o $end
    $var wire 32 $ rom_data_i [31:0] $end
    $var wire  1 i rst $end
    $var wire  5 2 wb_wd_i [4:0] $end
    $var wire 32 3 wb_wdata_i [31:0] $end
    $var wire  1 1 wb_wreg_i $end
    $scope module ex0 $end
     $var wire  8 ( aluop_i [7:0] $end
     $var wire  3 ) alusel_i [2:0] $end
     $var wire 32 f logicout [31:0] $end
     $var wire 32 * reg1_i [31:0] $end
     $var wire 32 + reg2_i [31:0] $end
     $var wire  1 i rst $end
     $var wire 32 g shiftres [31:0] $end
     $var wire  5 - wd_i [4:0] $end
     $var wire  5 - wd_o [4:0] $end
     $var wire 32 \ wdata_o [31:0] $end
     $var wire  1 , wreg_i $end
     $var wire  1 , wreg_o $end
    $upscope $end
    $scope module ex_mem0 $end
     $var wire  1 h clk $end
     $var wire  5 - ex_wd [4:0] $end
     $var wire 32 \ ex_wdata [31:0] $end
     $var wire  1 , ex_wreg $end
     $var wire  5 / mem_wd [4:0] $end
     $var wire 32 0 mem_wdata [31:0] $end
     $var wire  1 . mem_wreg $end
     $var wire  1 i rst $end
    $upscope $end
    $scope module id0 $end
     $var wire  8 X aluop_o [7:0] $end
     $var wire  3 Y alusel_o [2:0] $end
     $var wire  5 - ex_wd_i [4:0] $end
     $var wire 32 \ ex_wdata_i [31:0] $end
     $var wire  1 , ex_wreg_i $end
     $var wire 32 d imm [31:0] $end
     $var wire 32 ' inst_i [31:0] $end
     $var wire  1 e instvalid $end
     $var wire  5 ^ mem_wd_i [4:0] $end
     $var wire 32 _ mem_wdata_i [31:0] $end
     $var wire  1 ] mem_wreg_i $end
     $var wire  6 4 op [5:0] $end
     $var wire  5 5 op2 [4:0] $end
     $var wire  6 6 op3 [5:0] $end
     $var wire  5 7 op4 [4:0] $end
     $var wire 32 & pc_i [31:0] $end
     $var wire  5 b reg1_addr_o [4:0] $end
     $var wire 32 l reg1_data_i [31:0] $end
     $var wire 32 j reg1_o [31:0] $end
     $var wire  1 ` reg1_read_o $end
     $var wire  5 c reg2_addr_o [4:0] $end
     $var wire 32 m reg2_data_i [31:0] $end
     $var wire 32 k reg2_o [31:0] $end
     $var wire  1 a reg2_read_o $end
     $var wire  1 i rst $end
     $var wire  5 [ wd_o [4:0] $end
     $var wire  1 Z wreg_o $end
    $upscope $end
    $scope module id_ex0 $end
     $var wire  1 h clk $end
     $var wire  8 ( ex_aluop [7:0] $end
     $var wire  3 ) ex_alusel [2:0] $end
     $var wire 32 * ex_reg1 [31:0] $end
     $var wire 32 + ex_reg2 [31:0] $end
     $var wire  5 - ex_wd [4:0] $end
     $var wire  1 , ex_wreg $end
     $var wire  8 X id_aluop [7:0] $end
     $var wire  3 Y id_alusel [2:0] $end
     $var wire 32 j id_reg1 [31:0] $end
     $var wire 32 k id_reg2 [31:0] $end
     $var wire  5 [ id_wd [4:0] $end
     $var wire  1 Z id_wreg $end
     $var wire  1 i rst $end
    $upscope $end
    $scope module if_id0 $end
     $var wire  1 h clk $end
     $var wire 32 ' id_inst [31:0] $end
     $var wire 32 & id_pc [31:0] $end
     $var wire 32 $ if_inst [31:0] $end
     $var wire 32 # if_pc [31:0] $end
     $var wire  1 i rst $end
    $upscope $end
    $scope module mem0 $end
     $var wire  1 i rst $end
     $var wire  5 / wd_i [4:0] $end
     $var wire  5 ^ wd_o [4:0] $end
     $var wire 32 0 wdata_i [31:0] $end
     $var wire 32 _ wdata_o [31:0] $end
     $var wire  1 . wreg_i $end
     $var wire  1 ] wreg_o $end
    $upscope $end
    $scope module mem_wb0 $end
     $var wire  1 h clk $end
     $var wire  5 ^ mem_wd [4:0] $end
     $var wire 32 _ mem_wdata [31:0] $end
     $var wire  1 ] mem_wreg $end
     $var wire  1 i rst $end
     $var wire  5 2 wb_wd [4:0] $end
     $var wire 32 3 wb_wdata [31:0] $end
     $var wire  1 1 wb_wreg $end
    $upscope $end
    $scope module pc_reg0 $end
     $var wire  1 % ce $end
     $var wire  1 h clk $end
     $var wire 32 # pc [31:0] $end
     $var wire  1 i rst $end
    $upscope $end
    $scope module regfile1 $end
     $var wire  1 h clk $end
     $var wire  5 b raddr1 [4:0] $end
     $var wire  5 c raddr2 [4:0] $end
     $var wire 32 l rdata1 [31:0] $end
     $var wire 32 m rdata2 [31:0] $end
     $var wire  1 ` re1 $end
     $var wire  1 a re2 $end
     $var wire 32 8 regs(0) [31:0] $end
     $var wire 32 9 regs(1) [31:0] $end
     $var wire 32 B regs(10) [31:0] $end
     $var wire 32 C regs(11) [31:0] $end
     $var wire 32 D regs(12) [31:0] $end
     $var wire 32 E regs(13) [31:0] $end
     $var wire 32 F regs(14) [31:0] $end
     $var wire 32 G regs(15) [31:0] $end
     $var wire 32 H regs(16) [31:0] $end
     $var wire 32 I regs(17) [31:0] $end
     $var wire 32 J regs(18) [31:0] $end
     $var wire 32 K regs(19) [31:0] $end
     $var wire 32 : regs(2) [31:0] $end
     $var wire 32 L regs(20) [31:0] $end
     $var wire 32 M regs(21) [31:0] $end
     $var wire 32 N regs(22) [31:0] $end
     $var wire 32 O regs(23) [31:0] $end
     $var wire 32 P regs(24) [31:0] $end
     $var wire 32 Q regs(25) [31:0] $end
     $var wire 32 R regs(26) [31:0] $end
     $var wire 32 S regs(27) [31:0] $end
     $var wire 32 T regs(28) [31:0] $end
     $var wire 32 U regs(29) [31:0] $end
     $var wire 32 ; regs(3) [31:0] $end
     $var wire 32 V regs(30) [31:0] $end
     $var wire 32 W regs(31) [31:0] $end
     $var wire 32 < regs(4) [31:0] $end
     $var wire 32 = regs(5) [31:0] $end
     $var wire 32 > regs(6) [31:0] $end
     $var wire 32 ? regs(7) [31:0] $end
     $var wire 32 @ regs(8) [31:0] $end
     $var wire 32 A regs(9) [31:0] $end
     $var wire  1 i rst $end
     $var wire  5 2 waddr [4:0] $end
     $var wire 32 3 wdata [31:0] $end
     $var wire  1 1 we $end
    $upscope $end
   $upscope $end
  $upscope $end
 $upscope $end
$enddefinitions $end


#1
b00000000000000000000000000000000 #
b00000000000000000000000000000000 $
0%
b00000000000000000000000000000000 &
b00000000000000000000000000000000 '
b00000000 (
b000 )
b00000000000000000000000000000000 *
b00000000000000000000000000000000 +
0,
b00000 -
0.
b00000 /
b00000000000000000000000000000000 0
01
b00000 2
b00000000000000000000000000000000 3
b000000 4
b00000 5
b000000 6
b00000 7
b00000000000000000000000000000000 8
b00000000000000000000000000000000 9
b00000000000000000000000000000000 :
b00000000000000000000000000000000 ;
b00000000000000000000000000000000 <
b00000000000000000000000000000000 =
b00000000000000000000000000000000 >
b00000000000000000000000000000000 ?
b00000000000000000000000000000000 @
b00000000000000000000000000000000 A
b00000000000000000000000000000000 B
b00000000000000000000000000000000 C
b00000000000000000000000000000000 D
b00000000000000000000000000000000 E
b00000000000000000000000000000000 F
b00000000000000000000000000000000 G
b00000000000000000000000000000000 H
b00000000000000000000000000000000 I
b00000000000000000000000000000000 J
b00000000000000000000000000000000 K
b00000000000000000000000000000000 L
b00000000000000000000000000000000 M
b00000000000000000000000000000000 N
b00000000000000000000000000000000 O
b00000000000000000000000000000000 P
b00000000000000000000000000000000 Q
b00000000000000000000000000000000 R
b00000000000000000000000000000000 S
b00000000000000000000000000000000 T
b00000000000000000000000000000000 U
b00000000000000000000000000000000 V
b00000000000000000000000000000000 W
b00000000 X
b000 Y
0Z
b00000 [
b00000000000000000000000000000000 \
0]
b00000 ^
b00000000000000000000000000000000 _
0`
0a
b00000 b
b00000 c
b00000000000000000000000000000000 d
0e
b00000000000000000000000000000000 f
b00000000000000000000000000000000 g
0h
1i
b00000000000000000000000000000000 j
b00000000000000000000000000000000 k
b00000000000000000000000000000000 l
b00000000000000000000000000000000 m
#2
#3
#4
#5
#6
#7
#8
#9
#10
1h
#11
#12
#13
#14
#15
0h
#16
#17
#18
#19
#20
1h
#21
#22
#23
#24
#25
0h
#26
#27
#28
#29
#30
1h
#31
#32
#33
#34
#35
0h
#36
#37
#38
#39
#40
1h
#41
#42
#43
#44
#45
0h
#46
#47
#48
#49
#50
1h
#51
#52
#53
#54
#55
0h
#56
#57
#58
#59
#60
1h
#61
#62
#63
#64
#65
0h
#66
#67
#68
#69
#70
1h
#71
#72
#73
#74
#75
0h
#76
#77
#78
#79
#80
1h
#81
#82
#83
#84
#85
0h
#86
#87
#88
#89
#90
1h
#91
#92
#93
#94
#95
0h
#96
#97
#98
#99
#100
1h
#101
#102
#103
#104
#105
0h
#106
#107
#108
#109
#110
1h
#111
#112
#113
#114
#115
0h
#116
#117
#118
#119
#120
1h
#121
#122
#123
#124
#125
0h
#126
#127
#128
#129
#130
1h
#131
#132
#133
#134
#135
0h
#136
#137
#138
#139
#140
1h
#141
#142
#143
#144
#145
0h
#146
#147
#148
#149
#150
1h
#151
#152
#153
#154
#155
0h
#156
#157
#158
#159
#160
1h
#161
#162
#163
#164
#165
0h
#166
#167
#168
#169
#170
1h
#171
#172
#173
#174
#175
0h
#176
#177
#178
#179
#180
1h
#181
#182
#183
#184
#185
0h
#186
#187
#188
#189
#190
1h
#191
#192
#193
#194
#195
0h
#196
b01111100 X
b010 Y
1Z
1a
0i
#197
#198
#199
#200
b00111100000000010000000100000001 $
1%
b01111100 (
b010 )
1,
1h
#201
#202
#203
#204
#205
0h
#206
#207
#208
#209
#210
b00000000000000000000000000000100 #
b00110100001000010000000100000001 $
b00111100000000010000000100000001 '
1.
b001111 4
b00100 5
b000001 6
b00001 7
b00100101 X
b001 Y
b00001 [
1]
1`
0a
b00001 c
b00000001000000010000000000000000 d
1h
b00000001000000010000000000000000 k
#211
#212
#213
#214
#215
0h
#216
#217
#218
#219
#220
b00000000000000000000000000001000 #
b00110100001000100001000100000000 $
b00000000000000000000000000000100 &
b00110100001000010000000100000001 '
b00100101 (
b001 )
b00000001000000010000000000000000 +
b00001 -
11
b001101 4
b00000001000000010000000000000000 \
b00001 b
b00000000000000000000000100000001 d
b00000001000000010000000000000000 f
1h
b00000001000000010000000000000000 j
b00000000000000000000000100000001 k
#221
#222
#223
#224
#225
0h
#226
#227
#228
#229
#230
b00000000000000000000000000001100 #
b00000000001000100000100000100101 $
b00000000000000000000000000001000 &
b00110100001000100001000100000000 '
b00000001000000010000000000000000 *
b00000000000000000000000100000001 +
b00001 /
b00000001000000010000000000000000 0
b000000 6
b00010 7
b00010 [
b00000001000000010000000100000001 \
b00001 ^
b00000001000000010000000000000000 _
b00010 c
b00000000000000000001000100000000 d
b00000001000000010000000100000001 f
1h
b00000001000000010000000100000001 j
b00000000000000000001000100000000 k
#231
#232
#233
#234
#235
0h
#236
#237
#238
#239
#240
b00000000000000000000000000010000 #
b00110000001000110000000011111110 $
b00000000000000000000000000001100 &
b00000000001000100000100000100101 '
b00000001000000010000000100000001 *
b00000000000000000001000100000000 +
b00010 -
b00000001000000010000000100000001 0
b00001 2
b00000001000000010000000000000000 3
b000000 4
b00000 5
b100101 6
b00001 [
b00000001000000010001000100000001 \
b00000001000000010000000100000001 _
1a
b00000000000000000000000000000000 d
b00000001000000010001000100000001 f
1h
b00000001000000010001000100000001 k
b00000001000000010000000000000000 l
#241
#242
#243
#244
#245
0h
#246
#247
#248
#249
#250
b00000000000000000000000000010100 #
b00000000011000010000100000100100 $
b00000000000000000000000000010000 &
b00110000001000110000000011111110 '
b00000001000000010001000100000001 +
b00001 -
b00010 /
b00000001000000010001000100000001 0
b00000001000000010000000100000001 3
b001100 4
b00011 5
b111110 6
b00011 7
b00000001000000010000000000000000 9
b00100100 X
b00011 [
b00010 ^
b00000001000000010001000100000001 _
0a
b00011 c
b00000000000000000000000011111110 d
1h
b00000001000000010001000100000001 j
b00000000000000000000000011111110 k
b00000001000000010000000100000001 l
#251
#252
#253
#254
#255
0h
#256
#257
#258
#259
#260
b00000000000000000000000000011000 #
b00111000001001001111111100000000 $
b00000000000000000000000000010100 &
b00000000011000010000100000100100 '
b00100100 (
b00000001000000010001000100000001 *
b00000000000000000000000011111110 +
b00011 -
b00001 /
b00010 2
b00000001000000010001000100000001 3
b000000 4
b00000 5
b100100 6
b00001 7
b00000001000000010000000100000001 9
b00001 [
b00000000000000000000000000000000 \
b00001 ^
1a
b00011 b
b00001 c
b00000000000000000000000000000000 d
b00000000000000000000000000000000 f
1h
b00000000000000000000000000000000 j
b00000001000000010001000100000001 k
b00000000000000000000000000000000 l
b00000001000000010000000100000001 m
#261
#262
#263
#264
#265
0h
#266
#267
#268
#269
#270
b00000000000000000000000000011100 #
b00000000100000010000100000100110 $
b00000000000000000000000000011000 &
b00111000001001001111111100000000 '
b00000000000000000000000000000000 *
b00000001000000010001000100000001 +
b00001 -
b00011 /
b00000000000000000000000000000000 0
b00001 2
b001110 4
b11100 5
b000000 6
b00100 7
b00000001000000010001000100000001 :
b00100110 X
b00100 [
b00011 ^
b00000000000000000000000000000000 _
0a
b00001 b
b00100 c
b00000000000000001111111100000000 d
1h
b00000000000000001111111100000000 k
b00000001000000010001000100000001 l
b00000000000000000000000000000000 m
#271
#272
#273
#274
#275
0h
#276
#277
#278
#279
#280
b00000000000000000000000000100000 #
b00000000100000010000100000100111 $
b00000000000000000000000000011100 &
b00000000100000010000100000100110 '
b00100110 (
b00000000000000001111111100000000 +
b00100 -
b00001 /
b00011 2
b00000000000000000000000000000000 3
b000000 4
b00000 5
b100110 6
b00001 7
b00000001000000010001000100000001 9
b00001 [
b00000000000000001111111100000000 \
b00001 ^
1a
b00100 b
b00001 c
b00000000000000000000000000000000 d
b00000000000000001111111100000000 f
1h
b00000000000000001111111100000000 j
b00000000000000000000000000000000 k
b00000000000000000000000000000000 l
b00000001000000010001000100000001 m
#281
#282
#283
#284
#285
0h
#286
#287
#288
#289
#290
b00000000000000000000000000100100 #
b00000000000000000000000000000000 $
b00000000000000000000000000100000 &
b00000000100000010000100000100111 '
b00000000000000001111111100000000 *
b00000000000000000000000000000000 +
b00001 -
b00100 /
b00000000000000001111111100000000 0
b00001 2
b100111 6
b00100111 X
b00100 ^
b00000000000000001111111100000000 _
1h
b00000000000000001111111100000000 k
b00000000000000000000000000000000 m
#291
#292
#293
#294
#295
0h
#296
#297
#298
#299
#300
b00000000000000000000000000101000 #
b00000000000000000000000000100100 &
b00000000000000000000000000000000 '
b00100111 (
b00000000000000001111111100000000 +
b00001 /
b00100 2
b00000000000000001111111100000000 3
b000000 6
b00000 7
b00000000000000000000000000000000 9
b01111100 X
b010 Y
b00000 [
b11111111111111110000000011111111 \
b00001 ^
0`
b00000 b
b00000 c
b11111111111111110000000011111111 f
1h
b00000000000000000000000000000000 j
b00000000000000000000000000000000 k
#301
#302
#303
#304
#305
0h
#306
#307
#308
#309
#310
b00000000000000000000000000101100 #
b00000000000000000000000000101000 &
b01111100 (
b010 )
b00000000000000000000000000000000 *
b00000000000000000000000000000000 +
b00000 -
b11111111111111110000000011111111 0
b00001 2
b00000000000000001111111100000000 <
b00000000000000000000000000000000 \
b11111111111111110000000011111111 _
1h
#311
#312
#313
#314
#315
0h
#316
#317
#318
#319
#320
b00000000000000000000000000110000 #
b00000000000000000000000000011110 $
b00000000000000000000000000101100 &
b00000 /
b00000000000000000000000000000000 0
b11111111111111110000000011111111 3
b00000000000000001111111100000000 9
b00000 ^
b00000000000000000000000000000000 _
1h
#321
#322
#323
#324
#325
0h
#326
#327
#328
#329
#330
b00000000000000000000000000110100 #
b00000000000000000000000000000000 $
b00000000000000000000000000110000 &
b00000000000000000000000000011110 '
b00000 2
b00000000000000000000000000000000 3
b011110 6
b11111111111111110000000011111111 9
b00000000 X
b000 Y
0Z
0a
1e
1h
#331
#332
#333
#334
#335
0h
#336
#337
#338
#339
#340
b00000000000000000000000000111000 #
b00000000000000000000000000110100 &
b00000000000000000000000000000000 '
b00000000 (
b000 )
0,
b000000 6
b01111100 X
b010 Y
1Z
1a
0e
b00000000000000000000000000000000 f
1h
#341
#342
#343
#344
#345
0h
#346
#347
#348
#349
#350
b00000000000000000000000000111100 #
b00000000000000000000000000111000 &
b01111100 (
b010 )
1,
0.
0]
1h
#351
#352
#353
#354
#355
0h
#356
#357
#358
#359
#360
b00000000000000000000000001000000 #
b00000000000000000000000000111100 &
1.
01
1]
1h
#361
#362
#363
#364
#365
0h
#366
#367
#368
#369
#370
b00000000000000000000000001000100 #
b00000000000000000000000001000000 &
11
1h
#371
#372
#373
#374
#375
0h
#376
#377
#378
#379
#380
b00000000000000000000000001001000 #
b00000000000000000010000000000001 $
b00000000000000000000000001000100 &
1h
#381
#382
#383
#384
#385
0h
#386
#387
#388
#389
#390
b00000000000000000000000001001100 #
b00000001000000010000000000000001 $
b00000000000000000000000001001000 &
b00000000000000000010000000000001 '
b000001 6
b00000000 X
b000 Y
0Z
b00100 [
0a
1e
1h
#391
#392
#393
#394
#395
0h
#396
#397
#398
#399
#400
b00000000000000000000000001010000 #
b00000000000000000000000000000000 $
b00000000000000000000000001001100 &
b00000001000000010000000000000001 '
b00000000 (
b000 )
0,
b00100 -
b00001 7
b00000 [
b01000 b
b00001 c
1h
#401
#402
#403
#404
#405
0h
#406
#407
#408
#409
#410
b00000000000000000000000001010100 #
b00000000000000000000000001010000 &
b00000000000000000000000000000000 '
b00000 -
0.
b00100 /
b000000 6
b00000 7
b01111100 X
b010 Y
1Z
0]
b00100 ^
1a
b00000 b
b00000 c
0e
1h
#411
#412
#413
#414
#415
0h
#416
#417
#418
#419
#420
b00000000000000000000000001011000 #
b00000000000000000000000000000001 $
b00000000000000000000000001010100 &
b01111100 (
b010 )
1,
b00000 /
01
b00100 2
b00000 ^
1h
#421
#422
#423
#424
#425
0h
#426
#427
#428
#429
#430
b00000000000000000000000001011100 #
b00000000000000000000000000000000 $
b00000000000000000000000001011000 &
b00000000000000000000000000000001 '
1.
b00000 2
b000001 6
b00000000 X
b000 Y
0Z
1]
0a
1e
1h
#431
#432
#433
#434
#435
0h
#436
#437
#438
#439
#440
b00000000000000000000000001100000 #
b00000000000000000000000001011100 &
b00000000000000000000000000000000 '
b00000000 (
b000 )
0,
11
b000000 6
b01111100 X
b010 Y
1Z
1a
0e
1h
#441
#442
#443
#444
#445
0h
#446
#447
#448
#449
#450
b00000000000000000000000001100100 #
b00000000000000000000000001100000 &
b01111100 (
b010 )
1,
0.
0]
1h
#451
#452
#453
#454
#455
0h
#456
#457
#458
#459
#460
b00000000000000000000000001101000 #
b00000000000000000000000001100100 &
1.
01
1]
1h
#461
#462
#463
#464
#465
0h
#466
#467
#468
#469
#470
b00000000000000000000000001101100 #
b00000000000000000000000001101000 &
11
1h
#471
#472
#473
#474
#475
0h
#476
#477
#478
#479
#480
b00000000000000000000000001110000 #
b00000000000000000000000001101100 &
1h
#481
#482
#483
#484
#485
0h
#486
#487
#488
#489
#490
b00000000000000000000000001110100 #
b00000000000000000000000001110000 &
1h
#491
#492
#493
#494
#495
0h
#496
#497
#498
#499
#500
b00000000000000000000000001111000 #
b00000000000000000000000001110100 &
1h
#501
#502
#503
#504
#505
0h
#506
#507
#508
#509
#510
b00000000000000000000000001111100 #
b00000000000000000000000001111000 &
1h
#511
#512
#513
#514
#515
0h
#516
#517
#518
#519
#520
b00000000000000000000000010000000 #
b00000000000000000000000001111100 &
1h
#521
#522
#523
#524
#525
0h
#526
#527
#528
#529
#530
b00000000000000000000000010000100 #
b00000000000000000000000010000000 &
1h
#531
#532
#533
#534
#535
0h
#536
#537
#538
#539
#540
b00000000000000000000000010001000 #
b00000000000000000000000010000100 &
1h
#541
#542
#543
#544
#545
0h
#546
#547
#548
#549
#550
b00000000000000000000000010001100 #
b00000000000000000000000010001000 &
1h
#551
#552
#553
#554
#555
0h
#556
#557
#558
#559
#560
b00000000000000000000000010010000 #
b00000000000000000000000010001100 &
1h
#561
#562
#563
#564
#565
0h
#566
#567
#568
#569
#570
b00000000000000000000000010010100 #
b00000000000000000000000010010000 &
1h
#571
#572
#573
#574
#575
0h
#576
#577
#578
#579
#580
b00000000000000000000000010011000 #
b00000000000000000000000010010100 &
1h
#581
#582
#583
#584
#585
0h
#586
#587
#588
#589
#590
b00000000000000000000000010011100 #
b00000000000000000000000010011000 &
1h
#591
#592
#593
#594
#595
0h
#596
#597
#598
#599
#600
b00000000000000000000000010100000 #
b00000000000000000000000010011100 &
1h
#601
#602
#603
#604
#605
0h
#606
#607
#608
#609
#610
b00000000000000000000000010100100 #
b00000000000000000000000010100000 &
1h
#611
#612
#613
#614
#615
0h
#616
#617
#618
#619
#620
b00000000000000000000000010101000 #
b00000000000000000000000010100100 &
1h
#621
#622
#623
#624
#625
0h
#626
#627
#628
#629
#630
b00000000000000000000000010101100 #
b00000000000000000000000010101000 &
1h
#631
#632
#633
#634
#635
0h
#636
#637
#638
#639
#640
b00000000000000000000000010110000 #
b00000000000000000000000010101100 &
1h
#641
#642
#643
#644
#645
0h
#646
#647
#648
#649
#650
b00000000000000000000000010110100 #
b00000000000000000000000010110000 &
1h
#651
#652
#653
#654
#655
0h
#656
#657
#658
#659
#660
b00000000000000000000000010111000 #
b00000000000000000000000010110100 &
1h
#661
#662
#663
#664
#665
0h
#666
#667
#668
#669
#670
b00000000000000000000000010111100 #
b00000000000000000000000010111000 &
1h
#671
#672
#673
#674
#675
0h
#676
#677
#678
#679
#680
b00000000000000000000000011000000 #
b00000000000000000000000010111100 &
1h
#681
#682
#683
#684
#685
0h
#686
#687
#688
#689
#690
b00000000000000000000000011000100 #
b00000000000000000000000011000000 &
1h
#691
#692
#693
#694
#695
0h
#696
#697
#698
#699
#700
b00000000000000000000000011001000 #
b00000000000000000000000011000100 &
1h
#701
#702
#703
#704
#705
0h
#706
#707
#708
#709
#710
b00000000000000000000000011001100 #
b00000000000000000000000011001000 &
1h
#711
#712
#713
#714
#715
0h
#716
#717
#718
#719
#720
b00000000000000000000000011010000 #
b00000000000000000000000011001100 &
1h
#721
#722
#723
#724
#725
0h
#726
#727
#728
#729
#730
b00000000000000000000000011010100 #
b00000000000000000000000011010000 &
1h
#731
#732
#733
#734
#735
0h
#736
#737
#738
#739
#740
b00000000000000000000000011011000 #
b00000000000000000000000011010100 &
1h
#741
#742
#743
#744
#745
0h
#746
#747
#748
#749
#750
b00000000000000000000000011011100 #
b00000000000000000000000011011000 &
1h
#751
#752
#753
#754
#755
0h
#756
#757
#758
#759
#760
b00000000000000000000000011100000 #
b00000000000000000000000011011100 &
1h
#761
#762
#763
#764
#765
0h
#766
#767
#768
#769
#770
b00000000000000000000000011100100 #
b00000000000000000000000011100000 &
1h
#771
#772
#773
#774
#775
0h
#776
#777
#778
#779
#780
b00000000000000000000000011101000 #
b00000000000000000000000011100100 &
1h
#781
#782
#783
#784
#785
0h
#786
#787
#788
#789
#790
b00000000000000000000000011101100 #
b00000000000000000000000011101000 &
1h
#791
#792
#793
#794
#795
0h
#796
#797
#798
#799
#800
b00000000000000000000000011110000 #
b00000000000000000000000011101100 &
1h
#801
#802
#803
#804
#805
0h
#806
#807
#808
#809
#810
b00000000000000000000000011110100 #
b00000000000000000000000011110000 &
1h
#811
#812
#813
#814
#815
0h
#816
#817
#818
#819
#820
b00000000000000000000000011111000 #
b00000000000000000000000011110100 &
1h
#821
#822
#823
#824
#825
0h
#826
#827
#828
#829
#830
b00000000000000000000000011111100 #
b00000000000000000000000011111000 &
1h
#831
#832
#833
#834
#835
0h
#836
#837
#838
#839
#840
b00000000000000000000000100000000 #
b00000000000000000000000011111100 &
1h
#841
#842
#843
#844
#845
0h
#846
#847
#848
#849
#850
b00000000000000000000000100000100 #
b00000000000000000000000100000000 &
1h
#851
#852
#853
#854
#855
0h
#856
#857
#858
#859
#860
b00000000000000000000000100001000 #
b00000000000000000000000100000100 &
1h
#861
#862
#863
#864
#865
0h
#866
#867
#868
#869
#870
b00000000000000000000000100001100 #
b00000000000000000000000100001000 &
1h
#871
#872
#873
#874
#875
0h
#876
#877
#878
#879
#880
b00000000000000000000000100010000 #
b00000000000000000000000100001100 &
1h
#881
#882
#883
#884
#885
0h
#886
#887
#888
#889
#890
b00000000000000000000000100010100 #
b00000000000000000000000100010000 &
1h
#891
#892
#893
#894
#895
0h
#896
#897
#898
#899
#900
b00000000000000000000000100011000 #
b00000000000000000000000100010100 &
1h
#901
#902
#903
#904
#905
0h
#906
#907
#908
#909
#910
b00000000000000000000000100011100 #
b00000000000000000000000100011000 &
1h
#911
#912
#913
#914
#915
0h
#916
#917
#918
#919
#920
b00000000000000000000000100100000 #
b00000000000000000000000100011100 &
1h
#921
#922
#923
#924
#925
0h
#926
#927
#928
#929
#930
b00000000000000000000000100100100 #
b00000000000000000000000100100000 &
1h
#931
#932
#933
#934
#935
0h
#936
#937
#938
#939
#940
b00000000000000000000000100101000 #
b00000000000000000000000100100100 &
1h
#941
#942
#943
#944
#945
0h
#946
#947
#948
#949
#950
b00000000000000000000000100101100 #
b00000000000000000000000100101000 &
1h
#951
#952
#953
#954
#955
0h
#956
#957
#958
#959
#960
b00000000000000000000000100110000 #
b00000000000000000000000100101100 &
1h
#961
#962
#963
#964
#965
0h
#966
#967
#968
#969
#970
b00000000000000000000000100110100 #
b00000000000000000000000100110000 &
1h
#971
#972
#973
#974
#975
0h
#976
#977
#978
#979
#980
b00000000000000000000000100111000 #
b00000000000000000000000100110100 &
1h
#981
#982
#983
#984
#985
0h
#986
#987
#988
#989
#990
b00000000000000000000000100111100 #
b00000000000000000000000100111000 &
1h
#991
#992
#993
#994
#995
0h
#996
#997
#998
#999
#1000
b00000000000000000000000101000000 #
b00000000000000000000000100111100 &
1h
